{
  "__type__": "cc.SpriteFrame",
  "content": {
    "name": "active_reels_button_04",
    "texture": "fc8nPBErBCRY7WYSFUD6Pc",
    "rect": [
      0,
      3,
      67,
      35
    ],
    "offset": [
      -1,
      -1.5
    ],
    "originalSize": [
      69,
      38
    ],
    "capInsets": [
      0,
      0,
      0,
      0
    ]
  }
}