{
  "__type__": "cc.SpriteFrame",
  "content": {
    "name": "bg",
    "texture": "72m2Z/dXpATb88s3mpA+xh",
    "rect": [
      1,
      1,
      1280,
      720
    ],
    "offset": [
      0,
      0
    ],
    "originalSize": [
      1282,
      722
    ],
    "capInsets": [
      0,
      0,
      0,
      0
    ]
  }
}