[
  {
    "__type__": "cc.SpriteFrame",
    "content": {
      "name": "default_btn_disabled",
      "texture": "71VhFCTINJM6/Ky3oX9nBT",
      "rect": [
        0,
        0,
        40,
        40
      ],
      "offset": [
        0,
        0
      ],
      "originalSize": [
        40,
        40
      ],
      "capInsets": [
        12,
        12,
        12,
        12
      ]
    }
  },
  {
    "__type__": "cc.SpriteFrame",
    "content": {
      "name": "canh2",
      "texture": "43W3UeQmRGHZf5EtstT4WU",
      "rect": [
        0,
        0,
        112,
        73
      ],
      "offset": [
        0,
        0
      ],
      "originalSize": [
        112,
        73
      ],
      "capInsets": [
        0,
        0,
        0,
        0
      ]
    }
  },
  {
    "__type__": "cc.SpriteFrame",
    "content": {
      "name": "game_minigame_totalscore_iconshare",
      "texture": "67B4U0gL1NZ5uxmGRkV5ZW",
      "rect": [
        1,
        1,
        29,
        28
      ],
      "offset": [
        0,
        0
      ],
      "originalSize": [
        31,
        30
      ],
      "capInsets": [
        0,
        0,
        0,
        0
      ]
    }
  },
  {
    "__type__": "cc.SpriteFrame",
    "content": {
      "name": "game_minigame_totalscore_bg",
      "texture": "a7WGeJj8FGs6hIeAAGY50A",
      "rect": [
        0,
        0,
        913,
        509
      ],
      "offset": [
        0,
        0
      ],
      "originalSize": [
        913,
        509
      ],
      "capInsets": [
        0,
        0,
        0,
        0
      ]
    }
  },
  {
    "__type__": "cc.SpriteFrame",
    "content": {
      "name": "game_minigame_totalscore_treasure",
      "texture": "cakM6VR6tNFZTlJuN4xmGg",
      "rect": [
        0,
        0,
        324,
        40
      ],
      "offset": [
        0,
        0
      ],
      "originalSize": [
        324,
        40
      ],
      "capInsets": [
        0,
        0,
        0,
        0
      ]
    }
  },
  {
    "__type__": "cc.SpriteFrame",
    "content": {
      "name": "game_minigame_totalscore_backtogame",
      "texture": "75ty/AxiZM0bqDcmClfWel",
      "rect": [
        1,
        1,
        296,
        73
      ],
      "offset": [
        0,
        0
      ],
      "originalSize": [
        298,
        75
      ],
      "capInsets": [
        0,
        0,
        0,
        0
      ]
    }
  },
  {
    "__type__": "cc.SpriteFrame",
    "content": {
      "name": "default_btn_pressed",
      "texture": "b4P/PCArtIdIH38t6mlw8Y",
      "rect": [
        0,
        0,
        40,
        40
      ],
      "offset": [
        0,
        0
      ],
      "originalSize": [
        40,
        40
      ],
      "capInsets": [
        12,
        12,
        12,
        12
      ]
    }
  },
  [
    {
      "__type__": "cc.Prefab",
      "_name": "Minigame6",
      "data": {
        "__id__": 1
      }
    },
    {
      "__type__": "cc.Node",
      "_name": "Minigame6",
      "_children": [
        {
          "__id__": 2
        },
        {
          "__id__": 3
        },
        {
          "__id__": 11
        },
        {
          "__id__": 18
        },
        {
          "__id__": 23
        },
        {
          "__id__": 24
        }
      ],
      "_level": 1,
      "_components": [
        {
          "__type__": "981af1BTgZF/bp1iOEyEXSR",
          "node": {
            "__id__": 1
          },
          "startSpin": {
            "__id__": 21
          },
          "mainReel1": {
            "__id__": 10
          },
          "mainReel2": {
            "__id__": 7
          },
          "backgroundSpin": {
            "__id__": 20
          },
          "deactiveSpin": {
            "__id__": 22
          }
        },
        {
          "__type__": "cc.Widget",
          "node": {
            "__id__": 1
          },
          "_alignFlags": 45
        }
      ],
      "_prefab": {
        "__type__": "cc.PrefabInfo",
        "root": {
          "__id__": 1
        },
        "asset": {
          "__uuid__": "ebHBgr6hpNyqyTveJZXsmE"
        },
        "fileId": "a8BMmL9w5LKKcxKnoVvjyv"
      },
      "_contentSize": {
        "__type__": "cc.Size",
        "width": 1280,
        "height": 720
      },
      "_position": {
        "__type__": "cc.Vec3",
        "x": 640,
        "y": 360
      }
    },
    {
      "__type__": "cc.Node",
      "_name": "bg",
      "_parent": {
        "__id__": 1
      },
      "_level": 2,
      "_components": [
        {
          "__type__": "cc.Sprite",
          "node": {
            "__id__": 2
          },
          "_sizeMode": 0
        }
      ],
      "_prefab": {
        "__type__": "cc.PrefabInfo",
        "root": {
          "__id__": 1
        },
        "asset": {
          "__uuid__": "ebHBgr6hpNyqyTveJZXsmE"
        },
        "fileId": "ca2I0MEodKb7jtG3rGg0A4"
      },
      "_contentSize": {
        "__type__": "cc.Size",
        "width": 1280,
        "height": 720
      }
    },
    {
      "__type__": "cc.Node",
      "_name": "main",
      "_parent": {
        "__id__": 1
      },
      "_children": [
        {
          "__id__": 4
        },
        {
          "__id__": 5
        },
        {
          "__id__": 8
        }
      ],
      "_level": 2,
      "_prefab": {
        "__type__": "cc.PrefabInfo",
        "root": {
          "__id__": 1
        },
        "asset": {
          "__uuid__": "ebHBgr6hpNyqyTveJZXsmE"
        },
        "fileId": "71uin0FmxO16hWmZFW6EHd"
      }
    },
    {
      "__type__": "cc.Node",
      "_name": "tree_02",
      "_parent": {
        "__id__": 3
      },
      "_level": 3,
      "_components": [
        {
          "__type__": "cc.Sprite",
          "node": {
            "__id__": 4
          }
        }
      ],
      "_prefab": {
        "__type__": "cc.PrefabInfo",
        "root": {
          "__id__": 1
        },
        "asset": {
          "__uuid__": "ebHBgr6hpNyqyTveJZXsmE"
        },
        "fileId": "a0RAFAPgBMAZbj8EUhmTAB"
      },
      "_contentSize": {
        "__type__": "cc.Size",
        "width": 176,
        "height": 304
      },
      "_position": {
        "__type__": "cc.Vec3",
        "x": -259,
        "y": 125
      }
    },
    {
      "__type__": "cc.Node",
      "_name": "reel-2",
      "_parent": {
        "__id__": 3
      },
      "_children": [
        {
          "__id__": 6
        }
      ],
      "_level": 3,
      "_components": [
        {
          "__id__": 7
        }
      ],
      "_prefab": {
        "__type__": "cc.PrefabInfo",
        "root": {
          "__id__": 1
        },
        "asset": {
          "__uuid__": "ebHBgr6hpNyqyTveJZXsmE"
        },
        "fileId": "9682uZtuFIALTJo8MzSju6"
      }
    },
    {
      "__type__": "cc.Node",
      "_name": "circle_wild",
      "_parent": {
        "__id__": 5
      },
      "_level": 4,
      "_components": [
        {
          "__type__": "cc.Sprite",
          "node": {
            "__id__": 6
          }
        }
      ],
      "_prefab": {
        "__type__": "cc.PrefabInfo",
        "root": {
          "__id__": 1
        },
        "asset": {
          "__uuid__": "ebHBgr6hpNyqyTveJZXsmE"
        },
        "fileId": "59D2HRJhVFB6cZFRjS6Yx8"
      },
      "_contentSize": {
        "__type__": "cc.Size",
        "width": 651,
        "height": 651
      },
      "_rotationX": 10,
      "_rotationY": 10,
      "_quat": {
        "__type__": "cc.Quat",
        "z": -0.08715574274765817,
        "w": 0.9961946980917455
      }
    },
    {
      "__type__": "cc.RigidBody",
      "node": {
        "__id__": 5
      },
      "_allowSleep": false
    },
    {
      "__type__": "cc.Node",
      "_name": "reel-1",
      "_parent": {
        "__id__": 3
      },
      "_children": [
        {
          "__id__": 9
        }
      ],
      "_level": 3,
      "_components": [
        {
          "__id__": 10
        }
      ],
      "_prefab": {
        "__type__": "cc.PrefabInfo",
        "root": {
          "__id__": 1
        },
        "asset": {
          "__uuid__": "ebHBgr6hpNyqyTveJZXsmE"
        },
        "fileId": "59ZMbL8tVLRIQlM164Wd6q"
      }
    },
    {
      "__type__": "cc.Node",
      "_name": "circle_number",
      "_parent": {
        "__id__": 8
      },
      "_level": 4,
      "_components": [
        {
          "__type__": "cc.Sprite",
          "node": {
            "__id__": 9
          }
        }
      ],
      "_prefab": {
        "__type__": "cc.PrefabInfo",
        "root": {
          "__id__": 1
        },
        "asset": {
          "__uuid__": "ebHBgr6hpNyqyTveJZXsmE"
        },
        "fileId": "3dOK/JazVOi4kryeDYNILd"
      },
      "_contentSize": {
        "__type__": "cc.Size",
        "width": 369,
        "height": 369
      },
      "_rotationX": 10,
      "_rotationY": 10,
      "_quat": {
        "__type__": "cc.Quat",
        "z": -0.08715574274765817,
        "w": 0.9961946980917455
      }
    },
    {
      "__type__": "cc.RigidBody",
      "node": {
        "__id__": 8
      },
      "_allowSleep": false
    },
    {
      "__type__": "cc.Node",
      "_name": "reel",
      "_parent": {
        "__id__": 1
      },
      "_children": [
        {
          "__id__": 12
        },
        {
          "__id__": 13
        },
        {
          "__id__": 14
        },
        {
          "__id__": 15
        },
        {
          "__id__": 16
        },
        {
          "__id__": 17
        }
      ],
      "_level": 2,
      "_prefab": {
        "__type__": "cc.PrefabInfo",
        "root": {
          "__id__": 1
        },
        "asset": {
          "__uuid__": "ebHBgr6hpNyqyTveJZXsmE"
        },
        "fileId": "7dSuknfs9Or6Y3BtINK5xw"
      }
    },
    {
      "__type__": "cc.Node",
      "_name": "black_over",
      "_parent": {
        "__id__": 11
      },
      "_level": 3,
      "_components": [
        {
          "__type__": "cc.Sprite",
          "node": {
            "__id__": 12
          },
          "_sizeMode": 2
        }
      ],
      "_prefab": {
        "__type__": "cc.PrefabInfo",
        "root": {
          "__id__": 1
        },
        "asset": {
          "__uuid__": "ebHBgr6hpNyqyTveJZXsmE"
        },
        "fileId": "b5mHdEKr1Di6u67yJsl5IP"
      },
      "_contentSize": {
        "__type__": "cc.Size",
        "width": 627,
        "height": 614
      },
      "_position": {
        "__type__": "cc.Vec3",
        "x": 7
      }
    },
    {
      "__type__": "cc.Node",
      "_name": "circle_04",
      "_parent": {
        "__id__": 11
      },
      "_level": 3,
      "_components": [
        {
          "__type__": "cc.Sprite",
          "node": {
            "__id__": 13
          },
          "_sizeMode": 2
        }
      ],
      "_prefab": {
        "__type__": "cc.PrefabInfo",
        "root": {
          "__id__": 1
        },
        "asset": {
          "__uuid__": "ebHBgr6hpNyqyTveJZXsmE"
        },
        "fileId": "d6+BVjkWBHEqe3MqdbFE0O"
      },
      "_contentSize": {
        "__type__": "cc.Size",
        "width": 741,
        "height": 735
      },
      "_position": {
        "__type__": "cc.Vec3",
        "x": -2
      }
    },
    {
      "__type__": "cc.Node",
      "_name": "light_circle03",
      "_parent": {
        "__id__": 11
      },
      "_active": false,
      "_level": 3,
      "_components": [
        {
          "__type__": "cc.Sprite",
          "node": {
            "__id__": 14
          }
        }
      ],
      "_prefab": {
        "__type__": "cc.PrefabInfo",
        "root": {
          "__id__": 1
        },
        "asset": {
          "__uuid__": "ebHBgr6hpNyqyTveJZXsmE"
        },
        "fileId": "38ZSN3f7VA9IwF4VmhJzXX"
      },
      "_contentSize": {
        "__type__": "cc.Size",
        "width": 648,
        "height": 454
      }
    },
    {
      "__type__": "cc.Node",
      "_name": "circle01",
      "_parent": {
        "__id__": 11
      },
      "_level": 3,
      "_components": [
        {
          "__type__": "cc.Sprite",
          "node": {
            "__id__": 15
          }
        }
      ],
      "_prefab": {
        "__type__": "cc.PrefabInfo",
        "root": {
          "__id__": 1
        },
        "asset": {
          "__uuid__": "ebHBgr6hpNyqyTveJZXsmE"
        },
        "fileId": "7diXt0g/5JBY4N93YXrhTp"
      },
      "_contentSize": {
        "__type__": "cc.Size",
        "width": 118,
        "height": 131
      }
    },
    {
      "__type__": "cc.Node",
      "_name": "daisen",
      "_parent": {
        "__id__": 11
      },
      "_level": 3,
      "_components": [
        {
          "__type__": "cc.Sprite",
          "node": {
            "__id__": 16
          }
        }
      ],
      "_prefab": {
        "__type__": "cc.PrefabInfo",
        "root": {
          "__id__": 1
        },
        "asset": {
          "__uuid__": "ebHBgr6hpNyqyTveJZXsmE"
        },
        "fileId": "7c8z2GGLRAZrEeaLFpDzEK"
      },
      "_contentSize": {
        "__type__": "cc.Size",
        "width": 718,
        "height": 272
      },
      "_position": {
        "__type__": "cc.Vec3",
        "x": -31,
        "y": -277
      }
    },
    {
      "__type__": "cc.Node",
      "_name": "tree",
      "_parent": {
        "__id__": 11
      },
      "_level": 3,
      "_components": [
        {
          "__type__": "cc.Sprite",
          "node": {
            "__id__": 17
          }
        }
      ],
      "_prefab": {
        "__type__": "cc.PrefabInfo",
        "root": {
          "__id__": 1
        },
        "asset": {
          "__uuid__": "ebHBgr6hpNyqyTveJZXsmE"
        },
        "fileId": "8c2vW5yc5MDq8BriT0oWAf"
      },
      "_contentSize": {
        "__type__": "cc.Size",
        "width": 499,
        "height": 673
      },
      "_position": {
        "__type__": "cc.Vec3",
        "x": -312,
        "y": -34
      },
      "_rotationX": -1,
      "_rotationY": -1,
      "_quat": {
        "__type__": "cc.Quat",
        "z": 0.008726535498373935,
        "w": 0.9999619230641713
      }
    },
    {
      "__type__": "cc.Node",
      "_name": "spin",
      "_parent": {
        "__id__": 1
      },
      "_children": [
        {
          "__id__": 19
        },
        {
          "__id__": 20
        },
        {
          "__id__": 21
        },
        {
          "__id__": 22
        }
      ],
      "_level": 2,
      "_prefab": {
        "__type__": "cc.PrefabInfo",
        "root": {
          "__id__": 1
        },
        "asset": {
          "__uuid__": "ebHBgr6hpNyqyTveJZXsmE"
        },
        "fileId": "bbW7RAQrBGRr9V8glO3Zrp"
      },
      "_position": {
        "__type__": "cc.Vec3",
        "x": 437,
        "y": -151
      }
    },
    {
      "__type__": "cc.Node",
      "_name": "kilan",
      "_parent": {
        "__id__": 18
      },
      "_level": 4,
      "_components": [
        {
          "__type__": "cc.Sprite",
          "node": {
            "__id__": 19
          }
        }
      ],
      "_prefab": {
        "__type__": "cc.PrefabInfo",
        "root": {
          "__id__": 1
        },
        "asset": {
          "__uuid__": "ebHBgr6hpNyqyTveJZXsmE"
        },
        "fileId": "1aV613pQFBj5ZAr/1sElnF"
      },
      "_contentSize": {
        "__type__": "cc.Size",
        "width": 305,
        "height": 346
      },
      "_position": {
        "__type__": "cc.Vec3",
        "y": 163
      }
    },
    {
      "__type__": "cc.Node",
      "_name": "spin_light",
      "_parent": {
        "__id__": 18
      },
      "_level": 4,
      "_components": [
        {
          "__type__": "cc.Sprite",
          "node": {
            "__id__": 20
          },
          "_sizeMode": 2
        }
      ],
      "_prefab": {
        "__type__": "cc.PrefabInfo",
        "root": {
          "__id__": 1
        },
        "asset": {
          "__uuid__": "ebHBgr6hpNyqyTveJZXsmE"
        },
        "fileId": "86JM9CvnRH2bjFZBlq1dhw"
      },
      "_contentSize": {
        "__type__": "cc.Size",
        "width": 306,
        "height": 309
      },
      "_anchorPoint": {
        "__type__": "cc.Vec2",
        "x": 0.48,
        "y": 0.5
      }
    },
    {
      "__type__": "cc.Node",
      "_name": "spin",
      "_parent": {
        "__id__": 18
      },
      "_level": 4,
      "_components": [
        {
          "__type__": "cc.Sprite",
          "node": {
            "__id__": 21
          },
          "_type": 1
        },
        {
          "__type__": "cc.Button",
          "node": {
            "__id__": 21
          },
          "clickEvents": [
            {
              "__type__": "cc.ClickEvent",
              "target": {
                "__id__": 1
              },
              "_componentId": "981af1BTgZF/bp1iOEyEXSR",
              "handler": "spin"
            }
          ],
          "_N$normalColor": {
            "__type__": "cc.Color",
            "r": 255,
            "g": 255,
            "b": 255
          },
          "_N$pressedColor": {
            "__type__": "cc.Color",
            "r": 255,
            "g": 255,
            "b": 255
          },
          "pressedColor": {
            "__type__": "cc.Color",
            "r": 255,
            "g": 255,
            "b": 255
          },
          "_N$disabledColor": {
            "__type__": "cc.Color",
            "r": 255,
            "g": 255,
            "b": 255
          },
          "_N$pressedSprite": {
            "__uuid__": "e97GVMl6JHh5Ml5qEDdSGa"
          },
          "pressedSprite": {
            "__uuid__": "e97GVMl6JHh5Ml5qEDdSGa"
          },
          "_N$hoverSprite": {
            "__uuid__": "f0BIwQ8D5Ml7nTNQbh1YlS"
          },
          "hoverSprite": {
            "__uuid__": "f0BIwQ8D5Ml7nTNQbh1YlS"
          },
          "_N$disabledSprite": {
            "__uuid__": "29FYIk+N1GYaeWH/q1NxQO"
          },
          "_N$target": {
            "__id__": 21
          }
        }
      ],
      "_prefab": {
        "__type__": "cc.PrefabInfo",
        "root": {
          "__id__": 1
        },
        "asset": {
          "__uuid__": "ebHBgr6hpNyqyTveJZXsmE"
        },
        "fileId": "41RqdK2PdK45mC/DS7fKWz"
      },
      "_contentSize": {
        "__type__": "cc.Size",
        "width": 155,
        "height": 154
      }
    },
    {
      "__type__": "cc.Node",
      "_name": "spin_active",
      "_parent": {
        "__id__": 18
      },
      "_active": false,
      "_level": 4,
      "_components": [
        {
          "__type__": "cc.Sprite",
          "node": {
            "__id__": 22
          }
        }
      ],
      "_prefab": {
        "__type__": "cc.PrefabInfo",
        "root": {
          "__id__": 1
        },
        "asset": {
          "__uuid__": "ebHBgr6hpNyqyTveJZXsmE"
        },
        "fileId": "500RJVwClPH6+Ot0XxeyGk"
      },
      "_contentSize": {
        "__type__": "cc.Size",
        "width": 154,
        "height": 154
      }
    },
    {
      "__type__": "cc.Node",
      "_name": "hoa-dao",
      "_parent": {
        "__id__": 1
      },
      "_level": 2,
      "_components": [
        {
          "__type__": "cc.ParticleSystem",
          "node": {
            "__id__": 23
          },
          "_custom": true,
          "_file": {
            "__uuid__": "faH+PiYf1P3qDgi13QlOB9"
          },
          "_spriteFrame": {
            "__uuid__": "30Z1hEJ0JCaZ+mRR1fx/2k"
          },
          "totalParticles": 100,
          "emissionRate": 7,
          "life": 10,
          "lifeVar": 0.5,
          "_startColor": {
            "__type__": "cc.Color",
            "r": 255,
            "g": 255,
            "b": 255
          },
          "_startColorVar": {
            "__type__": "cc.Color",
            "b": 70,
            "a": 20
          },
          "_endColor": {
            "__type__": "cc.Color",
            "r": 255,
            "g": 255,
            "b": 255
          },
          "_endColorVar": {
            "__type__": "cc.Color",
            "a": 0
          },
          "angle": 0,
          "angleVar": 360,
          "startSize": 20,
          "startSizeVar": 2,
          "endSize": 20,
          "endSizeVar": 2,
          "startSpin": 10,
          "startSpinVar": 360,
          "endSpin": -100,
          "endSpinVar": -100,
          "posVar": {
            "__type__": "cc.Vec2",
            "x": -600,
            "y": 10
          },
          "positionType": 1,
          "gravity": {
            "__type__": "cc.Vec2",
            "x": 50,
            "y": -70
          },
          "speed": 10,
          "speedVar": 20,
          "tangentialAccel": 20,
          "tangentialAccelVar": 20,
          "radialAccel": 10,
          "radialAccelVar": 80
        }
      ],
      "_prefab": {
        "__type__": "cc.PrefabInfo",
        "root": {
          "__id__": 1
        },
        "asset": {
          "__uuid__": "ebHBgr6hpNyqyTveJZXsmE"
        },
        "fileId": "dcx526MhtN2JqHN5g/0Rua"
      },
      "_position": {
        "__type__": "cc.Vec3",
        "x": -322,
        "y": 409
      }
    },
    {
      "__type__": "cc.Node",
      "_name": "result-table",
      "_parent": {
        "__id__": 1
      },
      "_children": [
        {
          "__id__": 25
        },
        {
          "__id__": 26
        },
        {
          "__id__": 27
        }
      ],
      "_active": false,
      "_level": 2,
      "_prefab": {
        "__type__": "cc.PrefabInfo",
        "root": {
          "__id__": 1
        },
        "asset": {
          "__uuid__": "ebHBgr6hpNyqyTveJZXsmE"
        },
        "fileId": "5bsqdz9v9DaqlmsdJlH0sJ"
      }
    },
    {
      "__type__": "cc.Node",
      "_name": "const-black-ground",
      "_parent": {
        "__id__": 24
      },
      "_level": 3,
      "_components": [
        {
          "__type__": "cc.Sprite",
          "node": {
            "__id__": 25
          },
          "_spriteFrame": {
            "__uuid__": "f38gzWUbZCIrJsjc0TrFDp"
          },
          "_sizeMode": 0
        },
        {
          "__type__": "cc.Button",
          "node": {
            "__id__": 25
          }
        },
        {
          "__type__": "cc.Widget",
          "node": {
            "__id__": 25
          },
          "_alignFlags": 45,
          "_originalWidth": 1280,
          "_originalHeight": 720
        }
      ],
      "_prefab": {
        "__type__": "cc.PrefabInfo",
        "root": {
          "__id__": 1
        },
        "asset": {
          "__uuid__": "ebHBgr6hpNyqyTveJZXsmE"
        },
        "fileId": "511oYuASRE6J0dSEA9KZPs"
      },
      "_opacity": 150
    },
    {
      "__type__": "cc.Node",
      "_name": "const-gem-minigame-select-bg",
      "_parent": {
        "__id__": 24
      },
      "_level": 3,
      "_components": [
        {
          "__type__": "cc.Sprite",
          "node": {
            "__id__": 26
          },
          "_spriteFrame": {
            "__uuid__": "7c8AJX0e1Pz6gfa5C3AVke"
          }
        }
      ],
      "_prefab": {
        "__type__": "cc.PrefabInfo",
        "root": {
          "__id__": 1
        },
        "asset": {
          "__uuid__": "ebHBgr6hpNyqyTveJZXsmE"
        },
        "fileId": "b3uQJpV9NJiIi/ThVeUI2J"
      },
      "_contentSize": {
        "__type__": "cc.Size",
        "width": 913,
        "height": 509
      },
      "_position": {
        "__type__": "cc.Vec3",
        "y": -13
      },
      "_scale": {
        "__type__": "cc.Vec3",
        "x": 1.2,
        "y": 1.2,
        "z": 1.2
      }
    },
    {
      "__type__": "cc.Node",
      "_name": "main",
      "_parent": {
        "__id__": 24
      },
      "_children": [
        {
          "__id__": 28
        },
        {
          "__id__": 29
        },
        {
          "__id__": 30
        },
        {
          "__id__": 31
        },
        {
          "__id__": 32
        },
        {
          "__id__": 33
        }
      ],
      "_level": 3,
      "_prefab": {
        "__type__": "cc.PrefabInfo",
        "root": {
          "__id__": 1
        },
        "asset": {
          "__uuid__": "ebHBgr6hpNyqyTveJZXsmE"
        },
        "fileId": "faoDzAm2lM56Yzf7bSOA3I"
      },
      "_position": {
        "__type__": "cc.Vec3",
        "y": -26
      }
    },
    {
      "__type__": "cc.Node",
      "_name": "const-game_minigame_totalscore_treasure",
      "_parent": {
        "__id__": 27
      },
      "_level": 4,
      "_components": [
        {
          "__type__": "cc.Sprite",
          "node": {
            "__id__": 28
          },
          "_spriteFrame": {
            "__uuid__": "e1h1A5QChJSrKLpzWdzSQB"
          }
        }
      ],
      "_prefab": {
        "__type__": "cc.PrefabInfo",
        "root": {
          "__id__": 1
        },
        "asset": {
          "__uuid__": "ebHBgr6hpNyqyTveJZXsmE"
        },
        "fileId": "84d5VhbdZLrqRQ93lsIzVJ"
      },
      "_contentSize": {
        "__type__": "cc.Size",
        "width": 324,
        "height": 40
      },
      "_position": {
        "__type__": "cc.Vec3",
        "x": -5,
        "y": 208
      }
    },
    {
      "__type__": "cc.Node",
      "_name": "you-win",
      "_parent": {
        "__id__": 27
      },
      "_level": 4,
      "_components": [
        {
          "__type__": "cc.Label",
          "node": {
            "__id__": 29
          },
          "_useOriginalSize": false,
          "_string": "You win:",
          "_N$string": "You win:",
          "_fontSize": 50,
          "_lineHeight": 60,
          "_N$file": {
            "__uuid__": "16ghaQKjJOfLDvTizedZAV"
          },
          "_isSystemFontUsed": false,
          "_N$horizontalAlign": 1,
          "_N$verticalAlign": 1
        }
      ],
      "_prefab": {
        "__type__": "cc.PrefabInfo",
        "root": {
          "__id__": 1
        },
        "asset": {
          "__uuid__": "ebHBgr6hpNyqyTveJZXsmE"
        },
        "fileId": "feWOKPdpZEhq502IrglX8w"
      },
      "_contentSize": {
        "__type__": "cc.Size",
        "width": 170,
        "height": 75
      },
      "_position": {
        "__type__": "cc.Vec3",
        "x": -5,
        "y": 95
      }
    },
    {
      "__type__": "cc.Node",
      "_name": "win-amount-label",
      "_parent": {
        "__id__": 27
      },
      "_level": 4,
      "_components": [
        {
          "__type__": "cc.Label",
          "node": {
            "__id__": 30
          },
          "_useOriginalSize": false,
          "_string": "10,000,000",
          "_N$string": "10,000,000",
          "_fontSize": 72,
          "_lineHeight": 100,
          "_N$file": {
            "__uuid__": "5a8qsGXPZB7a3N/Hg1rpTQ"
          },
          "_isSystemFontUsed": false,
          "_N$horizontalAlign": 1,
          "_N$verticalAlign": 1
        }
      ],
      "_prefab": {
        "__type__": "cc.PrefabInfo",
        "root": {
          "__id__": 1
        },
        "asset": {
          "__uuid__": "ebHBgr6hpNyqyTveJZXsmE"
        },
        "fileId": "41deyq899N2r8q6ibO6aHi"
      },
      "_color": {
        "__type__": "cc.Color",
        "r": 255,
        "g": 200,
        "b": 66
      },
      "_contentSize": {
        "__type__": "cc.Size",
        "width": 367.2,
        "height": 120
      },
      "_position": {
        "__type__": "cc.Vec3",
        "x": -5,
        "y": -10.2
      }
    },
    {
      "__type__": "cc.Node",
      "_name": "const-game_minigame_totalscore_backtogame",
      "_parent": {
        "__id__": 27
      },
      "_level": 4,
      "_components": [
        {
          "__type__": "cc.Sprite",
          "node": {
            "__id__": 31
          },
          "_spriteFrame": {
            "__uuid__": "e9YSqke7RKR6DWAr4h0ERl"
          }
        },
        {
          "__type__": "cc.Button",
          "node": {
            "__id__": 31
          },
          "zoomScale": 0.9,
          "clickEvents": [
            {
              "__type__": "cc.ClickEvent",
              "target": {
                "__id__": 1
              },
              "_componentId": "981af1BTgZF/bp1iOEyEXSR",
              "handler": "backToSlot"
            }
          ],
          "_N$transition": 3,
          "transition": 3
        }
      ],
      "_prefab": {
        "__type__": "cc.PrefabInfo",
        "root": {
          "__id__": 1
        },
        "asset": {
          "__uuid__": "ebHBgr6hpNyqyTveJZXsmE"
        },
        "fileId": "b6+HFAs9RNfLxgHdePJLEx"
      },
      "_contentSize": {
        "__type__": "cc.Size",
        "width": 296,
        "height": 73
      },
      "_position": {
        "__type__": "cc.Vec3",
        "x": -5,
        "y": -127
      }
    },
    {
      "__type__": "cc.Node",
      "_name": "const-game_minigame_totalscore_iconshare",
      "_parent": {
        "__id__": 27
      },
      "_level": 4,
      "_components": [
        {
          "__type__": "cc.Sprite",
          "node": {
            "__id__": 32
          },
          "_spriteFrame": {
            "__uuid__": "48aI31qb9F5IQ49aCJb0VK"
          }
        }
      ],
      "_prefab": {
        "__type__": "cc.PrefabInfo",
        "root": {
          "__id__": 1
        },
        "asset": {
          "__uuid__": "ebHBgr6hpNyqyTveJZXsmE"
        },
        "fileId": "35aItotTNOD5N+MM9ZDIxE"
      },
      "_contentSize": {
        "__type__": "cc.Size",
        "width": 29,
        "height": 28
      },
      "_position": {
        "__type__": "cc.Vec3",
        "x": -86,
        "y": -218
      }
    },
    {
      "__type__": "cc.Node",
      "_name": "share-facebook",
      "_parent": {
        "__id__": 27
      },
      "_level": 4,
      "_components": [
        {
          "__type__": "cc.Label",
          "node": {
            "__id__": 33
          },
          "_useOriginalSize": false,
          "_string": "Share with facebook",
          "_N$string": "Share with facebook",
          "_fontSize": 20,
          "_lineHeight": 35,
          "_N$file": {
            "__uuid__": "16ghaQKjJOfLDvTizedZAV"
          },
          "_isSystemFontUsed": false,
          "_N$horizontalAlign": 1,
          "_N$verticalAlign": 1
        }
      ],
      "_prefab": {
        "__type__": "cc.PrefabInfo",
        "root": {
          "__id__": 1
        },
        "asset": {
          "__uuid__": "ebHBgr6hpNyqyTveJZXsmE"
        },
        "fileId": "090uR8IxZK/rJ2TuYH2Vxf"
      },
      "_contentSize": {
        "__type__": "cc.Size",
        "width": 163,
        "height": 17.5
      },
      "_position": {
        "__type__": "cc.Vec3",
        "x": 15,
        "y": -215
      }
    }
  ],
  {
    "__type__": "cc.SpriteFrame",
    "content": {
      "name": "default_btn_normal",
      "texture": "e8Ueib+qJEhL6mXAHdnwbi",
      "rect": [
        0,
        0,
        40,
        40
      ],
      "offset": [
        0,
        0
      ],
      "originalSize": [
        40,
        40
      ],
      "capInsets": [
        12,
        12,
        12,
        12
      ]
    }
  },
  {
    "__type__": "cc.SpriteFrame",
    "content": {
      "name": "overlay",
      "texture": "46MDNNzGBC1ZktAuh11ppK",
      "rect": [
        0,
        0,
        1280,
        720
      ],
      "offset": [
        0,
        0
      ],
      "originalSize": [
        1280,
        720
      ],
      "capInsets": [
        0,
        0,
        0,
        0
      ]
    }
  }
]