{
  "__type__": "cc.SpriteFrame",
  "content": {
    "name": "coin-money-ingame",
    "texture": "7eMllcwY1KEbk24RHnZtn9",
    "rect": [
      0,
      0,
      44,
      44
    ],
    "offset": [
      0,
      0
    ],
    "originalSize": [
      44,
      44
    ],
    "capInsets": [
      0,
      0,
      0,
      0
    ]
  }
}