{
  "__type__": "cc.SpriteFrame",
  "content": {
    "name": "slot-ingame-bg-spin-stop",
    "texture": "dawFXXvCxGE5OjEy/ybAJl",
    "rect": [
      0,
      0,
      268,
      100
    ],
    "offset": [
      0,
      0
    ],
    "originalSize": [
      268,
      100
    ],
    "capInsets": [
      0,
      0,
      0,
      0
    ]
  }
}