{
  "__type__": "cc.SpriteFrame",
  "content": {
    "name": "khung-bg",
    "texture": "c8uMoavoRC4IcbUYfO/Ew9",
    "rect": [
      0,
      0,
      1093,
      623
    ],
    "offset": [
      0,
      0
    ],
    "originalSize": [
      1093,
      623
    ],
    "capInsets": [
      0,
      0,
      0,
      0
    ]
  }
}