{
  "__type__": "cc.SpriteFrame",
  "content": {
    "name": "skeleton",
    "texture": "28BbjPttZGRZ1yhTkl0Atq",
    "rect": [
      3,
      2,
      251,
      50
    ],
    "offset": [
      0.5,
      5
    ],
    "originalSize": [
      256,
      64
    ],
    "capInsets": [
      0,
      0,
      0,
      0
    ]
  }
}