{
  "__type__": "cc.SpriteFrame",
  "content": {
    "name": "paytable01_review",
    "texture": "0fnjsYXwNG6rmI/OQ+o4Bi",
    "rect": [
      0,
      0,
      1280,
      720
    ],
    "offset": [
      0,
      0
    ],
    "originalSize": [
      1280,
      720
    ],
    "capInsets": [
      0,
      0,
      0,
      0
    ]
  }
}