{
  "__type__": "cc.SpriteFrame",
  "content": {
    "name": "backtogame_right",
    "texture": "65SVwfK1xOF7YWyGxacQlK",
    "rect": [
      0,
      0,
      81,
      68
    ],
    "offset": [
      0,
      0
    ],
    "originalSize": [
      81,
      68
    ],
    "capInsets": [
      0,
      0,
      0,
      0
    ]
  }
}