{
  "__type__": "cc.SpriteFrame",
  "content": {
    "name": "bg-ingame-egypt",
    "texture": "2eWrj7lTNNfqT0nKB17F2Q",
    "rect": [
      0,
      0,
      962,
      550
    ],
    "offset": [
      0,
      0
    ],
    "originalSize": [
      962,
      550
    ],
    "capInsets": [
      0,
      0,
      0,
      0
    ]
  }
}