{
  "__type__": "cc.SpriteFrame",
  "content": {
    "name": "cu_hanh_alpha",
    "texture": "8ero+b/TVOYqIuU7EM8dOt",
    "rect": [
      0,
      0,
      140,
      142
    ],
    "offset": [
      0,
      0
    ],
    "originalSize": [
      140,
      142
    ],
    "capInsets": [
      0,
      0,
      0,
      0
    ]
  }
}