{
  "__type__": "cc.SpriteFrame",
  "content": {
    "name": "active_reels_button_03",
    "texture": "991KNwbidM36glccJQHUsT",
    "rect": [
      0,
      2,
      68,
      36
    ],
    "offset": [
      -0.5,
      -1
    ],
    "originalSize": [
      69,
      38
    ],
    "capInsets": [
      0,
      0,
      0,
      0
    ]
  }
}