{
  "__type__": "cc.SpriteFrame",
  "content": {
    "name": "bg_fail",
    "texture": "2cXu5qhQVOtJkTIvUymbMU",
    "rect": [
      0,
      0,
      383,
      100
    ],
    "offset": [
      0,
      0
    ],
    "originalSize": [
      383,
      100
    ],
    "capInsets": [
      0,
      0,
      0,
      0
    ]
  }
}