{
  "__type__": "cc.SpriteFrame",
  "content": {
    "name": "avatar-top-demo-3",
    "texture": "181382b81",
    "rect": [
      218,
      892,
      44,
      44
    ],
    "offset": [
      0,
      0
    ],
    "originalSize": [
      44,
      44
    ],
    "capInsets": [
      0,
      0,
      0,
      0
    ]
  }
}