{
  "__type__": "cc.SpriteFrame",
  "content": {
    "name": "scatter-shields",
    "texture": "15fpgoyn5GRKyejXuwLg1X",
    "rect": [
      0,
      0,
      288,
      27
    ],
    "offset": [
      0,
      0
    ],
    "originalSize": [
      288,
      27
    ],
    "capInsets": [
      0,
      0,
      0,
      0
    ]
  }
}