[
  {
    "__type__": "cc.SpriteFrame",
    "content": {
      "name": "game_minigame_totalscore_iconshare",
      "texture": "67B4U0gL1NZ5uxmGRkV5ZW",
      "rect": [
        1,
        1,
        29,
        28
      ],
      "offset": [
        0,
        0
      ],
      "originalSize": [
        31,
        30
      ],
      "capInsets": [
        0,
        0,
        0,
        0
      ]
    }
  },
  {
    "__type__": "cc.SpriteFrame",
    "content": {
      "name": "game_minigame_totalscore_bg",
      "texture": "a7WGeJj8FGs6hIeAAGY50A",
      "rect": [
        0,
        0,
        913,
        509
      ],
      "offset": [
        0,
        0
      ],
      "originalSize": [
        913,
        509
      ],
      "capInsets": [
        0,
        0,
        0,
        0
      ]
    }
  },
  {
    "__type__": "cc.ParticleAsset",
    "_name": "particle_texture",
    "_native": ".plist"
  },
  [
    {
      "__type__": "cc.Prefab",
      "_name": "Minigame5",
      "data": {
        "__id__": 1
      },
      "optimizationPolicy": 1,
      "asyncLoadAssets": true
    },
    {
      "__type__": "cc.Node",
      "_name": "Minigame5",
      "_children": [
        {
          "__id__": 2
        },
        {
          "__id__": 3
        },
        {
          "__id__": 9
        },
        {
          "__id__": 53
        },
        {
          "__id__": 64
        }
      ],
      "_level": 1,
      "_components": [
        {
          "__type__": "1958fQ+oxFFpqrhzE+2a3xA",
          "node": {
            "__id__": 1
          },
          "itemsContainer": {
            "__id__": 11
          },
          "scoreLabel": {
            "__id__": 46
          },
          "rightBox": {
            "__id__": 47
          },
          "coinResultLabel": {
            "__id__": 60
          },
          "resourceController": {
            "__id__": 65
          }
        },
        {
          "__type__": "cc.Widget",
          "node": {
            "__id__": 1
          },
          "_alignFlags": 45,
          "_originalWidth": 1280,
          "_originalHeight": 720
        }
      ],
      "_prefab": {
        "__type__": "cc.PrefabInfo",
        "root": {
          "__id__": 1
        },
        "asset": {
          "__uuid__": "beeh9NrKhOEZlEcrh+Zid2"
        },
        "fileId": "d2i5vYxnFLLbTddVPz6DQR"
      },
      "_contentSize": {
        "__type__": "cc.Size",
        "width": 1280,
        "height": 720
      },
      "_position": {
        "__type__": "cc.Vec3",
        "x": 640,
        "y": 360
      }
    },
    {
      "__type__": "cc.Node",
      "_name": "const-overlay",
      "_parent": {
        "__id__": 1
      },
      "_level": 2,
      "_components": [
        {
          "__type__": "cc.Sprite",
          "node": {
            "__id__": 2
          },
          "_spriteFrame": {
            "__uuid__": "f38gzWUbZCIrJsjc0TrFDp"
          },
          "_sizeMode": 0
        },
        {
          "__type__": "cc.Widget",
          "node": {
            "__id__": 2
          },
          "_alignFlags": 45,
          "_originalWidth": 1280,
          "_originalHeight": 720
        },
        {
          "__type__": "cc.Button",
          "node": {
            "__id__": 2
          }
        }
      ],
      "_prefab": {
        "__type__": "cc.PrefabInfo",
        "root": {
          "__id__": 1
        },
        "asset": {
          "__uuid__": "beeh9NrKhOEZlEcrh+Zid2"
        },
        "fileId": "c0iJx+GElLDqAZAOIAWQex"
      },
      "_opacity": 200,
      "_contentSize": {
        "__type__": "cc.Size",
        "width": 1280,
        "height": 720
      }
    },
    {
      "__type__": "cc.Node",
      "_name": "select-table",
      "_parent": {
        "__id__": 1
      },
      "_children": [
        {
          "__id__": 4
        },
        {
          "__id__": 5
        },
        {
          "__id__": 6
        },
        {
          "__id__": 7
        },
        {
          "__id__": 8
        }
      ],
      "_active": false,
      "_level": 2,
      "_prefab": {
        "__type__": "cc.PrefabInfo",
        "root": {
          "__id__": 1
        },
        "asset": {
          "__uuid__": "beeh9NrKhOEZlEcrh+Zid2"
        },
        "fileId": "320549hn9CK63LdKKHDJgV"
      }
    },
    {
      "__type__": "cc.Node",
      "_name": "gem-minigame-select-bg",
      "_parent": {
        "__id__": 3
      },
      "_level": 3,
      "_components": [
        {
          "__type__": "cc.Sprite",
          "node": {
            "__id__": 4
          }
        }
      ],
      "_prefab": {
        "__type__": "cc.PrefabInfo",
        "root": {
          "__id__": 1
        },
        "asset": {
          "__uuid__": "beeh9NrKhOEZlEcrh+Zid2"
        },
        "fileId": "f0a37eQUtHkoIadgp8Hbnq"
      },
      "_contentSize": {
        "__type__": "cc.Size",
        "width": 916,
        "height": 512
      },
      "_position": {
        "__type__": "cc.Vec3",
        "y": 13
      }
    },
    {
      "__type__": "cc.Node",
      "_name": "gem_bonus_minigame_txt",
      "_parent": {
        "__id__": 3
      },
      "_level": 3,
      "_components": [
        {
          "__type__": "cc.Sprite",
          "node": {
            "__id__": 5
          }
        }
      ],
      "_prefab": {
        "__type__": "cc.PrefabInfo",
        "root": {
          "__id__": 1
        },
        "asset": {
          "__uuid__": "beeh9NrKhOEZlEcrh+Zid2"
        },
        "fileId": "995ky5vZ5MI6ZNuxAaTN+B"
      },
      "_contentSize": {
        "__type__": "cc.Size",
        "width": 797,
        "height": 50
      },
      "_position": {
        "__type__": "cc.Vec3",
        "y": 132
      }
    },
    {
      "__type__": "cc.Node",
      "_name": "gem-minigame-select-txt-title",
      "_parent": {
        "__id__": 3
      },
      "_level": 3,
      "_components": [
        {
          "__type__": "cc.Sprite",
          "node": {
            "__id__": 6
          }
        }
      ],
      "_prefab": {
        "__type__": "cc.PrefabInfo",
        "root": {
          "__id__": 1
        },
        "asset": {
          "__uuid__": "beeh9NrKhOEZlEcrh+Zid2"
        },
        "fileId": "7cOVFryLdJCr0K4sgIR7aw"
      },
      "_contentSize": {
        "__type__": "cc.Size",
        "width": 523,
        "height": 44
      },
      "_position": {
        "__type__": "cc.Vec3",
        "x": -7,
        "y": 202
      }
    },
    {
      "__type__": "cc.Node",
      "_name": "gem-minigame-select-bonus-1",
      "_parent": {
        "__id__": 3
      },
      "_level": 3,
      "_components": [
        {
          "__type__": "cc.Sprite",
          "node": {
            "__id__": 7
          }
        },
        {
          "__type__": "cc.Button",
          "node": {
            "__id__": 7
          },
          "zoomScale": 0.9,
          "clickEvents": [
            {
              "__type__": "cc.ClickEvent",
              "target": {
                "__id__": 1
              },
              "_componentId": "1958fQ+oxFFpqrhzE+2a3xA",
              "handler": "selectMiniGame"
            }
          ],
          "_N$transition": 3,
          "transition": 3
        }
      ],
      "_prefab": {
        "__type__": "cc.PrefabInfo",
        "root": {
          "__id__": 1
        },
        "asset": {
          "__uuid__": "beeh9NrKhOEZlEcrh+Zid2"
        },
        "fileId": "3aLDf2nVJADK3jDcJm5SA5"
      },
      "_contentSize": {
        "__type__": "cc.Size",
        "width": 294,
        "height": 318
      },
      "_position": {
        "__type__": "cc.Vec3",
        "x": -170.7,
        "y": -63.1
      }
    },
    {
      "__type__": "cc.Node",
      "_name": "gem-minigame-select-bonus-2",
      "_parent": {
        "__id__": 3
      },
      "_level": 3,
      "_components": [
        {
          "__type__": "cc.Sprite",
          "node": {
            "__id__": 8
          }
        },
        {
          "__type__": "cc.Button",
          "node": {
            "__id__": 8
          },
          "zoomScale": 0.9,
          "clickEvents": [
            {
              "__type__": "cc.ClickEvent",
              "target": {
                "__id__": 1
              },
              "_componentId": "1958fQ+oxFFpqrhzE+2a3xA",
              "handler": "selectMiniGame"
            }
          ],
          "_N$transition": 3,
          "transition": 3
        }
      ],
      "_prefab": {
        "__type__": "cc.PrefabInfo",
        "root": {
          "__id__": 1
        },
        "asset": {
          "__uuid__": "beeh9NrKhOEZlEcrh+Zid2"
        },
        "fileId": "43VcCpYLpJO5/2KfQ/vQys"
      },
      "_contentSize": {
        "__type__": "cc.Size",
        "width": 285,
        "height": 313
      },
      "_position": {
        "__type__": "cc.Vec3",
        "x": 140.2,
        "y": -64.9
      }
    },
    {
      "__type__": "cc.Node",
      "_name": "main-game",
      "_parent": {
        "__id__": 1
      },
      "_children": [
        {
          "__id__": 10
        },
        {
          "__id__": 11
        },
        {
          "__id__": 42
        }
      ],
      "_level": 2,
      "_prefab": {
        "__type__": "cc.PrefabInfo",
        "root": {
          "__id__": 1
        },
        "asset": {
          "__uuid__": "beeh9NrKhOEZlEcrh+Zid2"
        },
        "fileId": "60jP3qZh9CTpQcnjFozN9g"
      }
    },
    {
      "__type__": "cc.Node",
      "_name": "gem_minigame_bonus_bg",
      "_parent": {
        "__id__": 9
      },
      "_level": 3,
      "_components": [
        {
          "__type__": "cc.Sprite",
          "node": {
            "__id__": 10
          }
        },
        {
          "__type__": "cc.Widget",
          "node": {
            "__id__": 10
          },
          "_target": {
            "__id__": 1
          },
          "_alignFlags": 45
        }
      ],
      "_prefab": {
        "__type__": "cc.PrefabInfo",
        "root": {
          "__id__": 1
        },
        "asset": {
          "__uuid__": "beeh9NrKhOEZlEcrh+Zid2"
        },
        "fileId": "c4QnnoM15EkaRqDZtJYnT6"
      },
      "_contentSize": {
        "__type__": "cc.Size",
        "width": 1280,
        "height": 720
      }
    },
    {
      "__type__": "cc.Node",
      "_name": "items-container",
      "_parent": {
        "__id__": 9
      },
      "_children": [
        {
          "__id__": 12
        },
        {
          "__id__": 14
        },
        {
          "__id__": 16
        },
        {
          "__id__": 18
        },
        {
          "__id__": 20
        },
        {
          "__id__": 22
        },
        {
          "__id__": 24
        },
        {
          "__id__": 26
        },
        {
          "__id__": 28
        },
        {
          "__id__": 30
        },
        {
          "__id__": 32
        },
        {
          "__id__": 34
        },
        {
          "__id__": 36
        },
        {
          "__id__": 38
        },
        {
          "__id__": 40
        }
      ],
      "_level": 3,
      "_prefab": {
        "__type__": "cc.PrefabInfo",
        "root": {
          "__id__": 1
        },
        "asset": {
          "__uuid__": "beeh9NrKhOEZlEcrh+Zid2"
        },
        "fileId": "22Ooj888ZB5LoU2f5v6fVF"
      }
    },
    {
      "__type__": "cc.Node",
      "_name": "01",
      "_parent": {
        "__id__": 11
      },
      "_children": [
        {
          "__type__": "cc.Node",
          "_name": "gem_minigame_bonus_item_01",
          "_parent": {
            "__id__": 12
          },
          "_level": 5,
          "_prefab": {
            "__type__": "cc.PrefabInfo",
            "root": {
              "__id__": 1
            },
            "asset": {
              "__uuid__": "beeh9NrKhOEZlEcrh+Zid2"
            },
            "fileId": "d86dfgimZPT6JpWVezOU++"
          },
          "_contentSize": {
            "__type__": "cc.Size",
            "width": 183,
            "height": 178
          },
          "_position": {
            "__type__": "cc.Vec3",
            "x": -543.6,
            "y": 125.8
          }
        },
        {
          "__id__": 13
        }
      ],
      "_level": 4,
      "_prefab": {
        "__type__": "cc.PrefabInfo",
        "root": {
          "__id__": 1
        },
        "asset": {
          "__uuid__": "beeh9NrKhOEZlEcrh+Zid2"
        },
        "fileId": "07MayKUvFAvJaskwP/zAAU"
      }
    },
    {
      "__type__": "cc.Node",
      "_name": "score-label",
      "_parent": {
        "__id__": 12
      },
      "_active": false,
      "_level": 5,
      "_components": [
        {
          "__type__": "cc.Label",
          "node": {
            "__id__": 13
          },
          "_string": "1,500",
          "_N$string": "1,500",
          "_lineHeight": 50.3,
          "_N$file": {
            "__uuid__": "5a8qsGXPZB7a3N/Hg1rpTQ"
          },
          "_isSystemFontUsed": false
        }
      ],
      "_prefab": {
        "__type__": "cc.PrefabInfo",
        "root": {
          "__id__": 1
        },
        "asset": {
          "__uuid__": "beeh9NrKhOEZlEcrh+Zid2"
        },
        "fileId": "49CPY59txIcLiK643YZWXt"
      },
      "_contentSize": {
        "__type__": "cc.Size",
        "width": 103.33,
        "height": 33.53
      }
    },
    {
      "__type__": "cc.Node",
      "_name": "02",
      "_parent": {
        "__id__": 11
      },
      "_children": [
        {
          "__type__": "cc.Node",
          "_name": "gem_minigame_bonus_item_02",
          "_parent": {
            "__id__": 14
          },
          "_level": 5,
          "_prefab": {
            "__type__": "cc.PrefabInfo",
            "root": {
              "__id__": 1
            },
            "asset": {
              "__uuid__": "beeh9NrKhOEZlEcrh+Zid2"
            },
            "fileId": "12UjT+2NRFg7ryiF9TgL+J"
          },
          "_contentSize": {
            "__type__": "cc.Size",
            "width": 98,
            "height": 154
          },
          "_position": {
            "__type__": "cc.Vec3",
            "x": -362.3,
            "y": 240.1
          }
        },
        {
          "__id__": 15
        }
      ],
      "_level": 4,
      "_prefab": {
        "__type__": "cc.PrefabInfo",
        "root": {
          "__id__": 1
        },
        "asset": {
          "__uuid__": "beeh9NrKhOEZlEcrh+Zid2"
        },
        "fileId": "f5SJJBijpOsIs9WPJq2yQB"
      },
      "_position": {
        "__type__": "cc.Vec3",
        "y": 20
      }
    },
    {
      "__type__": "cc.Node",
      "_name": "score-label",
      "_parent": {
        "__id__": 14
      },
      "_active": false,
      "_level": 5,
      "_components": [
        {
          "__type__": "cc.Label",
          "node": {
            "__id__": 15
          },
          "_string": "1,500",
          "_N$string": "1,500",
          "_lineHeight": 50.3,
          "_N$file": {
            "__uuid__": "5a8qsGXPZB7a3N/Hg1rpTQ"
          },
          "_isSystemFontUsed": false
        }
      ],
      "_prefab": {
        "__type__": "cc.PrefabInfo",
        "root": {
          "__id__": 1
        },
        "asset": {
          "__uuid__": "beeh9NrKhOEZlEcrh+Zid2"
        },
        "fileId": "25/WjlG3JOHZZoEzf9SWDJ"
      },
      "_contentSize": {
        "__type__": "cc.Size",
        "width": 103.33,
        "height": 33.53
      }
    },
    {
      "__type__": "cc.Node",
      "_name": "03",
      "_parent": {
        "__id__": 11
      },
      "_children": [
        {
          "__type__": "cc.Node",
          "_name": "gem_minigame_bonus_item_03",
          "_parent": {
            "__id__": 16
          },
          "_level": 5,
          "_prefab": {
            "__type__": "cc.PrefabInfo",
            "root": {
              "__id__": 1
            },
            "asset": {
              "__uuid__": "beeh9NrKhOEZlEcrh+Zid2"
            },
            "fileId": "b29QpqRlxHULMsg/o44vfw"
          },
          "_contentSize": {
            "__type__": "cc.Size",
            "width": 153,
            "height": 221
          },
          "_position": {
            "__type__": "cc.Vec3",
            "x": -229.5,
            "y": 97.7
          }
        },
        {
          "__id__": 17
        }
      ],
      "_level": 4,
      "_prefab": {
        "__type__": "cc.PrefabInfo",
        "root": {
          "__id__": 1
        },
        "asset": {
          "__uuid__": "beeh9NrKhOEZlEcrh+Zid2"
        },
        "fileId": "bdrXwOWUJGA5pHtHN2SmQ/"
      }
    },
    {
      "__type__": "cc.Node",
      "_name": "score-label",
      "_parent": {
        "__id__": 16
      },
      "_active": false,
      "_level": 5,
      "_components": [
        {
          "__type__": "cc.Label",
          "node": {
            "__id__": 17
          },
          "_string": "1,500",
          "_N$string": "1,500",
          "_lineHeight": 50.3,
          "_N$file": {
            "__uuid__": "5a8qsGXPZB7a3N/Hg1rpTQ"
          },
          "_isSystemFontUsed": false
        }
      ],
      "_prefab": {
        "__type__": "cc.PrefabInfo",
        "root": {
          "__id__": 1
        },
        "asset": {
          "__uuid__": "beeh9NrKhOEZlEcrh+Zid2"
        },
        "fileId": "86KQRtGXRJGY/DJz0sdjLR"
      },
      "_contentSize": {
        "__type__": "cc.Size",
        "width": 103.33,
        "height": 33.53
      }
    },
    {
      "__type__": "cc.Node",
      "_name": "04",
      "_parent": {
        "__id__": 11
      },
      "_children": [
        {
          "__type__": "cc.Node",
          "_name": "gem_minigame_bonus_item_04",
          "_parent": {
            "__id__": 18
          },
          "_level": 5,
          "_prefab": {
            "__type__": "cc.PrefabInfo",
            "root": {
              "__id__": 1
            },
            "asset": {
              "__uuid__": "beeh9NrKhOEZlEcrh+Zid2"
            },
            "fileId": "dcji7StjtCDYXfgXKXakgs"
          },
          "_contentSize": {
            "__type__": "cc.Size",
            "width": 159,
            "height": 161
          },
          "_position": {
            "__type__": "cc.Vec3",
            "x": 4.1,
            "y": 227.4
          }
        },
        {
          "__id__": 19
        }
      ],
      "_level": 4,
      "_prefab": {
        "__type__": "cc.PrefabInfo",
        "root": {
          "__id__": 1
        },
        "asset": {
          "__uuid__": "beeh9NrKhOEZlEcrh+Zid2"
        },
        "fileId": "1dUKQGO85LuquO/uWMuetS"
      },
      "_position": {
        "__type__": "cc.Vec3",
        "y": 20
      }
    },
    {
      "__type__": "cc.Node",
      "_name": "score-label",
      "_parent": {
        "__id__": 18
      },
      "_active": false,
      "_level": 5,
      "_components": [
        {
          "__type__": "cc.Label",
          "node": {
            "__id__": 19
          },
          "_string": "1,500",
          "_N$string": "1,500",
          "_lineHeight": 50.3,
          "_N$file": {
            "__uuid__": "5a8qsGXPZB7a3N/Hg1rpTQ"
          },
          "_isSystemFontUsed": false
        }
      ],
      "_prefab": {
        "__type__": "cc.PrefabInfo",
        "root": {
          "__id__": 1
        },
        "asset": {
          "__uuid__": "beeh9NrKhOEZlEcrh+Zid2"
        },
        "fileId": "17jVSppntIi4ZAhunqOLfs"
      },
      "_contentSize": {
        "__type__": "cc.Size",
        "width": 103.33,
        "height": 33.53
      }
    },
    {
      "__type__": "cc.Node",
      "_name": "05",
      "_parent": {
        "__id__": 11
      },
      "_children": [
        {
          "__type__": "cc.Node",
          "_name": "gem_minigame_bonus_item_05",
          "_parent": {
            "__id__": 20
          },
          "_level": 5,
          "_prefab": {
            "__type__": "cc.PrefabInfo",
            "root": {
              "__id__": 1
            },
            "asset": {
              "__uuid__": "beeh9NrKhOEZlEcrh+Zid2"
            },
            "fileId": "75yqikrm5OeL3KGX7nmPSb"
          },
          "_contentSize": {
            "__type__": "cc.Size",
            "width": 228,
            "height": 188
          },
          "_position": {
            "__type__": "cc.Vec3",
            "x": 317.1,
            "y": 102.3
          }
        },
        {
          "__id__": 21
        }
      ],
      "_level": 4,
      "_prefab": {
        "__type__": "cc.PrefabInfo",
        "root": {
          "__id__": 1
        },
        "asset": {
          "__uuid__": "beeh9NrKhOEZlEcrh+Zid2"
        },
        "fileId": "9bUyKlDMxEybD2lIxwfwtr"
      }
    },
    {
      "__type__": "cc.Node",
      "_name": "score-label",
      "_parent": {
        "__id__": 20
      },
      "_active": false,
      "_level": 5,
      "_components": [
        {
          "__type__": "cc.Label",
          "node": {
            "__id__": 21
          },
          "_string": "1,500",
          "_N$string": "1,500",
          "_lineHeight": 50.3,
          "_N$file": {
            "__uuid__": "5a8qsGXPZB7a3N/Hg1rpTQ"
          },
          "_isSystemFontUsed": false
        }
      ],
      "_prefab": {
        "__type__": "cc.PrefabInfo",
        "root": {
          "__id__": 1
        },
        "asset": {
          "__uuid__": "beeh9NrKhOEZlEcrh+Zid2"
        },
        "fileId": "61wumZ4EVHM48+bn4TRBlV"
      },
      "_contentSize": {
        "__type__": "cc.Size",
        "width": 103.33,
        "height": 33.53
      }
    },
    {
      "__type__": "cc.Node",
      "_name": "06",
      "_parent": {
        "__id__": 11
      },
      "_children": [
        {
          "__type__": "cc.Node",
          "_name": "gem_minigame_bonus_item_06",
          "_parent": {
            "__id__": 22
          },
          "_level": 5,
          "_prefab": {
            "__type__": "cc.PrefabInfo",
            "root": {
              "__id__": 1
            },
            "asset": {
              "__uuid__": "beeh9NrKhOEZlEcrh+Zid2"
            },
            "fileId": "6evQBqSQZLgrTGLnFbdWKp"
          },
          "_contentSize": {
            "__type__": "cc.Size",
            "width": 124,
            "height": 131
          },
          "_position": {
            "__type__": "cc.Vec3",
            "x": 544.2,
            "y": 195.4
          }
        },
        {
          "__id__": 23
        }
      ],
      "_level": 4,
      "_prefab": {
        "__type__": "cc.PrefabInfo",
        "root": {
          "__id__": 1
        },
        "asset": {
          "__uuid__": "beeh9NrKhOEZlEcrh+Zid2"
        },
        "fileId": "49VWsiINxNnopAkgJMU8OE"
      },
      "_position": {
        "__type__": "cc.Vec3",
        "y": 20
      }
    },
    {
      "__type__": "cc.Node",
      "_name": "score-label",
      "_parent": {
        "__id__": 22
      },
      "_active": false,
      "_level": 5,
      "_components": [
        {
          "__type__": "cc.Label",
          "node": {
            "__id__": 23
          },
          "_string": "1,500",
          "_N$string": "1,500",
          "_lineHeight": 50.3,
          "_N$file": {
            "__uuid__": "5a8qsGXPZB7a3N/Hg1rpTQ"
          },
          "_isSystemFontUsed": false
        }
      ],
      "_prefab": {
        "__type__": "cc.PrefabInfo",
        "root": {
          "__id__": 1
        },
        "asset": {
          "__uuid__": "beeh9NrKhOEZlEcrh+Zid2"
        },
        "fileId": "e4pDoOOktNhqk8K4v3QPDm"
      },
      "_contentSize": {
        "__type__": "cc.Size",
        "width": 103.33,
        "height": 33.53
      }
    },
    {
      "__type__": "cc.Node",
      "_name": "07",
      "_parent": {
        "__id__": 11
      },
      "_children": [
        {
          "__type__": "cc.Node",
          "_name": "gem_minigame_bonus_item_07",
          "_parent": {
            "__id__": 24
          },
          "_level": 5,
          "_prefab": {
            "__type__": "cc.PrefabInfo",
            "root": {
              "__id__": 1
            },
            "asset": {
              "__uuid__": "beeh9NrKhOEZlEcrh+Zid2"
            },
            "fileId": "48DSgeVQFA6ZsVV3AThe+b"
          },
          "_contentSize": {
            "__type__": "cc.Size",
            "width": 222,
            "height": 195
          },
          "_position": {
            "__type__": "cc.Vec3",
            "x": -524.2,
            "y": -105.4
          }
        },
        {
          "__id__": 25
        }
      ],
      "_level": 4,
      "_prefab": {
        "__type__": "cc.PrefabInfo",
        "root": {
          "__id__": 1
        },
        "asset": {
          "__uuid__": "beeh9NrKhOEZlEcrh+Zid2"
        },
        "fileId": "83ZKuLWCNPyLiQeXiqHH82"
      }
    },
    {
      "__type__": "cc.Node",
      "_name": "score-label",
      "_parent": {
        "__id__": 24
      },
      "_active": false,
      "_level": 5,
      "_components": [
        {
          "__type__": "cc.Label",
          "node": {
            "__id__": 25
          },
          "_string": "1,500",
          "_N$string": "1,500",
          "_lineHeight": 50.3,
          "_N$file": {
            "__uuid__": "5a8qsGXPZB7a3N/Hg1rpTQ"
          },
          "_isSystemFontUsed": false
        }
      ],
      "_prefab": {
        "__type__": "cc.PrefabInfo",
        "root": {
          "__id__": 1
        },
        "asset": {
          "__uuid__": "beeh9NrKhOEZlEcrh+Zid2"
        },
        "fileId": "a6BEl9EbxAv5O/os+QUTiY"
      },
      "_contentSize": {
        "__type__": "cc.Size",
        "width": 103.33,
        "height": 33.53
      }
    },
    {
      "__type__": "cc.Node",
      "_name": "08",
      "_parent": {
        "__id__": 11
      },
      "_children": [
        {
          "__type__": "cc.Node",
          "_name": "gem_minigame_bonus_item_08",
          "_parent": {
            "__id__": 26
          },
          "_level": 5,
          "_prefab": {
            "__type__": "cc.PrefabInfo",
            "root": {
              "__id__": 1
            },
            "asset": {
              "__uuid__": "beeh9NrKhOEZlEcrh+Zid2"
            },
            "fileId": "e9ouPOzEJLH4Rm4dDQTi4o"
          },
          "_contentSize": {
            "__type__": "cc.Size",
            "width": 162,
            "height": 123
          },
          "_position": {
            "__type__": "cc.Vec3",
            "x": -433.9,
            "y": 25.9
          }
        },
        {
          "__id__": 27
        }
      ],
      "_level": 4,
      "_prefab": {
        "__type__": "cc.PrefabInfo",
        "root": {
          "__id__": 1
        },
        "asset": {
          "__uuid__": "beeh9NrKhOEZlEcrh+Zid2"
        },
        "fileId": "e7gqPYod5AGoCl9w9yw9F4"
      }
    },
    {
      "__type__": "cc.Node",
      "_name": "score-label",
      "_parent": {
        "__id__": 26
      },
      "_active": false,
      "_level": 5,
      "_components": [
        {
          "__type__": "cc.Label",
          "node": {
            "__id__": 27
          },
          "_string": "1,500",
          "_N$string": "1,500",
          "_lineHeight": 50.3,
          "_N$file": {
            "__uuid__": "5a8qsGXPZB7a3N/Hg1rpTQ"
          },
          "_isSystemFontUsed": false
        }
      ],
      "_prefab": {
        "__type__": "cc.PrefabInfo",
        "root": {
          "__id__": 1
        },
        "asset": {
          "__uuid__": "beeh9NrKhOEZlEcrh+Zid2"
        },
        "fileId": "82d5Y8JtVEB5VEbQUe3Mqy"
      },
      "_contentSize": {
        "__type__": "cc.Size",
        "width": 103.33,
        "height": 33.53
      }
    },
    {
      "__type__": "cc.Node",
      "_name": "09",
      "_parent": {
        "__id__": 11
      },
      "_children": [
        {
          "__type__": "cc.Node",
          "_name": "gem_minigame_bonus_item_09",
          "_parent": {
            "__id__": 28
          },
          "_level": 5,
          "_prefab": {
            "__type__": "cc.PrefabInfo",
            "root": {
              "__id__": 1
            },
            "asset": {
              "__uuid__": "beeh9NrKhOEZlEcrh+Zid2"
            },
            "fileId": "a7YKHG1qtCD78ES+6444rh"
          },
          "_contentSize": {
            "__type__": "cc.Size",
            "width": 137,
            "height": 157
          },
          "_position": {
            "__type__": "cc.Vec3",
            "x": -300.6,
            "y": -84.8
          }
        },
        {
          "__id__": 29
        }
      ],
      "_level": 4,
      "_prefab": {
        "__type__": "cc.PrefabInfo",
        "root": {
          "__id__": 1
        },
        "asset": {
          "__uuid__": "beeh9NrKhOEZlEcrh+Zid2"
        },
        "fileId": "57NXOyEn9GWbMD48W3ku3d"
      }
    },
    {
      "__type__": "cc.Node",
      "_name": "score-label",
      "_parent": {
        "__id__": 28
      },
      "_active": false,
      "_level": 5,
      "_components": [
        {
          "__type__": "cc.Label",
          "node": {
            "__id__": 29
          },
          "_string": "1,500",
          "_N$string": "1,500",
          "_lineHeight": 50.3,
          "_N$file": {
            "__uuid__": "5a8qsGXPZB7a3N/Hg1rpTQ"
          },
          "_isSystemFontUsed": false
        }
      ],
      "_prefab": {
        "__type__": "cc.PrefabInfo",
        "root": {
          "__id__": 1
        },
        "asset": {
          "__uuid__": "beeh9NrKhOEZlEcrh+Zid2"
        },
        "fileId": "aeyfG+kytOIJ4lGbnNgMNQ"
      },
      "_contentSize": {
        "__type__": "cc.Size",
        "width": 103.33,
        "height": 33.53
      }
    },
    {
      "__type__": "cc.Node",
      "_name": "10",
      "_parent": {
        "__id__": 11
      },
      "_children": [
        {
          "__type__": "cc.Node",
          "_name": "gem_minigame_bonus_item_10",
          "_parent": {
            "__id__": 30
          },
          "_level": 5,
          "_prefab": {
            "__type__": "cc.PrefabInfo",
            "root": {
              "__id__": 1
            },
            "asset": {
              "__uuid__": "beeh9NrKhOEZlEcrh+Zid2"
            },
            "fileId": "e8/A8YByhF/Zl18rctd4ct"
          },
          "_contentSize": {
            "__type__": "cc.Size",
            "width": 183,
            "height": 181
          },
          "_position": {
            "__type__": "cc.Vec3",
            "x": -50.5,
            "y": -37
          }
        },
        {
          "__id__": 31
        }
      ],
      "_level": 4,
      "_prefab": {
        "__type__": "cc.PrefabInfo",
        "root": {
          "__id__": 1
        },
        "asset": {
          "__uuid__": "beeh9NrKhOEZlEcrh+Zid2"
        },
        "fileId": "dfjXKm10VBjpNqoSYSZI/M"
      }
    },
    {
      "__type__": "cc.Node",
      "_name": "score-label",
      "_parent": {
        "__id__": 30
      },
      "_active": false,
      "_level": 5,
      "_components": [
        {
          "__type__": "cc.Label",
          "node": {
            "__id__": 31
          },
          "_string": "1,500",
          "_N$string": "1,500",
          "_lineHeight": 50.3,
          "_N$file": {
            "__uuid__": "5a8qsGXPZB7a3N/Hg1rpTQ"
          },
          "_isSystemFontUsed": false
        }
      ],
      "_prefab": {
        "__type__": "cc.PrefabInfo",
        "root": {
          "__id__": 1
        },
        "asset": {
          "__uuid__": "beeh9NrKhOEZlEcrh+Zid2"
        },
        "fileId": "eeKWfD1UtF2InVC3vsHrm/"
      },
      "_contentSize": {
        "__type__": "cc.Size",
        "width": 103.33,
        "height": 33.53
      }
    },
    {
      "__type__": "cc.Node",
      "_name": "11",
      "_parent": {
        "__id__": 11
      },
      "_children": [
        {
          "__type__": "cc.Node",
          "_name": "gem_minigame_bonus_item_11",
          "_parent": {
            "__id__": 32
          },
          "_level": 5,
          "_prefab": {
            "__type__": "cc.PrefabInfo",
            "root": {
              "__id__": 1
            },
            "asset": {
              "__uuid__": "beeh9NrKhOEZlEcrh+Zid2"
            },
            "fileId": "47fPVtc11EF7lavmGnsaGB"
          },
          "_contentSize": {
            "__type__": "cc.Size",
            "width": 157,
            "height": 158
          },
          "_position": {
            "__type__": "cc.Vec3",
            "x": 155.9,
            "y": -9.3
          }
        },
        {
          "__id__": 33
        }
      ],
      "_level": 4,
      "_prefab": {
        "__type__": "cc.PrefabInfo",
        "root": {
          "__id__": 1
        },
        "asset": {
          "__uuid__": "beeh9NrKhOEZlEcrh+Zid2"
        },
        "fileId": "10074ipfVBpLG65QGQBXjF"
      }
    },
    {
      "__type__": "cc.Node",
      "_name": "score-label",
      "_parent": {
        "__id__": 32
      },
      "_active": false,
      "_level": 5,
      "_components": [
        {
          "__type__": "cc.Label",
          "node": {
            "__id__": 33
          },
          "_string": "1,500",
          "_N$string": "1,500",
          "_lineHeight": 50.3,
          "_N$file": {
            "__uuid__": "5a8qsGXPZB7a3N/Hg1rpTQ"
          },
          "_isSystemFontUsed": false
        }
      ],
      "_prefab": {
        "__type__": "cc.PrefabInfo",
        "root": {
          "__id__": 1
        },
        "asset": {
          "__uuid__": "beeh9NrKhOEZlEcrh+Zid2"
        },
        "fileId": "b1dwk5qWBMhJ7rTZsHXOG7"
      },
      "_contentSize": {
        "__type__": "cc.Size",
        "width": 103.33,
        "height": 33.53
      }
    },
    {
      "__type__": "cc.Node",
      "_name": "12",
      "_parent": {
        "__id__": 11
      },
      "_children": [
        {
          "__type__": "cc.Node",
          "_name": "gem_minigame_bonus_item_12",
          "_parent": {
            "__id__": 34
          },
          "_level": 5,
          "_prefab": {
            "__type__": "cc.PrefabInfo",
            "root": {
              "__id__": 1
            },
            "asset": {
              "__uuid__": "beeh9NrKhOEZlEcrh+Zid2"
            },
            "fileId": "62nCHUZNVPsrbMfvS5yDl6"
          },
          "_contentSize": {
            "__type__": "cc.Size",
            "width": 151,
            "height": 111
          },
          "_position": {
            "__type__": "cc.Vec3",
            "x": 312.4,
            "y": -116.5
          }
        },
        {
          "__id__": 35
        }
      ],
      "_level": 4,
      "_prefab": {
        "__type__": "cc.PrefabInfo",
        "root": {
          "__id__": 1
        },
        "asset": {
          "__uuid__": "beeh9NrKhOEZlEcrh+Zid2"
        },
        "fileId": "72dbtllOFHxbsS38m2qauQ"
      }
    },
    {
      "__type__": "cc.Node",
      "_name": "score-label",
      "_parent": {
        "__id__": 34
      },
      "_active": false,
      "_level": 5,
      "_components": [
        {
          "__type__": "cc.Label",
          "node": {
            "__id__": 35
          },
          "_string": "1,500",
          "_N$string": "1,500",
          "_lineHeight": 50.3,
          "_N$file": {
            "__uuid__": "5a8qsGXPZB7a3N/Hg1rpTQ"
          },
          "_isSystemFontUsed": false
        }
      ],
      "_prefab": {
        "__type__": "cc.PrefabInfo",
        "root": {
          "__id__": 1
        },
        "asset": {
          "__uuid__": "beeh9NrKhOEZlEcrh+Zid2"
        },
        "fileId": "be+7wCKQhDQp8FM1F7OCbL"
      },
      "_contentSize": {
        "__type__": "cc.Size",
        "width": 103.33,
        "height": 33.53
      }
    },
    {
      "__type__": "cc.Node",
      "_name": "13",
      "_parent": {
        "__id__": 11
      },
      "_children": [
        {
          "__type__": "cc.Node",
          "_name": "gem_minigame_bonus_item_13",
          "_parent": {
            "__id__": 36
          },
          "_level": 5,
          "_prefab": {
            "__type__": "cc.PrefabInfo",
            "root": {
              "__id__": 1
            },
            "asset": {
              "__uuid__": "beeh9NrKhOEZlEcrh+Zid2"
            },
            "fileId": "75EwuHZR1MPbJIgfW5rIFn"
          },
          "_contentSize": {
            "__type__": "cc.Size",
            "width": 246,
            "height": 192
          },
          "_position": {
            "__type__": "cc.Vec3",
            "x": -134.2,
            "y": -243.3
          }
        },
        {
          "__id__": 37
        }
      ],
      "_level": 4,
      "_prefab": {
        "__type__": "cc.PrefabInfo",
        "root": {
          "__id__": 1
        },
        "asset": {
          "__uuid__": "beeh9NrKhOEZlEcrh+Zid2"
        },
        "fileId": "92fnak5+JMqbgspuQnROrQ"
      }
    },
    {
      "__type__": "cc.Node",
      "_name": "score-label",
      "_parent": {
        "__id__": 36
      },
      "_active": false,
      "_level": 5,
      "_components": [
        {
          "__type__": "cc.Label",
          "node": {
            "__id__": 37
          },
          "_string": "1,500",
          "_N$string": "1,500",
          "_lineHeight": 50.3,
          "_N$file": {
            "__uuid__": "5a8qsGXPZB7a3N/Hg1rpTQ"
          },
          "_isSystemFontUsed": false
        }
      ],
      "_prefab": {
        "__type__": "cc.PrefabInfo",
        "root": {
          "__id__": 1
        },
        "asset": {
          "__uuid__": "beeh9NrKhOEZlEcrh+Zid2"
        },
        "fileId": "0d4vQzZOpBU7jstsGuz1fA"
      },
      "_contentSize": {
        "__type__": "cc.Size",
        "width": 103.33,
        "height": 33.53
      }
    },
    {
      "__type__": "cc.Node",
      "_name": "14",
      "_parent": {
        "__id__": 11
      },
      "_children": [
        {
          "__type__": "cc.Node",
          "_name": "gem_minigame_bonus_item_14",
          "_parent": {
            "__id__": 38
          },
          "_level": 5,
          "_prefab": {
            "__type__": "cc.PrefabInfo",
            "root": {
              "__id__": 1
            },
            "asset": {
              "__uuid__": "beeh9NrKhOEZlEcrh+Zid2"
            },
            "fileId": "ccoiXM+RNLBrBHxB63RsKl"
          },
          "_contentSize": {
            "__type__": "cc.Size",
            "width": 189,
            "height": 171
          },
          "_position": {
            "__type__": "cc.Vec3",
            "x": 125.1,
            "y": -228.2
          }
        },
        {
          "__id__": 39
        }
      ],
      "_level": 4,
      "_prefab": {
        "__type__": "cc.PrefabInfo",
        "root": {
          "__id__": 1
        },
        "asset": {
          "__uuid__": "beeh9NrKhOEZlEcrh+Zid2"
        },
        "fileId": "68X86X5KtAkYnvLvVpmja3"
      }
    },
    {
      "__type__": "cc.Node",
      "_name": "score-label",
      "_parent": {
        "__id__": 38
      },
      "_active": false,
      "_level": 5,
      "_components": [
        {
          "__type__": "cc.Label",
          "node": {
            "__id__": 39
          },
          "_string": "1,500",
          "_N$string": "1,500",
          "_lineHeight": 50.3,
          "_N$file": {
            "__uuid__": "5a8qsGXPZB7a3N/Hg1rpTQ"
          },
          "_isSystemFontUsed": false
        }
      ],
      "_prefab": {
        "__type__": "cc.PrefabInfo",
        "root": {
          "__id__": 1
        },
        "asset": {
          "__uuid__": "beeh9NrKhOEZlEcrh+Zid2"
        },
        "fileId": "9aaRuSAG1LFpXGcL2pfZe8"
      },
      "_contentSize": {
        "__type__": "cc.Size",
        "width": 103.33,
        "height": 33.53
      }
    },
    {
      "__type__": "cc.Node",
      "_name": "15",
      "_parent": {
        "__id__": 11
      },
      "_children": [
        {
          "__type__": "cc.Node",
          "_name": "gem_minigame_bonus_item_15",
          "_parent": {
            "__id__": 40
          },
          "_level": 5,
          "_prefab": {
            "__type__": "cc.PrefabInfo",
            "root": {
              "__id__": 1
            },
            "asset": {
              "__uuid__": "beeh9NrKhOEZlEcrh+Zid2"
            },
            "fileId": "caUCfRhYdGMJy90R+hlu9c"
          },
          "_contentSize": {
            "__type__": "cc.Size",
            "width": 200,
            "height": 183
          },
          "_position": {
            "__type__": "cc.Vec3",
            "x": 529.8,
            "y": -78.7
          }
        },
        {
          "__id__": 41
        }
      ],
      "_level": 4,
      "_prefab": {
        "__type__": "cc.PrefabInfo",
        "root": {
          "__id__": 1
        },
        "asset": {
          "__uuid__": "beeh9NrKhOEZlEcrh+Zid2"
        },
        "fileId": "b8k3OSIJRALrfxSfeasNKJ"
      }
    },
    {
      "__type__": "cc.Node",
      "_name": "score-label",
      "_parent": {
        "__id__": 40
      },
      "_active": false,
      "_level": 5,
      "_components": [
        {
          "__type__": "cc.Label",
          "node": {
            "__id__": 41
          },
          "_string": "1,500",
          "_N$string": "1,500",
          "_lineHeight": 50.3,
          "_N$file": {
            "__uuid__": "5a8qsGXPZB7a3N/Hg1rpTQ"
          },
          "_isSystemFontUsed": false
        }
      ],
      "_prefab": {
        "__type__": "cc.PrefabInfo",
        "root": {
          "__id__": 1
        },
        "asset": {
          "__uuid__": "beeh9NrKhOEZlEcrh+Zid2"
        },
        "fileId": "f1Aqxxly9Lw6oy+i3b1TC9"
      },
      "_contentSize": {
        "__type__": "cc.Size",
        "width": 103.33,
        "height": 33.53
      }
    },
    {
      "__type__": "cc.Node",
      "_name": "bottom",
      "_parent": {
        "__id__": 9
      },
      "_children": [
        {
          "__id__": 43
        },
        {
          "__id__": 47
        }
      ],
      "_level": 3,
      "_prefab": {
        "__type__": "cc.PrefabInfo",
        "root": {
          "__id__": 1
        },
        "asset": {
          "__uuid__": "beeh9NrKhOEZlEcrh+Zid2"
        },
        "fileId": "d1noeM3cVMUJrDoKBO99jK"
      }
    },
    {
      "__type__": "cc.Node",
      "_name": "gem_minigame_bonus_item_total",
      "_parent": {
        "__id__": 42
      },
      "_children": [
        {
          "__id__": 44
        },
        {
          "__id__": 45
        }
      ],
      "_level": 4,
      "_components": [
        {
          "__type__": "cc.Sprite",
          "node": {
            "__id__": 43
          }
        }
      ],
      "_prefab": {
        "__type__": "cc.PrefabInfo",
        "root": {
          "__id__": 1
        },
        "asset": {
          "__uuid__": "beeh9NrKhOEZlEcrh+Zid2"
        },
        "fileId": "6c84I4q+1Mg4QqMcmukdBD"
      },
      "_contentSize": {
        "__type__": "cc.Size",
        "width": 275,
        "height": 166
      },
      "_position": {
        "__type__": "cc.Vec3",
        "x": -452.1,
        "y": -278.3
      }
    },
    {
      "__type__": "cc.Node",
      "_name": "box-name",
      "_parent": {
        "__id__": 43
      },
      "_level": 5,
      "_components": [
        {
          "__type__": "cc.Label",
          "node": {
            "__id__": 44
          },
          "_string": "TOTAL WINS",
          "_N$string": "TOTAL WINS",
          "_fontSize": 34,
          "_lineHeight": 50,
          "_N$file": {
            "__uuid__": "16ghaQKjJOfLDvTizedZAV"
          },
          "_isSystemFontUsed": false
        }
      ],
      "_prefab": {
        "__type__": "cc.PrefabInfo",
        "root": {
          "__id__": 1
        },
        "asset": {
          "__uuid__": "beeh9NrKhOEZlEcrh+Zid2"
        },
        "fileId": "33N7I3XmhCq6vdY8fckV4Y"
      },
      "_color": {
        "__type__": "cc.Color",
        "r": 92,
        "g": 44,
        "b": 12
      },
      "_contentSize": {
        "__type__": "cc.Size",
        "width": 174.25,
        "height": 42.5
      },
      "_position": {
        "__type__": "cc.Vec3",
        "y": 29.5
      },
      "_scale": {
        "__type__": "cc.Vec3",
        "x": 1,
        "y": 0.9,
        "z": 1
      }
    },
    {
      "__type__": "cc.Node",
      "_name": "win-amount",
      "_parent": {
        "__id__": 43
      },
      "_level": 5,
      "_components": [
        {
          "__id__": 46
        }
      ],
      "_prefab": {
        "__type__": "cc.PrefabInfo",
        "root": {
          "__id__": 1
        },
        "asset": {
          "__uuid__": "beeh9NrKhOEZlEcrh+Zid2"
        },
        "fileId": "a7YUTywRJHpbduSo4/jdo/"
      },
      "_color": {
        "__type__": "cc.Color",
        "r": 7
      },
      "_contentSize": {
        "__type__": "cc.Size",
        "width": 199.05,
        "height": 47.5
      },
      "_position": {
        "__type__": "cc.Vec3",
        "y": -23.5
      }
    },
    {
      "__type__": "cc.Label",
      "node": {
        "__id__": 45
      },
      "_string": "999,999,999",
      "_N$string": "999,999,999",
      "_fontSize": 38,
      "_lineHeight": 50,
      "_N$file": {
        "__uuid__": "16ghaQKjJOfLDvTizedZAV"
      },
      "_isSystemFontUsed": false,
      "_spacingX": 1
    },
    {
      "__type__": "cc.Node",
      "_name": "gem_minigame_bonus_item_total",
      "_parent": {
        "__id__": 42
      },
      "_children": [
        {
          "__id__": 48
        },
        {
          "__id__": 49
        },
        {
          "__id__": 51
        }
      ],
      "_level": 4,
      "_components": [
        {
          "__type__": "cc.Sprite",
          "node": {
            "__id__": 47
          }
        }
      ],
      "_prefab": {
        "__type__": "cc.PrefabInfo",
        "root": {
          "__id__": 1
        },
        "asset": {
          "__uuid__": "beeh9NrKhOEZlEcrh+Zid2"
        },
        "fileId": "9eIxzHAotIXbaBrh2GY3uk"
      },
      "_contentSize": {
        "__type__": "cc.Size",
        "width": 275,
        "height": 166
      },
      "_position": {
        "__type__": "cc.Vec3",
        "x": 427.8,
        "y": -278.6
      }
    },
    {
      "__type__": "cc.Node",
      "_name": "box-name",
      "_parent": {
        "__id__": 47
      },
      "_level": 5,
      "_components": [
        {
          "__type__": "cc.Label",
          "node": {
            "__id__": 48
          },
          "_string": "FAILS",
          "_N$string": "FAILS",
          "_fontSize": 34,
          "_lineHeight": 50,
          "_N$file": {
            "__uuid__": "16ghaQKjJOfLDvTizedZAV"
          },
          "_isSystemFontUsed": false,
          "_spacingX": 1
        }
      ],
      "_prefab": {
        "__type__": "cc.PrefabInfo",
        "root": {
          "__id__": 1
        },
        "asset": {
          "__uuid__": "beeh9NrKhOEZlEcrh+Zid2"
        },
        "fileId": "400Snh1DpLb578ahIynYeC"
      },
      "_color": {
        "__type__": "cc.Color",
        "r": 92,
        "g": 44,
        "b": 12
      },
      "_contentSize": {
        "__type__": "cc.Size",
        "width": 83.05,
        "height": 42.5
      },
      "_position": {
        "__type__": "cc.Vec3",
        "y": 35
      },
      "_scale": {
        "__type__": "cc.Vec3",
        "x": 1,
        "y": 0.9,
        "z": 1
      }
    },
    {
      "__type__": "cc.Node",
      "_name": "gem_minigame_bonus_item_fail_02",
      "_parent": {
        "__id__": 47
      },
      "_children": [
        {
          "__id__": 50
        }
      ],
      "_level": 5,
      "_components": [
        {
          "__type__": "cc.Sprite",
          "node": {
            "__id__": 49
          }
        }
      ],
      "_prefab": {
        "__type__": "cc.PrefabInfo",
        "root": {
          "__id__": 1
        },
        "asset": {
          "__uuid__": "beeh9NrKhOEZlEcrh+Zid2"
        },
        "fileId": "e3WegenTJB452hl2nDRG1e"
      },
      "_contentSize": {
        "__type__": "cc.Size",
        "width": 79,
        "height": 72
      },
      "_position": {
        "__type__": "cc.Vec3",
        "x": -33.7,
        "y": -23.4
      }
    },
    {
      "__type__": "cc.Node",
      "_name": "particle_texture",
      "_parent": {
        "__id__": 49
      },
      "_level": 6,
      "_components": [
        {
          "__type__": "cc.ParticleSystem",
          "node": {
            "__id__": 50
          },
          "_dstBlendFactor": 1,
          "_custom": true,
          "_file": {
            "__uuid__": "8djV/i5LtLbK2HICWPU6Rq"
          },
          "totalParticles": 60,
          "emissionRate": 40,
          "lifeVar": 0.4,
          "_startColor": {
            "__type__": "cc.Color",
            "r": 219,
            "g": 142,
            "b": 120,
            "a": 204
          },
          "_startColorVar": {
            "__type__": "cc.Color",
            "a": 217
          },
          "_endColor": {
            "__type__": "cc.Color",
            "r": 191,
            "g": 63,
            "b": 25,
            "a": 151
          },
          "_endColorVar": {
            "__type__": "cc.Color",
            "a": 107
          },
          "angleVar": 37,
          "startSize": 10,
          "startSizeVar": 2,
          "endSize": 1,
          "endSizeVar": 2,
          "posVar": {
            "__type__": "cc.Vec2",
            "x": 4,
            "y": 5
          },
          "positionType": 1,
          "gravity": {
            "__type__": "cc.Vec2",
            "y": 20
          },
          "speed": 9,
          "speedVar": 5,
          "tangentialAccel": 7
        }
      ],
      "_prefab": {
        "__type__": "cc.PrefabInfo",
        "root": {
          "__id__": 1
        },
        "asset": {
          "__uuid__": "beeh9NrKhOEZlEcrh+Zid2"
        },
        "fileId": "08bdjbw9JCRr18TjyQGZai"
      },
      "_position": {
        "__type__": "cc.Vec3",
        "x": 19,
        "y": 21
      }
    },
    {
      "__type__": "cc.Node",
      "_name": "gem_minigame_bonus_item_fail_02",
      "_parent": {
        "__id__": 47
      },
      "_children": [
        {
          "__id__": 52
        }
      ],
      "_level": 5,
      "_components": [
        {
          "__type__": "cc.Sprite",
          "node": {
            "__id__": 51
          }
        }
      ],
      "_prefab": {
        "__type__": "cc.PrefabInfo",
        "root": {
          "__id__": 1
        },
        "asset": {
          "__uuid__": "beeh9NrKhOEZlEcrh+Zid2"
        },
        "fileId": "fcTXApEElKsIjV7lhz24V5"
      },
      "_contentSize": {
        "__type__": "cc.Size",
        "width": 79,
        "height": 73
      },
      "_position": {
        "__type__": "cc.Vec3",
        "x": 38.5,
        "y": -23.3
      }
    },
    {
      "__type__": "cc.Node",
      "_name": "particle_texture",
      "_parent": {
        "__id__": 51
      },
      "_level": 6,
      "_components": [
        {
          "__type__": "cc.ParticleSystem",
          "node": {
            "__id__": 52
          },
          "_dstBlendFactor": 1,
          "_custom": true,
          "_file": {
            "__uuid__": "8djV/i5LtLbK2HICWPU6Rq"
          },
          "totalParticles": 60,
          "emissionRate": 40,
          "lifeVar": 0.4,
          "_startColor": {
            "__type__": "cc.Color",
            "r": 219,
            "g": 142,
            "b": 120,
            "a": 204
          },
          "_startColorVar": {
            "__type__": "cc.Color",
            "a": 217
          },
          "_endColor": {
            "__type__": "cc.Color",
            "r": 191,
            "g": 63,
            "b": 25,
            "a": 151
          },
          "_endColorVar": {
            "__type__": "cc.Color",
            "a": 107
          },
          "angleVar": 37,
          "startSize": 10,
          "startSizeVar": 2,
          "endSize": 1,
          "endSizeVar": 2,
          "posVar": {
            "__type__": "cc.Vec2",
            "x": 4,
            "y": 5
          },
          "positionType": 1,
          "gravity": {
            "__type__": "cc.Vec2",
            "y": 20
          },
          "speed": 9,
          "speedVar": 5,
          "tangentialAccel": 7
        }
      ],
      "_prefab": {
        "__type__": "cc.PrefabInfo",
        "root": {
          "__id__": 1
        },
        "asset": {
          "__uuid__": "beeh9NrKhOEZlEcrh+Zid2"
        },
        "fileId": "7b8OAQ8RlJvpiDPzPUKBbt"
      },
      "_position": {
        "__type__": "cc.Vec3",
        "x": 19,
        "y": 21
      }
    },
    {
      "__type__": "cc.Node",
      "_name": "result-table",
      "_parent": {
        "__id__": 1
      },
      "_children": [
        {
          "__id__": 54
        },
        {
          "__id__": 55
        },
        {
          "__id__": 56
        }
      ],
      "_active": false,
      "_level": 2,
      "_prefab": {
        "__type__": "cc.PrefabInfo",
        "root": {
          "__id__": 1
        },
        "asset": {
          "__uuid__": "beeh9NrKhOEZlEcrh+Zid2"
        },
        "fileId": "dafjeDTnBExo0onGubJOFj"
      }
    },
    {
      "__type__": "cc.Node",
      "_name": "const-black-ground",
      "_parent": {
        "__id__": 53
      },
      "_level": 3,
      "_components": [
        {
          "__type__": "cc.Sprite",
          "node": {
            "__id__": 54
          },
          "_spriteFrame": {
            "__uuid__": "f38gzWUbZCIrJsjc0TrFDp"
          }
        },
        {
          "__type__": "cc.Button",
          "node": {
            "__id__": 54
          }
        },
        {
          "__type__": "cc.Widget",
          "node": {
            "__id__": 54
          },
          "_target": {
            "__id__": 1
          },
          "_alignFlags": 45,
          "_originalWidth": 1280,
          "_originalHeight": 720
        }
      ],
      "_prefab": {
        "__type__": "cc.PrefabInfo",
        "root": {
          "__id__": 1
        },
        "asset": {
          "__uuid__": "beeh9NrKhOEZlEcrh+Zid2"
        },
        "fileId": "e6jYxPZAdA8KiIWLeiBfnM"
      },
      "_opacity": 150,
      "_contentSize": {
        "__type__": "cc.Size",
        "width": 1280,
        "height": 720
      }
    },
    {
      "__type__": "cc.Node",
      "_name": "const-gem-minigame-select-bg",
      "_parent": {
        "__id__": 53
      },
      "_level": 3,
      "_components": [
        {
          "__type__": "cc.Sprite",
          "node": {
            "__id__": 55
          },
          "_spriteFrame": {
            "__uuid__": "7c8AJX0e1Pz6gfa5C3AVke"
          }
        }
      ],
      "_prefab": {
        "__type__": "cc.PrefabInfo",
        "root": {
          "__id__": 1
        },
        "asset": {
          "__uuid__": "beeh9NrKhOEZlEcrh+Zid2"
        },
        "fileId": "3e27J02txCwZtgmy651Qi9"
      },
      "_contentSize": {
        "__type__": "cc.Size",
        "width": 913,
        "height": 509
      },
      "_position": {
        "__type__": "cc.Vec3",
        "y": -13
      },
      "_scale": {
        "__type__": "cc.Vec3",
        "x": 1.2,
        "y": 1.2,
        "z": 1.2
      }
    },
    {
      "__type__": "cc.Node",
      "_name": "main",
      "_parent": {
        "__id__": 53
      },
      "_children": [
        {
          "__id__": 57
        },
        {
          "__id__": 58
        },
        {
          "__id__": 59
        },
        {
          "__id__": 61
        },
        {
          "__id__": 62
        },
        {
          "__id__": 63
        }
      ],
      "_level": 3,
      "_prefab": {
        "__type__": "cc.PrefabInfo",
        "root": {
          "__id__": 1
        },
        "asset": {
          "__uuid__": "beeh9NrKhOEZlEcrh+Zid2"
        },
        "fileId": "0ae3UBJP9LQbEaDC5h4q+L"
      },
      "_position": {
        "__type__": "cc.Vec3",
        "y": -26
      }
    },
    {
      "__type__": "cc.Node",
      "_name": "const-game_minigame_totalscore_treasure",
      "_parent": {
        "__id__": 56
      },
      "_level": 4,
      "_components": [
        {
          "__type__": "cc.Sprite",
          "node": {
            "__id__": 57
          },
          "_spriteFrame": {
            "__uuid__": "e1h1A5QChJSrKLpzWdzSQB"
          }
        }
      ],
      "_prefab": {
        "__type__": "cc.PrefabInfo",
        "root": {
          "__id__": 1
        },
        "asset": {
          "__uuid__": "beeh9NrKhOEZlEcrh+Zid2"
        },
        "fileId": "a0qk1FEzhN4I/klWRXo/RC"
      },
      "_contentSize": {
        "__type__": "cc.Size",
        "width": 324,
        "height": 40
      },
      "_position": {
        "__type__": "cc.Vec3",
        "x": -5,
        "y": 208
      }
    },
    {
      "__type__": "cc.Node",
      "_name": "you-win",
      "_parent": {
        "__id__": 56
      },
      "_level": 4,
      "_components": [
        {
          "__type__": "cc.Label",
          "node": {
            "__id__": 58
          },
          "_useOriginalSize": false,
          "_string": "You win:",
          "_N$string": "You win:",
          "_fontSize": 50,
          "_lineHeight": 60,
          "_N$file": {
            "__uuid__": "16ghaQKjJOfLDvTizedZAV"
          },
          "_isSystemFontUsed": false,
          "_N$horizontalAlign": 1,
          "_N$verticalAlign": 1
        }
      ],
      "_prefab": {
        "__type__": "cc.PrefabInfo",
        "root": {
          "__id__": 1
        },
        "asset": {
          "__uuid__": "beeh9NrKhOEZlEcrh+Zid2"
        },
        "fileId": "9enQFY/V5E6pYMug7GLyq0"
      },
      "_contentSize": {
        "__type__": "cc.Size",
        "width": 170,
        "height": 75
      },
      "_position": {
        "__type__": "cc.Vec3",
        "x": -5,
        "y": 95
      }
    },
    {
      "__type__": "cc.Node",
      "_name": "win-amount-label",
      "_parent": {
        "__id__": 56
      },
      "_level": 4,
      "_components": [
        {
          "__id__": 60
        }
      ],
      "_prefab": {
        "__type__": "cc.PrefabInfo",
        "root": {
          "__id__": 1
        },
        "asset": {
          "__uuid__": "beeh9NrKhOEZlEcrh+Zid2"
        },
        "fileId": "79W7UU7rtCd6QXg7L6aJSO"
      },
      "_color": {
        "__type__": "cc.Color",
        "r": 255,
        "g": 200,
        "b": 66
      },
      "_contentSize": {
        "__type__": "cc.Size",
        "width": 367.2,
        "height": 120
      },
      "_position": {
        "__type__": "cc.Vec3",
        "x": -5,
        "y": -10.2
      }
    },
    {
      "__type__": "cc.Label",
      "node": {
        "__id__": 59
      },
      "_useOriginalSize": false,
      "_string": "10,000,000",
      "_N$string": "10,000,000",
      "_fontSize": 72,
      "_lineHeight": 100,
      "_N$file": {
        "__uuid__": "5a8qsGXPZB7a3N/Hg1rpTQ"
      },
      "_isSystemFontUsed": false,
      "_N$horizontalAlign": 1,
      "_N$verticalAlign": 1
    },
    {
      "__type__": "cc.Node",
      "_name": "const-game_minigame_totalscore_backtogame",
      "_parent": {
        "__id__": 56
      },
      "_level": 4,
      "_components": [
        {
          "__type__": "cc.Sprite",
          "node": {
            "__id__": 61
          },
          "_spriteFrame": {
            "__uuid__": "e9YSqke7RKR6DWAr4h0ERl"
          }
        },
        {
          "__type__": "cc.Button",
          "node": {
            "__id__": 61
          },
          "zoomScale": 0.9,
          "clickEvents": [
            {
              "__type__": "cc.ClickEvent",
              "target": {
                "__id__": 1
              },
              "_componentId": "1958fQ+oxFFpqrhzE+2a3xA",
              "handler": "backToSlot"
            }
          ],
          "_N$transition": 3,
          "transition": 3
        }
      ],
      "_prefab": {
        "__type__": "cc.PrefabInfo",
        "root": {
          "__id__": 1
        },
        "asset": {
          "__uuid__": "beeh9NrKhOEZlEcrh+Zid2"
        },
        "fileId": "4ekIlfPQVOVJz38DTYBOsz"
      },
      "_contentSize": {
        "__type__": "cc.Size",
        "width": 296,
        "height": 73
      },
      "_position": {
        "__type__": "cc.Vec3",
        "x": -5,
        "y": -127
      }
    },
    {
      "__type__": "cc.Node",
      "_name": "const-game_minigame_totalscore_iconshare",
      "_parent": {
        "__id__": 56
      },
      "_level": 4,
      "_components": [
        {
          "__type__": "cc.Sprite",
          "node": {
            "__id__": 62
          },
          "_spriteFrame": {
            "__uuid__": "48aI31qb9F5IQ49aCJb0VK"
          }
        }
      ],
      "_prefab": {
        "__type__": "cc.PrefabInfo",
        "root": {
          "__id__": 1
        },
        "asset": {
          "__uuid__": "beeh9NrKhOEZlEcrh+Zid2"
        },
        "fileId": "e5/M0Pf6BD/4C+f2gM21lu"
      },
      "_contentSize": {
        "__type__": "cc.Size",
        "width": 29,
        "height": 28
      },
      "_position": {
        "__type__": "cc.Vec3",
        "x": -86,
        "y": -218
      }
    },
    {
      "__type__": "cc.Node",
      "_name": "share-facebook",
      "_parent": {
        "__id__": 56
      },
      "_level": 4,
      "_components": [
        {
          "__type__": "cc.Label",
          "node": {
            "__id__": 63
          },
          "_useOriginalSize": false,
          "_string": "Share with facebook",
          "_N$string": "Share with facebook",
          "_fontSize": 20,
          "_lineHeight": 35,
          "_N$file": {
            "__uuid__": "16ghaQKjJOfLDvTizedZAV"
          },
          "_isSystemFontUsed": false,
          "_N$horizontalAlign": 1,
          "_N$verticalAlign": 1
        }
      ],
      "_prefab": {
        "__type__": "cc.PrefabInfo",
        "root": {
          "__id__": 1
        },
        "asset": {
          "__uuid__": "beeh9NrKhOEZlEcrh+Zid2"
        },
        "fileId": "519GFWORlF85KQNzH2ciza"
      },
      "_contentSize": {
        "__type__": "cc.Size",
        "width": 163,
        "height": 17.5
      },
      "_position": {
        "__type__": "cc.Vec3",
        "x": 15,
        "y": -215
      }
    },
    {
      "__type__": "cc.Node",
      "_name": "ResourceController",
      "_parent": {
        "__id__": 1
      },
      "_level": 2,
      "_components": [
        {
          "__id__": 65
        }
      ],
      "_prefab": {
        "__type__": "cc.PrefabInfo",
        "root": {
          "__id__": 1
        },
        "asset": {
          "__uuid__": "beeh9NrKhOEZlEcrh+Zid2"
        },
        "fileId": "07efRN0jlCe6I3B/EjPK7T"
      }
    },
    {
      "__type__": "db42duYvd5AmaX9huAw3pKj",
      "node": {
        "__id__": 64
      },
      "listImage": [
        {
          "__type__": "ImageItem",
          "image": {
            "__id__": 4
          }
        },
        {
          "__type__": "ImageItem",
          "image": {
            "__id__": 5
          }
        },
        {
          "__type__": "ImageItem",
          "image": {
            "__id__": 6
          }
        },
        {
          "__type__": "ImageItem",
          "image": {
            "__id__": 7
          }
        },
        {
          "__type__": "ImageItem",
          "image": {
            "__id__": 8
          }
        },
        {
          "__type__": "ImageItem",
          "image": {
            "__id__": 43
          }
        },
        {
          "__type__": "ImageItem",
          "image": {
            "__id__": 47
          }
        },
        {
          "__type__": "ImageItem",
          "image": {
            "__id__": 49
          }
        },
        {
          "__type__": "ImageItem",
          "image": {
            "__id__": 51
          }
        },
        {
          "__type__": "ImageItem",
          "image": {
            "__id__": 10
          }
        }
      ]
    }
  ],
  {
    "__type__": "cc.SpriteFrame",
    "content": {
      "name": "game_minigame_totalscore_treasure",
      "texture": "cakM6VR6tNFZTlJuN4xmGg",
      "rect": [
        0,
        0,
        324,
        40
      ],
      "offset": [
        0,
        0
      ],
      "originalSize": [
        324,
        40
      ],
      "capInsets": [
        0,
        0,
        0,
        0
      ]
    }
  },
  {
    "__type__": "cc.SpriteFrame",
    "content": {
      "name": "game_minigame_totalscore_backtogame",
      "texture": "75ty/AxiZM0bqDcmClfWel",
      "rect": [
        1,
        1,
        296,
        73
      ],
      "offset": [
        0,
        0
      ],
      "originalSize": [
        298,
        75
      ],
      "capInsets": [
        0,
        0,
        0,
        0
      ]
    }
  },
  {
    "__type__": "cc.SpriteFrame",
    "content": {
      "name": "overlay",
      "texture": "46MDNNzGBC1ZktAuh11ppK",
      "rect": [
        0,
        0,
        1280,
        720
      ],
      "offset": [
        0,
        0
      ],
      "originalSize": [
        1280,
        720
      ],
      "capInsets": [
        0,
        0,
        0,
        0
      ]
    }
  }
]