{
  "__type__": "cc.SpriteFrame",
  "content": {
    "name": "select-bet-play-item-3",
    "texture": "960SWOJVREU4xaUwfd19kz",
    "rect": [
      0,
      0,
      176,
      76
    ],
    "offset": [
      0,
      0
    ],
    "originalSize": [
      176,
      76
    ],
    "capInsets": [
      0,
      0,
      0,
      0
    ]
  }
}