{
  "__type__": "cc.SpriteFrame",
  "content": {
    "name": "select-bet-play-text-bet",
    "texture": "7cQTiYqRBOPqJvaGQFI2tn",
    "rect": [
      0,
      0,
      689,
      63
    ],
    "offset": [
      0,
      0
    ],
    "originalSize": [
      689,
      63
    ],
    "capInsets": [
      0,
      0,
      0,
      0
    ]
  }
}