{
  "__type__": "cc.SpriteFrame",
  "content": {
    "name": "gem_minigame_bonus_item_13",
    "texture": "5aXf7QfqdNIZtgkwRf1VXD",
    "rect": [
      0,
      0,
      246,
      192
    ],
    "offset": [
      -0.5,
      0
    ],
    "originalSize": [
      247,
      192
    ],
    "capInsets": [
      0,
      0,
      0,
      0
    ]
  }
}