{
  "__type__": "cc.SpriteFrame",
  "content": {
    "name": "cu_hanh_dark",
    "texture": "60KQBBqZVP2LbVL3X72fMe",
    "rect": [
      0,
      0,
      112,
      116
    ],
    "offset": [
      0,
      0.5
    ],
    "originalSize": [
      112,
      117
    ],
    "capInsets": [
      0,
      0,
      0,
      0
    ]
  }
}