{
  "__type__": "cc.SpriteFrame",
  "content": {
    "name": "sach_gray",
    "texture": "62/7Yh9AtK/bT+/bkdYCLk",
    "rect": [
      3,
      4,
      326,
      252
    ],
    "offset": [
      1,
      -1
    ],
    "originalSize": [
      330,
      258
    ],
    "capInsets": [
      0,
      0,
      0,
      0
    ]
  }
}