{
  "__type__": "cc.SpriteFrame",
  "content": {
    "name": "casino-slot-bg-mini-money",
    "texture": "c0p+hluN9F2bwEhJgRQ4Ji",
    "rect": [
      0,
      0,
      321,
      44
    ],
    "offset": [
      0,
      0
    ],
    "originalSize": [
      321,
      44
    ],
    "capInsets": [
      0,
      0,
      0,
      0
    ]
  }
}