{
  "__type__": "cc.SpriteFrame",
  "content": {
    "name": "game-dra-item-coin-gray",
    "texture": "4eSlSU9ZtPRo0aAMNglhPx",
    "rect": [
      11,
      0,
      129,
      127
    ],
    "offset": [
      0,
      0
    ],
    "originalSize": [
      151,
      127
    ],
    "capInsets": [
      0,
      0,
      0,
      0
    ]
  }
}