{
  "__type__": "cc.SpriteFrame",
  "content": {
    "name": "major",
    "texture": "1dg0PkQktByZenLynQKouQ",
    "rect": [
      0,
      0,
      281,
      64
    ],
    "offset": [
      0,
      0
    ],
    "originalSize": [
      281,
      64
    ],
    "capInsets": [
      0,
      0,
      0,
      0
    ]
  }
}