{
  "__type__": "cc.SpriteFrame",
  "content": {
    "name": "backtogame_center",
    "texture": "0ejBiEdUBGLoq8JoTECwze",
    "rect": [
      0,
      0,
      373,
      68
    ],
    "offset": [
      0,
      0
    ],
    "originalSize": [
      373,
      68
    ],
    "capInsets": [
      0,
      0,
      0,
      0
    ]
  }
}