{
  "__type__": "cc.SpriteFrame",
  "content": {
    "name": "title_free_spins",
    "texture": "06V5EDyxtFZ7fvYR55BB1n",
    "rect": [
      0,
      0,
      183,
      27
    ],
    "offset": [
      -0.5,
      0
    ],
    "originalSize": [
      184,
      27
    ],
    "capInsets": [
      0,
      0,
      0,
      0
    ]
  }
}