{
  "__type__": "cc.SpriteFrame",
  "content": {
    "name": "game-dra-item-dra-wild-update",
    "texture": "86qvdVrfVLzY5I5BaWEqEQ",
    "rect": [
      0,
      0,
      135,
      116
    ],
    "offset": [
      0,
      0
    ],
    "originalSize": [
      135,
      116
    ],
    "capInsets": [
      0,
      0,
      0,
      0
    ]
  }
}