{
  "__type__": "cc.SpriteFrame",
  "content": {
    "name": "reward",
    "texture": "81EOCgG7VIlauRlhKR6Axm",
    "rect": [
      1,
      3,
      498,
      213
    ],
    "offset": [
      -1,
      -0.5
    ],
    "originalSize": [
      502,
      218
    ],
    "capInsets": [
      0,
      0,
      0,
      0
    ]
  }
}