{
  "__type__": "cc.SpriteFrame",
  "content": {
    "name": "gem-item-ingame-2",
    "texture": "ef2yFzakRHF7C3Y4Z24uS+",
    "rect": [
      22,
      7,
      112,
      121
    ],
    "offset": [
      -1.5,
      -2.5
    ],
    "originalSize": [
      159,
      130
    ],
    "capInsets": [
      0,
      0,
      0,
      0
    ]
  }
}