{
  "__type__": "cc.SpriteFrame",
  "content": {
    "name": "slot-btn-spin-stop-2",
    "texture": "25ulgrrGdAEJgDAJcuDAxY",
    "rect": [
      0,
      0,
      176,
      90
    ],
    "offset": [
      0,
      0.5
    ],
    "originalSize": [
      176,
      91
    ],
    "capInsets": [
      0,
      0,
      0,
      0
    ]
  }
}