{
  "__type__": "cc.SpriteFrame",
  "content": {
    "name": "casino-slot-coin-normal",
    "texture": "25r9y9BN1L+pUyCl5Hld41",
    "rect": [
      0,
      0,
      148,
      148
    ],
    "offset": [
      0,
      0
    ],
    "originalSize": [
      148,
      148
    ],
    "capInsets": [
      0,
      0,
      0,
      0
    ]
  }
}