{
  "__type__": "cc.SpriteFrame",
  "content": {
    "name": "item-scatter-gem",
    "texture": "4205AwX5BJBqTcr70i3vF/",
    "rect": [
      1,
      0,
      158,
      160
    ],
    "offset": [
      0.5,
      0
    ],
    "originalSize": [
      159,
      160
    ],
    "capInsets": [
      0,
      0,
      0,
      0
    ]
  }
}