{
  "__type__": "cc.SpriteFrame",
  "content": {
    "name": "game-dra-item-bg-money-coin",
    "texture": "77AiGGXoNDKbFPYEBrIokJ",
    "rect": [
      0,
      0,
      112,
      40
    ],
    "offset": [
      0,
      0
    ],
    "originalSize": [
      112,
      40
    ],
    "capInsets": [
      0,
      0,
      0,
      0
    ]
  }
}