{
  "__type__": "cc.SpriteFrame",
  "content": {
    "name": "item-egypt-14",
    "texture": "ebGaytud1G6aiJ+niwIGbe",
    "rect": [
      14,
      2,
      112,
      109
    ],
    "offset": [
      2.5,
      -1
    ],
    "originalSize": [
      135,
      111
    ],
    "capInsets": [
      0,
      0,
      0,
      0
    ]
  }
}