{
  "__type__": "sp.SkeletonData",
  "_name": "skeleton",
  "skeletonJsonStr": "{\"skeleton\":{\"hash\":\"bUnzGXUynkN9ryrl/H+cek2GCiM\",\"spine\":\"3.7.94\",\"width\":359.28,\"height\":177.1,\"images\":\"../thunder_4_ani/\",\"audio\":\"C:/Users/ADMIN/Desktop/King_of_the_north/bonus\"},\"bones\":[{\"name\":\"root\",\"x\":-608.14,\"y\":651.87},{\"name\":\"left\",\"parent\":\"root\",\"rotation\":-9.6,\"x\":520.04,\"y\":-670.6},{\"name\":\"right\",\"parent\":\"root\",\"rotation\":-37.2,\"x\":693.13,\"y\":-672.89,\"shearX\":1},{\"name\":\"left2\",\"parent\":\"root\",\"rotation\":-9.6,\"x\":520.04,\"y\":-670.6},{\"name\":\"right2\",\"parent\":\"root\",\"rotation\":-37.2,\"x\":693.13,\"y\":-672.89,\"shearX\":1}],\"slots\":[{\"name\":\"thunder_4\",\"bone\":\"left\",\"attachment\":\"3\"},{\"name\":\"thunder_6\",\"bone\":\"left2\",\"attachment\":\"3\"},{\"name\":\"thunder_5\",\"bone\":\"right\",\"attachment\":\"3\"},{\"name\":\"thunder_7\",\"bone\":\"right2\",\"attachment\":\"3\"}],\"skins\":{\"default\":{\"thunder_4\":{\"1\":{\"x\":15.28,\"y\":20.47,\"rotation\":4.8,\"width\":112,\"height\":50},\"2\":{\"x\":-0.08,\"y\":7.41,\"width\":217,\"height\":94},\"3\":{\"y\":1.76,\"width\":165,\"height\":100}},\"thunder_5\":{\"1\":{\"x\":-25.42,\"y\":-1.22,\"rotation\":9.6,\"width\":112,\"height\":50},\"2\":{\"x\":-1.91,\"y\":3.07,\"width\":217,\"height\":94},\"3\":{\"width\":165,\"height\":100}},\"thunder_6\":{\"1\":{\"x\":15.28,\"y\":20.47,\"rotation\":4.8,\"width\":112,\"height\":50},\"2\":{\"x\":-0.08,\"y\":7.41,\"width\":217,\"height\":94},\"3\":{\"y\":1.76,\"width\":165,\"height\":100}},\"thunder_7\":{\"1\":{\"x\":-25.42,\"y\":-1.22,\"rotation\":9.6,\"width\":112,\"height\":50},\"2\":{\"x\":-1.91,\"y\":3.07,\"width\":217,\"height\":94},\"3\":{\"width\":165,\"height\":100}}}},\"animations\":{\"animation\":{\"slots\":{\"thunder_4\":{\"attachment\":[{\"time\":0,\"name\":\"1\"},{\"time\":0.1667,\"name\":\"2\"},{\"time\":0.3333,\"name\":\"1\"},{\"time\":0.5,\"name\":\"3\"},{\"time\":0.6667,\"name\":\"1\"}]},\"thunder_5\":{\"attachment\":[{\"time\":0.1667,\"name\":\"2\"},{\"time\":0.3333,\"name\":\"3\"},{\"time\":0.5,\"name\":\"1\"},{\"time\":0.6667,\"name\":\"2\"},{\"time\":0.8333,\"name\":\"1\"}]},\"thunder_6\":{\"attachment\":[{\"time\":0,\"name\":\"1\"},{\"time\":0.1667,\"name\":\"2\"},{\"time\":0.3333,\"name\":\"1\"},{\"time\":0.5,\"name\":\"3\"},{\"time\":0.6667,\"name\":\"1\"}]},\"thunder_7\":{\"attachment\":[{\"time\":0.1667,\"name\":\"2\"},{\"time\":0.3333,\"name\":\"3\"},{\"time\":0.5,\"name\":\"1\"},{\"time\":0.6667,\"name\":\"2\"},{\"time\":0.8333,\"name\":\"1\"}]}},\"bones\":{\"left\":{\"rotate\":[{\"time\":0,\"angle\":0},{\"time\":0.3333,\"angle\":66},{\"time\":0.5,\"angle\":86.8},{\"time\":0.6,\"angle\":109.48},{\"time\":0.8333,\"angle\":110.4}],\"translate\":[{\"time\":0,\"x\":0,\"y\":0},{\"time\":0.1,\"x\":-119.22,\"y\":-42.31},{\"time\":0.1667,\"x\":-195.08,\"y\":-90.6},{\"time\":0.2667,\"x\":-289.74,\"y\":-211.69},{\"time\":0.3333,\"x\":-332.8,\"y\":-313.77},{\"time\":0.4,\"x\":-347.51,\"y\":-386.46},{\"time\":0.5,\"x\":-340.28,\"y\":-509.32},{\"time\":0.6,\"x\":-284.4,\"y\":-650.42},{\"time\":0.6667,\"x\":-218.77,\"y\":-739.44},{\"time\":0.8333,\"x\":-218.49,\"y\":-739.12}]},\"right\":{\"rotate\":[{\"time\":0,\"angle\":0},{\"time\":0.1667,\"angle\":-37.56},{\"time\":0.3333,\"angle\":-63.12},{\"time\":0.8333,\"angle\":-136.8}],\"translate\":[{\"time\":0,\"x\":0,\"y\":0},{\"time\":0.0667,\"x\":109.73,\"y\":-40.16},{\"time\":0.1667,\"x\":226.72,\"y\":-137.28},{\"time\":0.2333,\"x\":281.02,\"y\":-212.13},{\"time\":0.3333,\"x\":321.29,\"y\":-328.02},{\"time\":0.4333,\"x\":332.48,\"y\":-468.9},{\"time\":0.5,\"x\":316.89,\"y\":-552.04},{\"time\":0.6667,\"x\":221.79,\"y\":-712.84},{\"time\":0.7333,\"x\":179.23,\"y\":-754.24},{\"time\":0.8333,\"x\":107.96,\"y\":-796.73}]},\"left2\":{\"rotate\":[{\"time\":0,\"angle\":0},{\"time\":0.1667,\"angle\":-1.8},{\"time\":0.3333,\"angle\":42},{\"time\":0.5,\"angle\":64},{\"time\":0.5667,\"angle\":81.12},{\"time\":0.6,\"angle\":109.48},{\"time\":0.6667,\"angle\":98.94},{\"time\":0.8333,\"angle\":110.4}],\"translate\":[{\"time\":0,\"x\":0,\"y\":0},{\"time\":0.1,\"x\":-119.22,\"y\":-42.31},{\"time\":0.1667,\"x\":9.95,\"y\":3.76},{\"time\":0.2,\"x\":-88.07,\"y\":-27.3},{\"time\":0.2333,\"x\":-192.09,\"y\":-89.75},{\"time\":0.2667,\"x\":-289.74,\"y\":-211.69},{\"time\":0.3,\"x\":-266.73,\"y\":-159.22},{\"time\":0.3333,\"x\":-233,\"y\":-131.21},{\"time\":0.3667,\"x\":-306.92,\"y\":-236.56},{\"time\":0.4,\"x\":-347.51,\"y\":-386.46},{\"time\":0.4333,\"x\":-335.81,\"y\":-299.38},{\"time\":0.5,\"x\":-339.3,\"y\":-312.34},{\"time\":0.5333,\"x\":-351.11,\"y\":-413.81},{\"time\":0.5667,\"x\":-347.52,\"y\":-458.27},{\"time\":0.6,\"x\":-284.4,\"y\":-650.42},{\"time\":0.6667,\"x\":-330.4,\"y\":-550.93},{\"time\":0.8333,\"x\":-218.49,\"y\":-739.12}]},\"right2\":{\"rotate\":[{\"time\":0,\"angle\":0},{\"time\":0.1667,\"angle\":-19.56},{\"time\":0.3333,\"angle\":-36.72},{\"time\":0.8333,\"angle\":-127.2}],\"translate\":[{\"time\":0,\"x\":0,\"y\":0},{\"time\":0.0667,\"x\":33.77,\"y\":-8.8},{\"time\":0.1667,\"x\":75.17,\"y\":-31.24},{\"time\":0.2333,\"x\":145.94,\"y\":-69.84},{\"time\":0.3333,\"x\":229.39,\"y\":-139.01},{\"time\":0.4333,\"x\":314.19,\"y\":-307.86},{\"time\":0.5,\"x\":333.14,\"y\":-419.11},{\"time\":0.6667,\"x\":297.3,\"y\":-578.16},{\"time\":0.7333,\"x\":264.83,\"y\":-648.41},{\"time\":0.8333,\"x\":157.07,\"y\":-759.23}]}}}}}",
  "_skeletonJson": {
    "skeleton": {
      "hash": "bUnzGXUynkN9ryrl/H+cek2GCiM",
      "spine": "3.7.94",
      "width": 359.28,
      "height": 177.1,
      "images": "../thunder_4_ani/",
      "audio": "C:/Users/ADMIN/Desktop/King_of_the_north/bonus"
    },
    "bones": [
      {
        "name": "root",
        "x": -608.14,
        "y": 651.87
      },
      {
        "name": "left",
        "parent": "root",
        "rotation": -9.6,
        "x": 520.04,
        "y": -670.6
      },
      {
        "name": "right",
        "parent": "root",
        "rotation": -37.2,
        "x": 693.13,
        "y": -672.89,
        "shearX": 1
      },
      {
        "name": "left2",
        "parent": "root",
        "rotation": -9.6,
        "x": 520.04,
        "y": -670.6
      },
      {
        "name": "right2",
        "parent": "root",
        "rotation": -37.2,
        "x": 693.13,
        "y": -672.89,
        "shearX": 1
      }
    ],
    "slots": [
      {
        "name": "thunder_4",
        "bone": "left",
        "attachment": "3"
      },
      {
        "name": "thunder_6",
        "bone": "left2",
        "attachment": "3"
      },
      {
        "name": "thunder_5",
        "bone": "right",
        "attachment": "3"
      },
      {
        "name": "thunder_7",
        "bone": "right2",
        "attachment": "3"
      }
    ],
    "skins": {
      "default": {
        "thunder_4": {
          "1": {
            "x": 15.28,
            "y": 20.47,
            "rotation": 4.8,
            "width": 112,
            "height": 50
          },
          "2": {
            "x": -0.08,
            "y": 7.41,
            "width": 217,
            "height": 94
          },
          "3": {
            "y": 1.76,
            "width": 165,
            "height": 100
          }
        },
        "thunder_5": {
          "1": {
            "x": -25.42,
            "y": -1.22,
            "rotation": 9.6,
            "width": 112,
            "height": 50
          },
          "2": {
            "x": -1.91,
            "y": 3.07,
            "width": 217,
            "height": 94
          },
          "3": {
            "width": 165,
            "height": 100
          }
        },
        "thunder_6": {
          "1": {
            "x": 15.28,
            "y": 20.47,
            "rotation": 4.8,
            "width": 112,
            "height": 50
          },
          "2": {
            "x": -0.08,
            "y": 7.41,
            "width": 217,
            "height": 94
          },
          "3": {
            "y": 1.76,
            "width": 165,
            "height": 100
          }
        },
        "thunder_7": {
          "1": {
            "x": -25.42,
            "y": -1.22,
            "rotation": 9.6,
            "width": 112,
            "height": 50
          },
          "2": {
            "x": -1.91,
            "y": 3.07,
            "width": 217,
            "height": 94
          },
          "3": {
            "width": 165,
            "height": 100
          }
        }
      }
    },
    "animations": {
      "animation": {
        "slots": {
          "thunder_4": {
            "attachment": [
              {
                "time": 0,
                "name": "1"
              },
              {
                "time": 0.1667,
                "name": "2"
              },
              {
                "time": 0.3333,
                "name": "1"
              },
              {
                "time": 0.5,
                "name": "3"
              },
              {
                "time": 0.6667,
                "name": "1"
              }
            ]
          },
          "thunder_5": {
            "attachment": [
              {
                "time": 0.1667,
                "name": "2"
              },
              {
                "time": 0.3333,
                "name": "3"
              },
              {
                "time": 0.5,
                "name": "1"
              },
              {
                "time": 0.6667,
                "name": "2"
              },
              {
                "time": 0.8333,
                "name": "1"
              }
            ]
          },
          "thunder_6": {
            "attachment": [
              {
                "time": 0,
                "name": "1"
              },
              {
                "time": 0.1667,
                "name": "2"
              },
              {
                "time": 0.3333,
                "name": "1"
              },
              {
                "time": 0.5,
                "name": "3"
              },
              {
                "time": 0.6667,
                "name": "1"
              }
            ]
          },
          "thunder_7": {
            "attachment": [
              {
                "time": 0.1667,
                "name": "2"
              },
              {
                "time": 0.3333,
                "name": "3"
              },
              {
                "time": 0.5,
                "name": "1"
              },
              {
                "time": 0.6667,
                "name": "2"
              },
              {
                "time": 0.8333,
                "name": "1"
              }
            ]
          }
        },
        "bones": {
          "left": {
            "rotate": [
              {
                "time": 0,
                "angle": 0
              },
              {
                "time": 0.3333,
                "angle": 66
              },
              {
                "time": 0.5,
                "angle": 86.8
              },
              {
                "time": 0.6,
                "angle": 109.48
              },
              {
                "time": 0.8333,
                "angle": 110.4
              }
            ],
            "translate": [
              {
                "time": 0,
                "x": 0,
                "y": 0
              },
              {
                "time": 0.1,
                "x": -119.22,
                "y": -42.31
              },
              {
                "time": 0.1667,
                "x": -195.08,
                "y": -90.6
              },
              {
                "time": 0.2667,
                "x": -289.74,
                "y": -211.69
              },
              {
                "time": 0.3333,
                "x": -332.8,
                "y": -313.77
              },
              {
                "time": 0.4,
                "x": -347.51,
                "y": -386.46
              },
              {
                "time": 0.5,
                "x": -340.28,
                "y": -509.32
              },
              {
                "time": 0.6,
                "x": -284.4,
                "y": -650.42
              },
              {
                "time": 0.6667,
                "x": -218.77,
                "y": -739.44
              },
              {
                "time": 0.8333,
                "x": -218.49,
                "y": -739.12
              }
            ]
          },
          "right": {
            "rotate": [
              {
                "time": 0,
                "angle": 0
              },
              {
                "time": 0.1667,
                "angle": -37.56
              },
              {
                "time": 0.3333,
                "angle": -63.12
              },
              {
                "time": 0.8333,
                "angle": -136.8
              }
            ],
            "translate": [
              {
                "time": 0,
                "x": 0,
                "y": 0
              },
              {
                "time": 0.0667,
                "x": 109.73,
                "y": -40.16
              },
              {
                "time": 0.1667,
                "x": 226.72,
                "y": -137.28
              },
              {
                "time": 0.2333,
                "x": 281.02,
                "y": -212.13
              },
              {
                "time": 0.3333,
                "x": 321.29,
                "y": -328.02
              },
              {
                "time": 0.4333,
                "x": 332.48,
                "y": -468.9
              },
              {
                "time": 0.5,
                "x": 316.89,
                "y": -552.04
              },
              {
                "time": 0.6667,
                "x": 221.79,
                "y": -712.84
              },
              {
                "time": 0.7333,
                "x": 179.23,
                "y": -754.24
              },
              {
                "time": 0.8333,
                "x": 107.96,
                "y": -796.73
              }
            ]
          },
          "left2": {
            "rotate": [
              {
                "time": 0,
                "angle": 0
              },
              {
                "time": 0.1667,
                "angle": -1.8
              },
              {
                "time": 0.3333,
                "angle": 42
              },
              {
                "time": 0.5,
                "angle": 64
              },
              {
                "time": 0.5667,
                "angle": 81.12
              },
              {
                "time": 0.6,
                "angle": 109.48
              },
              {
                "time": 0.6667,
                "angle": 98.94
              },
              {
                "time": 0.8333,
                "angle": 110.4
              }
            ],
            "translate": [
              {
                "time": 0,
                "x": 0,
                "y": 0
              },
              {
                "time": 0.1,
                "x": -119.22,
                "y": -42.31
              },
              {
                "time": 0.1667,
                "x": 9.95,
                "y": 3.76
              },
              {
                "time": 0.2,
                "x": -88.07,
                "y": -27.3
              },
              {
                "time": 0.2333,
                "x": -192.09,
                "y": -89.75
              },
              {
                "time": 0.2667,
                "x": -289.74,
                "y": -211.69
              },
              {
                "time": 0.3,
                "x": -266.73,
                "y": -159.22
              },
              {
                "time": 0.3333,
                "x": -233,
                "y": -131.21
              },
              {
                "time": 0.3667,
                "x": -306.92,
                "y": -236.56
              },
              {
                "time": 0.4,
                "x": -347.51,
                "y": -386.46
              },
              {
                "time": 0.4333,
                "x": -335.81,
                "y": -299.38
              },
              {
                "time": 0.5,
                "x": -339.3,
                "y": -312.34
              },
              {
                "time": 0.5333,
                "x": -351.11,
                "y": -413.81
              },
              {
                "time": 0.5667,
                "x": -347.52,
                "y": -458.27
              },
              {
                "time": 0.6,
                "x": -284.4,
                "y": -650.42
              },
              {
                "time": 0.6667,
                "x": -330.4,
                "y": -550.93
              },
              {
                "time": 0.8333,
                "x": -218.49,
                "y": -739.12
              }
            ]
          },
          "right2": {
            "rotate": [
              {
                "time": 0,
                "angle": 0
              },
              {
                "time": 0.1667,
                "angle": -19.56
              },
              {
                "time": 0.3333,
                "angle": -36.72
              },
              {
                "time": 0.8333,
                "angle": -127.2
              }
            ],
            "translate": [
              {
                "time": 0,
                "x": 0,
                "y": 0
              },
              {
                "time": 0.0667,
                "x": 33.77,
                "y": -8.8
              },
              {
                "time": 0.1667,
                "x": 75.17,
                "y": -31.24
              },
              {
                "time": 0.2333,
                "x": 145.94,
                "y": -69.84
              },
              {
                "time": 0.3333,
                "x": 229.39,
                "y": -139.01
              },
              {
                "time": 0.4333,
                "x": 314.19,
                "y": -307.86
              },
              {
                "time": 0.5,
                "x": 333.14,
                "y": -419.11
              },
              {
                "time": 0.6667,
                "x": 297.3,
                "y": -578.16
              },
              {
                "time": 0.7333,
                "x": 264.83,
                "y": -648.41
              },
              {
                "time": 0.8333,
                "x": 157.07,
                "y": -759.23
              }
            ]
          }
        }
      }
    }
  },
  "_atlasText": "\nskeleton.png\nsize: 256,64\nformat: RGBA8888\nfilter: Linear,Linear\nrepeat: none\n1\n  rotate: false\n  xy: 198, 27\n  size: 56, 25\n  orig: 56, 25\n  offset: 0, 0\n  index: -1\n2\n  rotate: false\n  xy: 2, 5\n  size: 109, 47\n  orig: 109, 47\n  offset: 0, 0\n  index: -1\n3\n  rotate: false\n  xy: 113, 2\n  size: 83, 50\n  orig: 83, 50\n  offset: 0, 0\n  index: -1\n",
  "textures": [
    {
      "__uuid__": "28BbjPttZGRZ1yhTkl0Atq"
    }
  ],
  "textureNames": [
    "skeleton.png"
  ]
}