{
  "__type__": "cc.SpriteFrame",
  "content": {
    "name": "item-casino-scatter",
    "texture": "5cr1Tl5mFOxqO6tLlGNKnN",
    "rect": [
      5,
      1,
      154,
      135
    ],
    "offset": [
      -0.5,
      -0.5
    ],
    "originalSize": [
      165,
      136
    ],
    "capInsets": [
      0,
      0,
      0,
      0
    ]
  }
}