{
  "__type__": "cc.SpriteFrame",
  "content": {
    "name": "select-bet-play-item-1",
    "texture": "c02yiOSE1B8qlJK4SLQjeG",
    "rect": [
      0,
      0,
      176,
      76
    ],
    "offset": [
      0,
      0
    ],
    "originalSize": [
      176,
      76
    ],
    "capInsets": [
      0,
      0,
      0,
      0
    ]
  }
}