{
  "__type__": "cc.AnimationClip",
  "_name": "ZoomItem",
  "_duration": 1.25,
  "wrapMode": "0",
  "curveData": {
    "props": {
      "scale": [
        {
          "frame": 0,
          "value": {
            "__type__": "cc.Vec2",
            "x": 1,
            "y": 1
          }
        },
        {
          "frame": 0.25,
          "value": {
            "__type__": "cc.Vec2",
            "x": 1.6,
            "y": 1.6
          }
        },
        {
          "frame": 0.5,
          "value": {
            "__type__": "cc.Vec2",
            "x": 1,
            "y": 1
          }
        },
        {
          "frame": 0.75,
          "value": {
            "__type__": "cc.Vec2",
            "x": 1.4,
            "y": 1.4
          }
        },
        {
          "frame": 1.25,
          "value": {
            "__type__": "cc.Vec2",
            "x": 1,
            "y": 1
          }
        },
        {
          "frame": 1.5,
          "value": {
            "__type__": "cc.Vec2",
            "x": 1,
            "y": 1
          }
        }
      ]
    }
  }
}