{
  "__type__": "cc.SpriteFrame",
  "content": {
    "name": "power_reels_lock_1",
    "texture": "e7zgwuDH1DiaQMzvkvu7I/",
    "rect": [
      1,
      2,
      68,
      36
    ],
    "offset": [
      0.5,
      -1
    ],
    "originalSize": [
      69,
      38
    ],
    "capInsets": [
      0,
      0,
      0,
      0
    ]
  }
}