{
  "__type__": "cc.SpriteFrame",
  "content": {
    "name": "bg-coin-deal",
    "texture": "65EtOIoFVL4bL/XOVRFb3f",
    "rect": [
      0,
      0,
      257,
      64
    ],
    "offset": [
      0,
      0
    ],
    "originalSize": [
      257,
      64
    ],
    "capInsets": [
      0,
      0,
      0,
      0
    ]
  }
}