{
  "__type__": "cc.SpriteFrame",
  "content": {
    "name": "game-dra-item-freespin-2",
    "texture": "4e8W41F2RFYplOHhOa8Zw/",
    "rect": [
      0,
      0,
      151,
      127
    ],
    "offset": [
      0,
      0
    ],
    "originalSize": [
      151,
      127
    ],
    "capInsets": [
      0,
      0,
      0,
      0
    ]
  }
}