{
  "__type__": "cc.SpriteFrame",
  "content": {
    "name": "free_spins_txt",
    "texture": "37nUtLOXZB1I9L8XgzvMNh",
    "rect": [
      3,
      0,
      665,
      315
    ],
    "offset": [
      -1,
      5.5
    ],
    "originalSize": [
      673,
      326
    ],
    "capInsets": [
      0,
      0,
      0,
      0
    ]
  }
}