[
  {
    "__type__": "cc.SpriteFrame",
    "content": {
      "name": "font",
      "texture": "d0JaosdIdDUocGODPcMGHr",
      "rect": [
        2,
        2,
        284,
        508
      ],
      "offset": [
        0,
        0
      ],
      "originalSize": [
        288,
        512
      ],
      "capInsets": [
        0,
        0,
        0,
        0
      ]
    }
  },
  {
    "__type__": "cc.BitmapFont",
    "_name": "font",
    "spriteFrame": {
      "__uuid__": "08+xXqvs1MUq/dIBFqvUzw"
    },
    "fontSize": 50,
    "_fntConfig": {
      "commonHeight": 59,
      "fontSize": 50,
      "atlasName": "font.png",
      "fontDefDictionary": {
        "32": {
          "rect": {
            "x": 0,
            "y": 0,
            "width": 0,
            "height": 0
          },
          "xOffset": 0,
          "yOffset": 42,
          "xAdvance": 12
        },
        "33": {
          "rect": {
            "x": 115,
            "y": 205,
            "width": 13,
            "height": 40
          },
          "xOffset": 3,
          "yOffset": 6,
          "xAdvance": 14
        },
        "34": {
          "rect": {
            "x": 115,
            "y": 45,
            "width": 19,
            "height": 18
          },
          "xOffset": 1,
          "yOffset": 4,
          "xAdvance": 16
        },
        "35": {
          "rect": {
            "x": 173,
            "y": 44,
            "width": 32,
            "height": 40
          },
          "xOffset": 1,
          "yOffset": 6,
          "xAdvance": 29
        },
        "36": {
          "rect": {
            "x": 182,
            "y": 187,
            "width": 29,
            "height": 51
          },
          "xOffset": 2,
          "yOffset": 1,
          "xAdvance": 29
        },
        "37": {
          "rect": {
            "x": 162,
            "y": 247,
            "width": 37,
            "height": 41
          },
          "xOffset": 2,
          "yOffset": 6,
          "xAdvance": 37
        },
        "38": {
          "rect": {
            "x": 177,
            "y": 86,
            "width": 36,
            "height": 41
          },
          "xOffset": 1,
          "yOffset": 6,
          "xAdvance": 34
        },
        "39": {
          "rect": {
            "x": 23,
            "y": 484,
            "width": 10,
            "height": 18
          },
          "xOffset": 1,
          "yOffset": 4,
          "xAdvance": 8
        },
        "40": {
          "rect": {
            "x": 139,
            "y": 441,
            "width": 18,
            "height": 55
          },
          "xOffset": 3,
          "yOffset": 2,
          "xAdvance": 18
        },
        "41": {
          "rect": {
            "x": 145,
            "y": 87,
            "width": 19,
            "height": 54
          },
          "xOffset": 1,
          "yOffset": 2,
          "xAdvance": 18
        },
        "42": {
          "rect": {
            "x": 49,
            "y": 214,
            "width": 27,
            "height": 26
          },
          "xOffset": 1,
          "yOffset": 6,
          "xAdvance": 23
        },
        "43": {
          "rect": {
            "x": 155,
            "y": 398,
            "width": 29,
            "height": 30
          },
          "xOffset": 1,
          "yOffset": 12,
          "xAdvance": 27
        },
        "44": {
          "rect": {
            "x": 146,
            "y": 290,
            "width": 14,
            "height": 20
          },
          "xOffset": 1,
          "yOffset": 35,
          "xAdvance": 13
        },
        "45": {
          "rect": {
            "x": 2,
            "y": 498,
            "width": 19,
            "height": 11
          },
          "xOffset": 4,
          "yOffset": 23,
          "xAdvance": 22
        },
        "46": {
          "rect": {
            "x": 63,
            "y": 122,
            "width": 13,
            "height": 13
          },
          "xOffset": 3,
          "yOffset": 34,
          "xAdvance": 15
        },
        "47": {
          "rect": {
            "x": 148,
            "y": 143,
            "width": 22,
            "height": 43
          },
          "xOffset": -1,
          "yOffset": 6,
          "xAdvance": 18
        },
        "48": {
          "rect": {
            "x": 201,
            "y": 240,
            "width": 29,
            "height": 41
          },
          "xOffset": 2,
          "yOffset": 6,
          "xAdvance": 29
        },
        "49": {
          "rect": {
            "x": 213,
            "y": 187,
            "width": 21,
            "height": 40
          },
          "xOffset": 4,
          "yOffset": 6,
          "xAdvance": 29
        },
        "50": {
          "rect": {
            "x": 215,
            "y": 59,
            "width": 30,
            "height": 40
          },
          "xOffset": 1,
          "yOffset": 6,
          "xAdvance": 29
        },
        "51": {
          "rect": {
            "x": 224,
            "y": 2,
            "width": 30,
            "height": 41
          },
          "xOffset": 1,
          "yOffset": 6,
          "xAdvance": 29
        },
        "52": {
          "rect": {
            "x": 220,
            "y": 101,
            "width": 30,
            "height": 40
          },
          "xOffset": 1,
          "yOffset": 6,
          "xAdvance": 29
        },
        "53": {
          "rect": {
            "x": 220,
            "y": 143,
            "width": 29,
            "height": 40
          },
          "xOffset": 2,
          "yOffset": 6,
          "xAdvance": 29
        },
        "54": {
          "rect": {
            "x": 247,
            "y": 45,
            "width": 30,
            "height": 41
          },
          "xOffset": 2,
          "yOffset": 6,
          "xAdvance": 29
        },
        "55": {
          "rect": {
            "x": 256,
            "y": 2,
            "width": 30,
            "height": 40
          },
          "xOffset": 1,
          "yOffset": 6,
          "xAdvance": 29
        },
        "56": {
          "rect": {
            "x": 201,
            "y": 413,
            "width": 29,
            "height": 41
          },
          "xOffset": 2,
          "yOffset": 6,
          "xAdvance": 29
        },
        "57": {
          "rect": {
            "x": 201,
            "y": 456,
            "width": 29,
            "height": 41
          },
          "xOffset": 2,
          "yOffset": 6,
          "xAdvance": 29
        },
        "58": {
          "rect": {
            "x": 100,
            "y": 45,
            "width": 13,
            "height": 32
          },
          "xOffset": 3,
          "yOffset": 14,
          "xAdvance": 15
        },
        "59": {
          "rect": {
            "x": 146,
            "y": 247,
            "width": 14,
            "height": 41
          },
          "xOffset": 2,
          "yOffset": 14,
          "xAdvance": 14
        },
        "61": {
          "rect": {
            "x": 181,
            "y": 333,
            "width": 27,
            "height": 21
          },
          "xOffset": 3,
          "yOffset": 18,
          "xAdvance": 29
        },
        "63": {
          "rect": {
            "x": 181,
            "y": 290,
            "width": 27,
            "height": 41
          },
          "xOffset": 1,
          "yOffset": 6,
          "xAdvance": 25
        },
        "64": {
          "rect": {
            "x": 172,
            "y": 135,
            "width": 46,
            "height": 50
          },
          "xOffset": 1,
          "yOffset": 7,
          "xAdvance": 45
        },
        "65": {
          "rect": {
            "x": 2,
            "y": 400,
            "width": 38,
            "height": 40
          },
          "xOffset": 0,
          "yOffset": 6,
          "xAdvance": 34
        },
        "66": {
          "rect": {
            "x": 2,
            "y": 442,
            "width": 32,
            "height": 40
          },
          "xOffset": 3,
          "yOffset": 6,
          "xAdvance": 32
        },
        "67": {
          "rect": {
            "x": 36,
            "y": 442,
            "width": 34,
            "height": 41
          },
          "xOffset": 2,
          "yOffset": 6,
          "xAdvance": 33
        },
        "68": {
          "rect": {
            "x": 42,
            "y": 362,
            "width": 32,
            "height": 40
          },
          "xOffset": 3,
          "yOffset": 6,
          "xAdvance": 32
        },
        "69": {
          "rect": {
            "x": 65,
            "y": 319,
            "width": 29,
            "height": 40
          },
          "xOffset": 3,
          "yOffset": 6,
          "xAdvance": 28
        },
        "70": {
          "rect": {
            "x": 72,
            "y": 404,
            "width": 28,
            "height": 40
          },
          "xOffset": 3,
          "yOffset": 6,
          "xAdvance": 27
        },
        "71": {
          "rect": {
            "x": 76,
            "y": 361,
            "width": 34,
            "height": 41
          },
          "xOffset": 2,
          "yOffset": 6,
          "xAdvance": 34
        },
        "72": {
          "rect": {
            "x": 72,
            "y": 446,
            "width": 34,
            "height": 40
          },
          "xOffset": 3,
          "yOffset": 6,
          "xAdvance": 35
        },
        "73": {
          "rect": {
            "x": 102,
            "y": 404,
            "width": 13,
            "height": 40
          },
          "xOffset": 3,
          "yOffset": 6,
          "xAdvance": 15
        },
        "74": {
          "rect": {
            "x": 108,
            "y": 446,
            "width": 29,
            "height": 40
          },
          "xOffset": 1,
          "yOffset": 6,
          "xAdvance": 28
        },
        "75": {
          "rect": {
            "x": 78,
            "y": 181,
            "width": 34,
            "height": 40
          },
          "xOffset": 3,
          "yOffset": 6,
          "xAdvance": 32
        },
        "76": {
          "rect": {
            "x": 79,
            "y": 122,
            "width": 28,
            "height": 40
          },
          "xOffset": 3,
          "yOffset": 6,
          "xAdvance": 27
        },
        "77": {
          "rect": {
            "x": 94,
            "y": 79,
            "width": 43,
            "height": 40
          },
          "xOffset": 3,
          "yOffset": 6,
          "xAdvance": 44
        },
        "78": {
          "rect": {
            "x": 109,
            "y": 121,
            "width": 34,
            "height": 40
          },
          "xOffset": 3,
          "yOffset": 6,
          "xAdvance": 35
        },
        "79": {
          "rect": {
            "x": 119,
            "y": 2,
            "width": 35,
            "height": 41
          },
          "xOffset": 2,
          "yOffset": 6,
          "xAdvance": 35
        },
        "80": {
          "rect": {
            "x": 139,
            "y": 45,
            "width": 32,
            "height": 40
          },
          "xOffset": 3,
          "yOffset": 6,
          "xAdvance": 33
        },
        "81": {
          "rect": {
            "x": 78,
            "y": 223,
            "width": 35,
            "height": 47
          },
          "xOffset": 2,
          "yOffset": 6,
          "xAdvance": 35
        },
        "82": {
          "rect": {
            "x": 156,
            "y": 2,
            "width": 33,
            "height": 40
          },
          "xOffset": 3,
          "yOffset": 6,
          "xAdvance": 33
        },
        "83": {
          "rect": {
            "x": 78,
            "y": 272,
            "width": 32,
            "height": 41
          },
          "xOffset": 2,
          "yOffset": 6,
          "xAdvance": 31
        },
        "84": {
          "rect": {
            "x": 96,
            "y": 315,
            "width": 34,
            "height": 40
          },
          "xOffset": 1,
          "yOffset": 6,
          "xAdvance": 32
        },
        "85": {
          "rect": {
            "x": 112,
            "y": 272,
            "width": 32,
            "height": 40
          },
          "xOffset": 3,
          "yOffset": 6,
          "xAdvance": 33
        },
        "86": {
          "rect": {
            "x": 112,
            "y": 357,
            "width": 38,
            "height": 40
          },
          "xOffset": 0,
          "yOffset": 6,
          "xAdvance": 33
        },
        "87": {
          "rect": {
            "x": 132,
            "y": 314,
            "width": 47,
            "height": 40
          },
          "xOffset": 1,
          "yOffset": 6,
          "xAdvance": 43
        },
        "88": {
          "rect": {
            "x": 117,
            "y": 399,
            "width": 36,
            "height": 40
          },
          "xOffset": 0,
          "yOffset": 6,
          "xAdvance": 32
        },
        "89": {
          "rect": {
            "x": 152,
            "y": 356,
            "width": 36,
            "height": 40
          },
          "xOffset": 0,
          "yOffset": 6,
          "xAdvance": 31
        },
        "90": {
          "rect": {
            "x": 114,
            "y": 163,
            "width": 32,
            "height": 40
          },
          "xOffset": 2,
          "yOffset": 6,
          "xAdvance": 30
        },
        "91": {
          "rect": {
            "x": 190,
            "y": 356,
            "width": 15,
            "height": 55
          },
          "xOffset": 3,
          "yOffset": 0,
          "xAdvance": 14
        },
        "93": {
          "rect": {
            "x": 207,
            "y": 2,
            "width": 15,
            "height": 55
          },
          "xOffset": 0,
          "yOffset": 0,
          "xAdvance": 14
        },
        "94": {
          "rect": {
            "x": 35,
            "y": 488,
            "width": 25,
            "height": 22
          },
          "xOffset": 1,
          "yOffset": 6,
          "xAdvance": 22
        },
        "95": {
          "rect": {
            "x": 42,
            "y": 404,
            "width": 26,
            "height": 10
          },
          "xOffset": 0,
          "yOffset": 42,
          "xAdvance": 22
        },
        "97": {
          "rect": {
            "x": 2,
            "y": 2,
            "width": 29,
            "height": 32
          },
          "xOffset": 1,
          "yOffset": 15,
          "xAdvance": 27
        },
        "98": {
          "rect": {
            "x": 2,
            "y": 36,
            "width": 29,
            "height": 42
          },
          "xOffset": 2,
          "yOffset": 4,
          "xAdvance": 28
        },
        "99": {
          "rect": {
            "x": 2,
            "y": 80,
            "width": 28,
            "height": 32
          },
          "xOffset": 1,
          "yOffset": 15,
          "xAdvance": 26
        },
        "100": {
          "rect": {
            "x": 2,
            "y": 114,
            "width": 29,
            "height": 42
          },
          "xOffset": 1,
          "yOffset": 4,
          "xAdvance": 28
        },
        "101": {
          "rect": {
            "x": 32,
            "y": 80,
            "width": 29,
            "height": 32
          },
          "xOffset": 1,
          "yOffset": 15,
          "xAdvance": 27
        },
        "102": {
          "rect": {
            "x": 33,
            "y": 2,
            "width": 22,
            "height": 42
          },
          "xOffset": 0,
          "yOffset": 4,
          "xAdvance": 18
        },
        "103": {
          "rect": {
            "x": 57,
            "y": 2,
            "width": 29,
            "height": 42
          },
          "xOffset": 1,
          "yOffset": 15,
          "xAdvance": 29
        },
        "104": {
          "rect": {
            "x": 2,
            "y": 158,
            "width": 28,
            "height": 42
          },
          "xOffset": 2,
          "yOffset": 4,
          "xAdvance": 28
        },
        "105": {
          "rect": {
            "x": 2,
            "y": 202,
            "width": 13,
            "height": 42
          },
          "xOffset": 2,
          "yOffset": 4,
          "xAdvance": 14
        },
        "106": {
          "rect": {
            "x": 2,
            "y": 246,
            "width": 19,
            "height": 52
          },
          "xOffset": -3,
          "yOffset": 4,
          "xAdvance": 14
        },
        "107": {
          "rect": {
            "x": 17,
            "y": 202,
            "width": 30,
            "height": 42
          },
          "xOffset": 2,
          "yOffset": 4,
          "xAdvance": 27
        },
        "108": {
          "rect": {
            "x": 32,
            "y": 158,
            "width": 13,
            "height": 42
          },
          "xOffset": 3,
          "yOffset": 4,
          "xAdvance": 14
        },
        "109": {
          "rect": {
            "x": 33,
            "y": 46,
            "width": 43,
            "height": 31
          },
          "xOffset": 2,
          "yOffset": 15,
          "xAdvance": 43
        },
        "110": {
          "rect": {
            "x": 33,
            "y": 114,
            "width": 28,
            "height": 31
          },
          "xOffset": 2,
          "yOffset": 15,
          "xAdvance": 28
        },
        "111": {
          "rect": {
            "x": 47,
            "y": 147,
            "width": 30,
            "height": 32
          },
          "xOffset": 1,
          "yOffset": 15,
          "xAdvance": 28
        },
        "112": {
          "rect": {
            "x": 63,
            "y": 79,
            "width": 29,
            "height": 41
          },
          "xOffset": 2,
          "yOffset": 15,
          "xAdvance": 28
        },
        "113": {
          "rect": {
            "x": 88,
            "y": 2,
            "width": 29,
            "height": 41
          },
          "xOffset": 1,
          "yOffset": 15,
          "xAdvance": 28
        },
        "114": {
          "rect": {
            "x": 78,
            "y": 46,
            "width": 20,
            "height": 31
          },
          "xOffset": 2,
          "yOffset": 15,
          "xAdvance": 19
        },
        "115": {
          "rect": {
            "x": 2,
            "y": 300,
            "width": 28,
            "height": 32
          },
          "xOffset": 1,
          "yOffset": 15,
          "xAdvance": 26
        },
        "116": {
          "rect": {
            "x": 23,
            "y": 246,
            "width": 21,
            "height": 38
          },
          "xOffset": 0,
          "yOffset": 9,
          "xAdvance": 17
        },
        "117": {
          "rect": {
            "x": 2,
            "y": 334,
            "width": 28,
            "height": 31
          },
          "xOffset": 2,
          "yOffset": 15,
          "xAdvance": 28
        },
        "118": {
          "rect": {
            "x": 2,
            "y": 367,
            "width": 30,
            "height": 31
          },
          "xOffset": 0,
          "yOffset": 15,
          "xAdvance": 26
        },
        "119": {
          "rect": {
            "x": 32,
            "y": 286,
            "width": 39,
            "height": 31
          },
          "xOffset": 1,
          "yOffset": 15,
          "xAdvance": 36
        },
        "120": {
          "rect": {
            "x": 46,
            "y": 246,
            "width": 30,
            "height": 31
          },
          "xOffset": 0,
          "yOffset": 15,
          "xAdvance": 26
        },
        "121": {
          "rect": {
            "x": 32,
            "y": 319,
            "width": 31,
            "height": 41
          },
          "xOffset": 0,
          "yOffset": 15,
          "xAdvance": 26
        },
        "122": {
          "rect": {
            "x": 49,
            "y": 181,
            "width": 27,
            "height": 31
          },
          "xOffset": 2,
          "yOffset": 15,
          "xAdvance": 26
        },
        "123": {
          "rect": {
            "x": 159,
            "y": 430,
            "width": 19,
            "height": 52
          },
          "xOffset": 1,
          "yOffset": 3,
          "xAdvance": 16
        },
        "124": {
          "rect": {
            "x": 166,
            "y": 87,
            "width": 9,
            "height": 46
          },
          "xOffset": 4,
          "yOffset": 6,
          "xAdvance": 13
        },
        "125": {
          "rect": {
            "x": 180,
            "y": 430,
            "width": 19,
            "height": 52
          },
          "xOffset": 1,
          "yOffset": 3,
          "xAdvance": 16
        },
        "8470": {
          "rect": {
            "x": 130,
            "y": 205,
            "width": 50,
            "height": 40
          },
          "xOffset": 3,
          "yOffset": 6,
          "xAdvance": 50
        }
      },
      "kerningDict": {}
    }
  }
]