{
  "__type__": "cc.SpriteFrame",
  "content": {
    "name": "bingo",
    "texture": "75/UuM3UdJaISwz7F8AtAg",
    "rect": [
      0,
      0,
      170,
      94
    ],
    "offset": [
      0,
      0
    ],
    "originalSize": [
      170,
      94
    ],
    "capInsets": [
      0,
      0,
      0,
      0
    ]
  }
}