{
  "__type__": "cc.SpriteFrame",
  "content": {
    "name": "btn-bet-down",
    "texture": "518or4kNRFrJWMz/ccgXbh",
    "rect": [
      0,
      0,
      76,
      76
    ],
    "offset": [
      0,
      0
    ],
    "originalSize": [
      76,
      76
    ],
    "capInsets": [
      0,
      0,
      0,
      0
    ]
  }
}