{
  "__type__": "cc.SpriteFrame",
  "content": {
    "name": "scatter_shields_txt",
    "texture": "2bBtffXNJG8ZeKAZjWbchM",
    "rect": [
      5,
      3,
      752,
      331
    ],
    "offset": [
      0,
      -0.5
    ],
    "originalSize": [
      762,
      336
    ],
    "capInsets": [
      0,
      0,
      0,
      0
    ]
  }
}