{
  "__type__": "cc.SpriteFrame",
  "content": {
    "name": "gem_minigame_bonus_item_white_09",
    "texture": "49nlgrpKVBvpd9FeAc2Um2",
    "rect": [
      0,
      0,
      200,
      222
    ],
    "offset": [
      0,
      0
    ],
    "originalSize": [
      200,
      222
    ],
    "capInsets": [
      0,
      0,
      0,
      0
    ]
  }
}