{
  "__type__": "cc.SpriteFrame",
  "content": {
    "name": "game-3-select-bet",
    "texture": "1bWPwVWeNBMLH0o9DggUQv",
    "rect": [
      0,
      0,
      1280,
      720
    ],
    "offset": [
      0,
      0
    ],
    "originalSize": [
      1280,
      720
    ],
    "capInsets": [
      0,
      0,
      0,
      0
    ]
  }
}