{
  "__type__": "cc.SpriteFrame",
  "content": {
    "name": "bg-noti-menu",
    "texture": "181382b81",
    "rect": [
      192,
      988,
      24,
      24
    ],
    "offset": [
      0,
      0
    ],
    "originalSize": [
      24,
      24
    ],
    "capInsets": [
      0,
      0,
      0,
      0
    ]
  }
}