{
  "__type__": "cc.SpriteFrame",
  "content": {
    "name": "select-bet-5-of-kind",
    "texture": "62LD1XeLtCQJj72Wv3GCqX",
    "rect": [
      0,
      0,
      196,
      243
    ],
    "offset": [
      0,
      0
    ],
    "originalSize": [
      196,
      243
    ],
    "capInsets": [
      0,
      0,
      0,
      0
    ]
  }
}