{
  "__type__": "cc.SpriteFrame",
  "content": {
    "name": "dragon-bonus-bg-monney",
    "texture": "71LTdpz+9LFq6w31NfrX88",
    "rect": [
      0,
      0,
      631,
      159
    ],
    "offset": [
      0,
      0
    ],
    "originalSize": [
      631,
      159
    ],
    "capInsets": [
      0,
      0,
      0,
      0
    ]
  }
}