{
  "__type__": "cc.SpriteFrame",
  "content": {
    "name": "casino-slot-coin-mini",
    "texture": "7aROZK60ZHFKiW+x5MZ4Lo",
    "rect": [
      0,
      0,
      148,
      148
    ],
    "offset": [
      0,
      0
    ],
    "originalSize": [
      148,
      148
    ],
    "capInsets": [
      0,
      0,
      0,
      0
    ]
  }
}