{
  "__type__": "cc.SpriteFrame",
  "content": {
    "name": "bg_game_02",
    "texture": "57pzRxz0tDvJ3P7vs6x6SV",
    "rect": [
      0,
      0,
      1279,
      720
    ],
    "offset": [
      0,
      0
    ],
    "originalSize": [
      1279,
      720
    ],
    "capInsets": [
      0,
      0,
      0,
      0
    ]
  }
}