{
  "__type__": "cc.SpriteFrame",
  "content": {
    "name": "minibonus_txt",
    "texture": "fcpr27EuxBTIOb1uk42gBX",
    "rect": [
      0,
      0,
      612,
      56
    ],
    "offset": [
      0,
      0
    ],
    "originalSize": [
      612,
      56
    ],
    "capInsets": [
      0,
      0,
      0,
      0
    ]
  }
}