{
  "__type__": "cc.SpriteFrame",
  "content": {
    "name": "Demo-slot-egypt",
    "texture": "90vBxT2CRMvrcoJtVclXd9",
    "rect": [
      0,
      0,
      1280,
      720
    ],
    "offset": [
      0,
      0
    ],
    "originalSize": [
      1280,
      720
    ],
    "capInsets": [
      0,
      0,
      0,
      0
    ]
  }
}