{
  "__type__": "cc.SpriteFrame",
  "content": {
    "name": "gem_minigame_bonus_item_03",
    "texture": "c2JY31bjpMfLLVfGb+BiDQ",
    "rect": [
      0,
      0,
      153,
      221
    ],
    "offset": [
      -0.5,
      0
    ],
    "originalSize": [
      154,
      221
    ],
    "capInsets": [
      0,
      0,
      0,
      0
    ]
  }
}