{
  "__type__": "cc.SpriteFrame",
  "content": {
    "name": "casino-slot-bg-grand-money",
    "texture": "55RZNLuipGLIlU0uqUiAgN",
    "rect": [
      0,
      0,
      321,
      48
    ],
    "offset": [
      0,
      0
    ],
    "originalSize": [
      321,
      48
    ],
    "capInsets": [
      0,
      0,
      0,
      0
    ]
  }
}