{
  "__type__": "cc.SpriteFrame",
  "content": {
    "name": "grub",
    "texture": "05GvY/GV9GmIFYvObaZZZq",
    "rect": [
      0,
      0,
      280,
      96
    ],
    "offset": [
      0,
      0
    ],
    "originalSize": [
      280,
      96
    ],
    "capInsets": [
      0,
      0,
      0,
      0
    ]
  }
}