[
  {
    "__type__": "cc.SpriteFrame",
    "content": {
      "name": "mask",
      "texture": "ddPYBmb0RM0YiTmXmRekVl",
      "rect": [
        0,
        0,
        216,
        54
      ],
      "offset": [
        0,
        0
      ],
      "originalSize": [
        216,
        54
      ],
      "capInsets": [
        0,
        0,
        0,
        0
      ]
    }
  },
  {
    "__type__": "cc.SpriteFrame",
    "content": {
      "name": "bubble_particle",
      "texture": "139ajMHxxOIKbI2zfCZr8Q",
      "rect": [
        1,
        1,
        18,
        18
      ],
      "offset": [
        0,
        0
      ],
      "originalSize": [
        20,
        20
      ],
      "capInsets": [
        0,
        0,
        0,
        0
      ]
    }
  },
  {
    "__type__": "cc.ParticleAsset",
    "_name": "particle_coinUpdate",
    "_native": ".plist"
  },
  [
    {
      "__type__": "cc.Prefab",
      "_name": "Slot2",
      "data": {
        "__id__": 1
      }
    },
    {
      "__type__": "cc.Node",
      "_name": "Slot2",
      "_children": [
        {
          "__id__": 2
        },
        {
          "__id__": 3
        },
        {
          "__id__": 31
        },
        {
          "__id__": 29
        }
      ],
      "_level": 1,
      "_components": [
        {
          "__id__": 12
        },
        {
          "__type__": "d376a4AvPRFcZsBDpwXN4gl",
          "node": {
            "__id__": 1
          },
          "totalPayLines": 80
        },
        {
          "__type__": "cc.Widget",
          "node": {
            "__id__": 1
          },
          "alignMode": 0,
          "_alignFlags": 45,
          "_originalWidth": 1280,
          "_originalHeight": 720
        }
      ],
      "_prefab": {
        "__type__": "cc.PrefabInfo",
        "root": {
          "__id__": 1
        },
        "asset": {
          "__uuid__": "e99aqJi9FDWrlqTT/OacmQ"
        },
        "fileId": "cf7j17UjhMMIovxyH0gY3n"
      },
      "_contentSize": {
        "__type__": "cc.Size",
        "width": 1280,
        "height": 720
      },
      "_position": {
        "__type__": "cc.Vec3",
        "x": 640,
        "y": 360
      }
    },
    {
      "__type__": "cc.Node",
      "_name": "bg",
      "_parent": {
        "__id__": 1
      },
      "_active": false,
      "_components": [
        {
          "__type__": "cc.Sprite",
          "node": {
            "__id__": 2
          },
          "_sizeMode": 0
        }
      ],
      "_prefab": {
        "__type__": "cc.PrefabInfo",
        "root": {
          "__id__": 1
        },
        "asset": {
          "__uuid__": "e99aqJi9FDWrlqTT/OacmQ"
        },
        "fileId": "3e5Q0uGmFDHLNzspSzoXHQ"
      },
      "_contentSize": {
        "__type__": "cc.Size",
        "width": 1280,
        "height": 720
      }
    },
    {
      "__type__": "cc.Node",
      "_name": "main",
      "_parent": {
        "__id__": 1
      },
      "_children": [
        {
          "__id__": 4
        },
        {
          "__id__": 30
        },
        {
          "__id__": 27
        },
        {
          "__id__": 14
        }
      ],
      "_level": 2,
      "_components": [
        {
          "__type__": "cc.Widget",
          "node": {
            "__id__": 3
          },
          "alignMode": 0,
          "_alignFlags": 40
        }
      ],
      "_prefab": {
        "__type__": "cc.PrefabInfo",
        "root": {
          "__id__": 1
        },
        "asset": {
          "__uuid__": "e99aqJi9FDWrlqTT/OacmQ"
        },
        "fileId": "d4+nYbpHdI2KvuGX5AE+Wx"
      },
      "_contentSize": {
        "__type__": "cc.Size",
        "width": 1280
      }
    },
    {
      "__type__": "cc.Node",
      "_name": "bg-table",
      "_parent": {
        "__id__": 3
      },
      "_children": [
        {
          "__id__": 5
        },
        {
          "__id__": 6
        }
      ],
      "_level": 1,
      "_components": [
        {
          "__type__": "cc.Sprite",
          "node": {
            "__id__": 4
          },
          "_enabled": false
        }
      ],
      "_prefab": {
        "__type__": "cc.PrefabInfo",
        "root": {
          "__id__": 1
        },
        "asset": {
          "__uuid__": "e99aqJi9FDWrlqTT/OacmQ"
        },
        "fileId": "db+OzMmhdJfpfDK0O2ONdz"
      },
      "_contentSize": {
        "__type__": "cc.Size",
        "width": 853,
        "height": 470
      },
      "_position": {
        "__type__": "cc.Vec3",
        "y": -6
      }
    },
    {
      "__type__": "cc.Node",
      "_name": "game-dra-bg-violet",
      "_parent": {
        "__id__": 4
      },
      "_level": 2,
      "_components": [
        {
          "__type__": "cc.Sprite",
          "node": {
            "__id__": 5
          }
        }
      ],
      "_prefab": {
        "__type__": "cc.PrefabInfo",
        "root": {
          "__id__": 1
        },
        "asset": {
          "__uuid__": "e99aqJi9FDWrlqTT/OacmQ"
        },
        "fileId": "75GZikSkJLJLjFLpk5mzvR"
      },
      "_contentSize": {
        "__type__": "cc.Size",
        "width": 853,
        "height": 470
      }
    },
    {
      "__type__": "cc.Node",
      "_name": "tableView",
      "_parent": {
        "__id__": 4
      },
      "_children": [
        {
          "__id__": 7
        }
      ],
      "_level": 2,
      "_components": [
        {
          "__type__": "cc.Widget",
          "node": {
            "__id__": 6
          },
          "_alignFlags": 45,
          "_left": 4.500000000000014,
          "_right": 2.499999999999986,
          "_top": -1,
          "_bottom": 10,
          "_originalWidth": 100,
          "_originalHeight": 100
        },
        {
          "__type__": "cc.Mask",
          "node": {
            "__id__": 6
          }
        }
      ],
      "_prefab": {
        "__type__": "cc.PrefabInfo",
        "root": {
          "__id__": 1
        },
        "asset": {
          "__uuid__": "e99aqJi9FDWrlqTT/OacmQ"
        },
        "fileId": "2fnuqFM2FAspcW/d2XkAO/"
      },
      "_contentSize": {
        "__type__": "cc.Size",
        "width": 846,
        "height": 461
      },
      "_anchorPoint": {
        "__type__": "cc.Vec2"
      },
      "_position": {
        "__type__": "cc.Vec3",
        "x": -422,
        "y": -225
      }
    },
    {
      "__type__": "cc.Node",
      "_name": "itemSlot",
      "_parent": {
        "__id__": 6
      },
      "_children": [
        {
          "__id__": 8
        },
        {
          "__id__": 9
        },
        {
          "__id__": 11
        }
      ],
      "_level": 3,
      "_components": [
        {
          "__type__": "18b984gERFAQYDhHRd3FjKq",
          "node": {
            "__id__": 7
          },
          "mainItemSprite": {
            "__id__": 10
          },
          "slotsControllerNode": {
            "__id__": 1
          },
          "border": {
            "__id__": 8
          },
          "zoomAni": {
            "__uuid__": "179U4jdvVMHJU+NYYUFjtJ"
          },
          "slotsController": {
            "__id__": 12
          }
        }
      ],
      "_prefab": {
        "__type__": "cc.PrefabInfo",
        "root": {
          "__id__": 1
        },
        "asset": {
          "__uuid__": "e99aqJi9FDWrlqTT/OacmQ"
        },
        "fileId": "73QsksprNFWrVtGI0RDZWd"
      },
      "_contentSize": {
        "__type__": "cc.Size",
        "width": 129,
        "height": 127
      },
      "_position": {
        "__type__": "cc.Vec3",
        "x": -310,
        "y": 270
      }
    },
    {
      "__type__": "cc.Node",
      "_name": "border-item",
      "_parent": {
        "__id__": 7
      },
      "_active": false,
      "_level": 4,
      "_components": [
        {
          "__type__": "cc.Sprite",
          "node": {
            "__id__": 8
          }
        }
      ],
      "_prefab": {
        "__type__": "cc.PrefabInfo",
        "root": {
          "__id__": 1
        },
        "asset": {
          "__uuid__": "e99aqJi9FDWrlqTT/OacmQ"
        },
        "fileId": "c4TizW6WZA5oAMrcUjeJz7"
      },
      "_contentSize": {
        "__type__": "cc.Size",
        "width": 151,
        "height": 127
      }
    },
    {
      "__type__": "cc.Node",
      "_name": "main-item",
      "_parent": {
        "__id__": 7
      },
      "_level": 4,
      "_components": [
        {
          "__id__": 10
        }
      ],
      "_prefab": {
        "__type__": "cc.PrefabInfo",
        "root": {
          "__id__": 1
        },
        "asset": {
          "__uuid__": "e99aqJi9FDWrlqTT/OacmQ"
        },
        "fileId": "805AEKJR9OkZD7d2L7s9gz"
      },
      "_contentSize": {
        "__type__": "cc.Size",
        "width": 129,
        "height": 127
      }
    },
    {
      "__type__": "cc.Sprite",
      "node": {
        "__id__": 9
      }
    },
    {
      "__type__": "cc.Node",
      "_name": "coin-label",
      "_parent": {
        "__id__": 7
      },
      "_level": 4,
      "_components": [
        {
          "__type__": "cc.Label",
          "node": {
            "__id__": 11
          },
          "_string": "$2",
          "_N$string": "$2",
          "_fontSize": 20,
          "_N$file": {
            "__uuid__": "16ghaQKjJOfLDvTizedZAV"
          },
          "_isSystemFontUsed": false
        }
      ],
      "_prefab": {
        "__type__": "cc.PrefabInfo",
        "root": {
          "__id__": 1
        },
        "asset": {
          "__uuid__": "e99aqJi9FDWrlqTT/OacmQ"
        },
        "fileId": "d40HVU9CFMYaBxolTCHPcu"
      },
      "_color": {
        "__type__": "cc.Color",
        "r": 255,
        "g": 204,
        "b": 2
      },
      "_contentSize": {
        "__type__": "cc.Size",
        "width": 19.5,
        "height": 20
      },
      "_position": {
        "__type__": "cc.Vec3",
        "y": -40.5
      }
    },
    {
      "__type__": "fc160JMdmFJoLP26bXfNzO3",
      "node": {
        "__id__": 1
      },
      "gameId": "sm2004",
      "gameSizeType": 3,
      "tableView": {
        "__id__": 6
      },
      "itemSlot": {
        "__id__": 7
      },
      "accumilatedBar": {
        "__id__": 13
      },
      "coinBonusLabel": {
        "__id__": 25
      },
      "stickyWildContainer": {
        "__id__": 27
      },
      "originalCoin": {
        "__id__": 26
      },
      "miniGame": {
        "__uuid__": "839bovB+pJYYwW78cDraUI"
      },
      "particleCoinBonus": {
        "__id__": 23
      },
      "lightCoin": {
        "__id__": 20
      },
      "resourceController": {
        "__id__": 28
      }
    },
    {
      "__type__": "2400bjcxatI3aMiaRjnFYPJ",
      "node": {
        "__id__": 14
      },
      "bar": {
        "__id__": 16
      },
      "maxLength": 490,
      "minLength": 47,
      "progress": 0.2,
      "lerpRatio": 10
    },
    {
      "__type__": "cc.Node",
      "_name": "accumilatedCoin",
      "_parent": {
        "__id__": 3
      },
      "_children": [
        {
          "__id__": 15
        },
        {
          "__id__": 16
        },
        {
          "__id__": 19
        },
        {
          "__id__": 26
        }
      ],
      "_level": 3,
      "_components": [
        {
          "__id__": 13
        }
      ],
      "_prefab": {
        "__type__": "cc.PrefabInfo",
        "root": {
          "__id__": 1
        },
        "asset": {
          "__uuid__": "e99aqJi9FDWrlqTT/OacmQ"
        },
        "fileId": "2aJbsSS5ZFzKPYy+UMLmbr"
      },
      "_contentSize": {
        "__type__": "cc.Size",
        "width": 920,
        "height": 34
      },
      "_position": {
        "__type__": "cc.Vec3",
        "x": 11,
        "y": 262
      }
    },
    {
      "__type__": "cc.Node",
      "_name": "game-dra-bg-time-line",
      "_parent": {
        "__id__": 14
      },
      "_level": 4,
      "_components": [
        {
          "__type__": "cc.Sprite",
          "node": {
            "__id__": 15
          }
        }
      ],
      "_prefab": {
        "__type__": "cc.PrefabInfo",
        "root": {
          "__id__": 1
        },
        "asset": {
          "__uuid__": "e99aqJi9FDWrlqTT/OacmQ"
        },
        "fileId": "a75g1PLlNAlat3CeQehIY/"
      },
      "_contentSize": {
        "__type__": "cc.Size",
        "width": 698,
        "height": 40
      },
      "_position": {
        "__type__": "cc.Vec3",
        "y": -3
      }
    },
    {
      "__type__": "cc.Node",
      "_name": "game-dra-time-line-score",
      "_parent": {
        "__id__": 14
      },
      "_children": [
        {
          "__id__": 17
        }
      ],
      "_level": 3,
      "_components": [
        {
          "__type__": "cc.Sprite",
          "node": {
            "__id__": 16
          },
          "_type": 1,
          "_sizeMode": 0
        }
      ],
      "_prefab": {
        "__type__": "cc.PrefabInfo",
        "root": {
          "__id__": 1
        },
        "asset": {
          "__uuid__": "e99aqJi9FDWrlqTT/OacmQ"
        },
        "fileId": "88XprBCq1PF4l3t0EAkQQl"
      },
      "_contentSize": {
        "__type__": "cc.Size",
        "width": 488.1,
        "height": 28.7
      },
      "_anchorPoint": {
        "__type__": "cc.Vec2",
        "y": 0.5
      },
      "_position": {
        "__type__": "cc.Vec3",
        "x": -353,
        "y": -2.7
      }
    },
    {
      "__type__": "cc.Node",
      "_name": "mask",
      "_parent": {
        "__id__": 16
      },
      "_children": [
        {
          "__id__": 18
        }
      ],
      "_level": 4,
      "_components": [
        {
          "__type__": "cc.Mask",
          "node": {
            "__id__": 17
          }
        },
        {
          "__type__": "cc.Widget",
          "node": {
            "__id__": 17
          },
          "alignMode": 2,
          "_target": {
            "__id__": 16
          },
          "_alignFlags": 40,
          "_left": 12.999999999999986,
          "_right": -1.0000000000000142,
          "_originalWidth": 595.6
        }
      ],
      "_prefab": {
        "__type__": "cc.PrefabInfo",
        "root": {
          "__id__": 1
        },
        "asset": {
          "__uuid__": "e99aqJi9FDWrlqTT/OacmQ"
        },
        "fileId": "3eM8lvInZP7Z6+4opOGVi5"
      },
      "_contentSize": {
        "__type__": "cc.Size",
        "width": 476.1,
        "height": 28
      },
      "_position": {
        "__type__": "cc.Vec3",
        "x": 251.05,
        "y": -0.6
      }
    },
    {
      "__type__": "cc.Node",
      "_name": "particle_texture",
      "_parent": {
        "__id__": 17
      },
      "_level": 5,
      "_components": [
        {
          "__type__": "cc.ParticleSystem",
          "node": {
            "__id__": 18
          },
          "_dstBlendFactor": 1,
          "_custom": true,
          "_file": {
            "__uuid__": "8b68L2P7tFUrHGXnCkSwwF"
          },
          "_spriteFrame": {
            "__uuid__": "13pI23QWtHzJ1OTBglys+D"
          },
          "_stopped": false,
          "totalParticles": 400,
          "emissionRate": 120,
          "life": 3,
          "lifeVar": 1,
          "_startColor": {
            "__type__": "cc.Color",
            "r": 153,
            "g": 102,
            "b": 51,
            "a": 117
          },
          "_startColorVar": {
            "__type__": "cc.Color",
            "b": 51,
            "a": 0
          },
          "_endColor": {
            "__type__": "cc.Color",
            "r": 194,
            "g": 180,
            "b": 180,
            "a": 25
          },
          "_endColorVar": {
            "__type__": "cc.Color",
            "r": 233,
            "g": 208,
            "b": 208,
            "a": 0
          },
          "angleVar": 10,
          "startSize": 5,
          "startSizeVar": 2,
          "endSize": -1,
          "posVar": {
            "__type__": "cc.Vec2",
            "x": 250,
            "y": 20
          },
          "positionType": 1,
          "speed": 30,
          "speedVar": 5,
          "tangentialAccel": 0,
          "radialAccel": 18
        }
      ],
      "_prefab": {
        "__type__": "cc.PrefabInfo",
        "root": {
          "__id__": 1
        },
        "asset": {
          "__uuid__": "e99aqJi9FDWrlqTT/OacmQ"
        },
        "fileId": "48yYEq+Q9GFJqEosmMtMKI"
      },
      "_position": {
        "__type__": "cc.Vec3",
        "x": 28,
        "y": -27
      }
    },
    {
      "__type__": "cc.Node",
      "_name": "btn-dragon",
      "_parent": {
        "__id__": 14
      },
      "_children": [
        {
          "__id__": 20
        },
        {
          "__id__": 22
        },
        {
          "__id__": 24
        }
      ],
      "_level": 4,
      "_components": [
        {
          "__type__": "cc.Sprite",
          "node": {
            "__id__": 19
          },
          "_sizeMode": 0
        },
        {
          "__type__": "cc.Widget",
          "node": {
            "__id__": 19
          },
          "_alignFlags": 45,
          "_left": 584.5000000000002,
          "_right": 101.50000000000017,
          "_top": -19,
          "_bottom": -19,
          "_originalWidth": 194,
          "_originalHeight": 72
        }
      ],
      "_prefab": {
        "__type__": "cc.PrefabInfo",
        "root": {
          "__id__": 1
        },
        "asset": {
          "__uuid__": "e99aqJi9FDWrlqTT/OacmQ"
        },
        "fileId": "69k3rdUO5AaoDEeX+OkVst"
      },
      "_contentSize": {
        "__type__": "cc.Size",
        "width": 233.9999999999996,
        "height": 72
      },
      "_position": {
        "__type__": "cc.Vec3",
        "x": 241.50000000000003
      }
    },
    {
      "__type__": "cc.Node",
      "_name": "mask-animation",
      "_parent": {
        "__id__": 19
      },
      "_children": [
        {
          "__id__": 21
        }
      ],
      "_level": 5,
      "_components": [
        {
          "__type__": "cc.Mask",
          "node": {
            "__id__": 20
          },
          "_spriteFrame": {
            "__uuid__": "0d3TzOnylF4oZyuXpUG9+u"
          },
          "_type": 2
        },
        {
          "__type__": "cc.Animation",
          "node": {
            "__id__": 20
          },
          "_defaultClip": {
            "__uuid__": "f5a1I2hM1Jf7s5HtWWfOHx"
          },
          "_clips": [
            {
              "__uuid__": "f5a1I2hM1Jf7s5HtWWfOHx"
            }
          ]
        }
      ],
      "_prefab": {
        "__type__": "cc.PrefabInfo",
        "root": {
          "__id__": 1
        },
        "asset": {
          "__uuid__": "e99aqJi9FDWrlqTT/OacmQ"
        },
        "fileId": "3dlVN3F5dNa7xlBmPu4Wn4"
      },
      "_contentSize": {
        "__type__": "cc.Size",
        "width": 216,
        "height": 54
      },
      "_anchorPoint": {
        "__type__": "cc.Vec2",
        "x": 0.5128406793152867,
        "y": 0.47331138383071586
      },
      "_position": {
        "__type__": "cc.Vec3",
        "x": 3,
        "y": -1
      }
    },
    {
      "__type__": "cc.Node",
      "_name": "light-dragon",
      "_parent": {
        "__id__": 20
      },
      "_level": 6,
      "_components": [
        {
          "__type__": "cc.Sprite",
          "node": {
            "__id__": 21
          }
        }
      ],
      "_prefab": {
        "__type__": "cc.PrefabInfo",
        "root": {
          "__id__": 1
        },
        "asset": {
          "__uuid__": "e99aqJi9FDWrlqTT/OacmQ"
        },
        "fileId": "6cncA3IvlHd49aaJlL4Eh7"
      },
      "_contentSize": {
        "__type__": "cc.Size",
        "width": 145,
        "height": 72
      },
      "_position": {
        "__type__": "cc.Vec3",
        "x": -186.5
      }
    },
    {
      "__type__": "cc.Node",
      "_name": "mask-amount",
      "_parent": {
        "__id__": 19
      },
      "_children": [
        {
          "__id__": 23
        }
      ],
      "_level": 5,
      "_components": [
        {
          "__type__": "cc.Mask",
          "node": {
            "__id__": 22
          }
        }
      ],
      "_prefab": {
        "__type__": "cc.PrefabInfo",
        "root": {
          "__id__": 1
        },
        "asset": {
          "__uuid__": "e99aqJi9FDWrlqTT/OacmQ"
        },
        "fileId": "47sMfINFVK7qGxhScgAw2V"
      },
      "_contentSize": {
        "__type__": "cc.Size",
        "width": 190.4,
        "height": 44.9
      },
      "_position": {
        "__type__": "cc.Vec3",
        "x": -0.3,
        "y": -0.3
      }
    },
    {
      "__type__": "cc.Node",
      "_name": "particle_coinUpdate",
      "_parent": {
        "__id__": 22
      },
      "_active": false,
      "_level": 6,
      "_components": [
        {
          "__type__": "cc.ParticleSystem",
          "node": {
            "__id__": 23
          },
          "_custom": true,
          "_file": {
            "__uuid__": "74atjwh4dF2r6AP7gyvGDh"
          },
          "emissionRate": 250,
          "life": 1.5,
          "lifeVar": 0.25,
          "_startColor": {
            "__type__": "cc.Color",
            "r": 241,
            "g": 186,
            "b": 10,
            "a": 222
          },
          "_startColorVar": {
            "__type__": "cc.Color",
            "a": 0
          },
          "_endColor": {
            "__type__": "cc.Color",
            "r": 238,
            "g": 218,
            "b": 113
          },
          "_endColorVar": {
            "__type__": "cc.Color",
            "a": 0
          },
          "angle": -90,
          "angleVar": 10,
          "startSize": 3,
          "startSizeVar": 5,
          "endSize": -1,
          "posVar": {
            "__type__": "cc.Vec2",
            "x": 100,
            "y": 20
          },
          "positionType": 1,
          "speed": 40,
          "speedVar": 20,
          "tangentialAccel": 0
        }
      ],
      "_prefab": {
        "__type__": "cc.PrefabInfo",
        "root": {
          "__id__": 1
        },
        "asset": {
          "__uuid__": "e99aqJi9FDWrlqTT/OacmQ"
        },
        "fileId": "a3z+NKFcxCAIGBZ4UkWctp"
      },
      "_position": {
        "__type__": "cc.Vec3",
        "x": -4,
        "y": 18.3
      }
    },
    {
      "__type__": "cc.Node",
      "_name": "amountLabel",
      "_parent": {
        "__id__": 19
      },
      "_level": 5,
      "_components": [
        {
          "__id__": 25
        }
      ],
      "_prefab": {
        "__type__": "cc.PrefabInfo",
        "root": {
          "__id__": 1
        },
        "asset": {
          "__uuid__": "e99aqJi9FDWrlqTT/OacmQ"
        },
        "fileId": "2beda/AxZGKJpVyBvbbzZ6"
      },
      "_contentSize": {
        "__type__": "cc.Size",
        "width": 130,
        "height": 25
      }
    },
    {
      "__type__": "cc.Label",
      "node": {
        "__id__": 24
      },
      "_string": "$1,000,000",
      "_N$string": "$1,000,000",
      "_fontSize": 25,
      "_lineHeight": 50,
      "_N$file": {
        "__uuid__": "19t+Nvk2VEbpHwGOqyOUL6"
      },
      "_isSystemFontUsed": false,
      "_N$horizontalAlign": 1,
      "_N$verticalAlign": 1
    },
    {
      "__type__": "cc.Node",
      "_name": "game-dra-coin-gold-score",
      "_parent": {
        "__id__": 14
      },
      "_level": 4,
      "_components": [
        {
          "__type__": "cc.Sprite",
          "node": {
            "__id__": 26
          }
        }
      ],
      "_prefab": {
        "__type__": "cc.PrefabInfo",
        "root": {
          "__id__": 1
        },
        "asset": {
          "__uuid__": "e99aqJi9FDWrlqTT/OacmQ"
        },
        "fileId": "75aEiB4Y5DOaJU9J1omG3b"
      },
      "_contentSize": {
        "__type__": "cc.Size",
        "width": 76,
        "height": 76
      },
      "_position": {
        "__type__": "cc.Vec3",
        "x": -339,
        "y": -4
      },
      "_scale": {
        "__type__": "cc.Vec3",
        "x": 1.1,
        "y": 1.1,
        "z": 1
      }
    },
    {
      "__type__": "cc.Node",
      "_name": "sticky-wild",
      "_parent": {
        "__id__": 3
      },
      "_level": 3,
      "_prefab": {
        "__type__": "cc.PrefabInfo",
        "root": {
          "__id__": 1
        },
        "asset": {
          "__uuid__": "e99aqJi9FDWrlqTT/OacmQ"
        },
        "fileId": "575b1sUMFCDoQkV2YWzGaA"
      },
      "_position": {
        "__type__": "cc.Vec3",
        "y": -6
      }
    },
    {
      "__type__": "342b50tHJZPUIUrOPLwjhVW",
      "node": {
        "__id__": 29
      },
      "listImage": [
        {
          "__type__": "ImageItem",
          "image": {
            "__id__": 5
          }
        },
        {
          "__type__": "ImageItem",
          "image": {
            "__id__": 30
          }
        },
        {
          "__type__": "ImageItem",
          "image": {
            "__id__": 16
          }
        },
        {
          "__type__": "ImageItem",
          "image": {
            "__id__": 15
          }
        },
        {
          "__type__": "ImageItem",
          "image": {
            "__id__": 21
          }
        },
        {
          "__type__": "ImageItem",
          "image": {
            "__id__": 26
          }
        },
        {
          "__type__": "ImageItem",
          "image": {
            "__id__": 19
          }
        }
      ],
      "listPrefab": [
        {
          "__type__": "PrefabItem",
          "prefab": {
            "__uuid__": "839bovB+pJYYwW78cDraUI"
          },
          "customPath": "minigame"
        }
      ]
    },
    {
      "__type__": "cc.Node",
      "_name": "ResourceController",
      "_parent": {
        "__id__": 1
      },
      "_level": 2,
      "_components": [
        {
          "__id__": 28
        }
      ],
      "_prefab": {
        "__type__": "cc.PrefabInfo",
        "root": {
          "__id__": 1
        },
        "asset": {
          "__uuid__": "e99aqJi9FDWrlqTT/OacmQ"
        },
        "fileId": "b7WAqNotpKlp1KNRkS0GFs"
      }
    },
    {
      "__type__": "cc.Node",
      "_name": "game-dra-bg-gold",
      "_parent": {
        "__id__": 3
      },
      "_level": 3,
      "_components": [
        {
          "__type__": "cc.Sprite",
          "node": {
            "__id__": 30
          },
          "_sizeMode": 0
        }
      ],
      "_prefab": {
        "__type__": "cc.PrefabInfo",
        "root": {
          "__id__": 1
        },
        "asset": {
          "__uuid__": "e99aqJi9FDWrlqTT/OacmQ"
        },
        "fileId": "a7SQhdyCFIFajes6Noi1Id"
      },
      "_contentSize": {
        "__type__": "cc.Size",
        "width": 992,
        "height": 532
      }
    },
    {
      "__type__": "cc.Node",
      "_name": "LinesController",
      "_parent": {
        "__id__": 1
      },
      "_children": [
        {
          "__id__": 32
        }
      ],
      "_level": 2,
      "_components": [
        {
          "__type__": "ddc65mv5XtJr6Rcm5HohZzJ",
          "node": {
            "__id__": 31
          },
          "tableView": {
            "__id__": 6
          }
        }
      ],
      "_prefab": {
        "__type__": "cc.PrefabInfo",
        "root": {
          "__id__": 1
        },
        "asset": {
          "__uuid__": "e99aqJi9FDWrlqTT/OacmQ"
        },
        "fileId": "83kN7zq2BNdKN1xKrrOWrp"
      },
      "_anchorPoint": {
        "__type__": "cc.Vec2"
      }
    },
    {
      "__type__": "cc.Node",
      "_name": "Linepay",
      "_parent": {
        "__id__": 31
      },
      "_active": false,
      "_level": 3,
      "_components": [
        {
          "__type__": "cc.Sprite",
          "node": {
            "__id__": 32
          },
          "_sizeMode": 0
        }
      ],
      "_prefab": {
        "__type__": "cc.PrefabInfo",
        "root": {
          "__id__": 1
        },
        "asset": {
          "__uuid__": "e99aqJi9FDWrlqTT/OacmQ"
        },
        "fileId": "ecGxj2g2RP+7oVAzsp87Xd"
      },
      "_contentSize": {
        "__type__": "cc.Size",
        "width": 100,
        "height": 17
      },
      "_position": {
        "__type__": "cc.Vec3",
        "x": -2,
        "y": -391
      }
    }
  ],
  {
    "__type__": "cc.AnimationClip",
    "_name": "light-dragon",
    "_duration": 1.9666666666666666,
    "wrapMode": "1",
    "curveData": {
      "paths": {
        "light-dragon": {
          "props": {
            "position": [
              {
                "frame": 0,
                "value": [
                  -161.8,
                  0
                ],
                "curve": [
                  0.3,
                  0.3,
                  0.33265306122448973,
                  0.9959183673469387
                ]
              },
              {
                "frame": 1.9666666666666666,
                "value": [
                  146,
                  0
                ]
              }
            ]
          }
        }
      }
    }
  }
]