{
  "__type__": "cc.SpriteFrame",
  "content": {
    "name": "gem-item-ingame-8",
    "texture": "7cefBqmUdEgr5ZJHU1LvT7",
    "rect": [
      2,
      1,
      152,
      125
    ],
    "offset": [
      -1.5,
      1.5
    ],
    "originalSize": [
      159,
      130
    ],
    "capInsets": [
      0,
      0,
      0,
      0
    ]
  }
}