{
  "__type__": "cc.SpriteFrame",
  "content": {
    "name": "gem-item-ingame-6",
    "texture": "9b4e5O0atHFq2BlwQrLfAx",
    "rect": [
      0,
      0,
      157,
      130
    ],
    "offset": [
      -1,
      0
    ],
    "originalSize": [
      159,
      130
    ],
    "capInsets": [
      0,
      0,
      0,
      0
    ]
  }
}