{
  "__type__": "cc.SpriteFrame",
  "content": {
    "name": "select-bet-play-3",
    "texture": "91ZeR9Dg1Dp5jBcE+wq4E9",
    "rect": [
      0,
      0,
      604,
      84
    ],
    "offset": [
      0,
      0
    ],
    "originalSize": [
      604,
      84
    ],
    "capInsets": [
      0,
      0,
      0,
      0
    ]
  }
}