{
  "__type__": "cc.SpriteFrame",
  "content": {
    "name": "bg-item-casino-8",
    "texture": "5dfGp7UQZEa4PNwAHXhyfY",
    "rect": [
      0,
      0,
      165,
      136
    ],
    "offset": [
      0,
      0
    ],
    "originalSize": [
      165,
      136
    ],
    "capInsets": [
      0,
      0,
      0,
      0
    ]
  }
}