{
  "__type__": "cc.SpriteFrame",
  "content": {
    "name": "bg-big",
    "texture": "472Vhy/eJBuoBWmXtqen98",
    "rect": [
      0,
      0,
      1280,
      720
    ],
    "offset": [
      0,
      0
    ],
    "originalSize": [
      1280,
      720
    ],
    "capInsets": [
      0,
      0,
      0,
      0
    ]
  }
}