{
  "__type__": "cc.SpriteFrame",
  "content": {
    "name": "gem_minigame_bonus_item_white_15",
    "texture": "3dnws6gztLL6LLmeqAiZyF",
    "rect": [
      0,
      0,
      267,
      246
    ],
    "offset": [
      0,
      0
    ],
    "originalSize": [
      267,
      246
    ],
    "capInsets": [
      0,
      0,
      0,
      0
    ]
  }
}