{
  "__type__": "cc.SpriteFrame",
  "content": {
    "name": "total",
    "texture": "a8o5XQkx9Nb4T0rzCM9P5P",
    "rect": [
      0,
      0,
      293,
      46
    ],
    "offset": [
      0,
      0
    ],
    "originalSize": [
      293,
      46
    ],
    "capInsets": [
      0,
      0,
      0,
      0
    ]
  }
}