{
  "__type__": "cc.SpriteFrame",
  "content": {
    "name": "gem-minigame-select-bonus-1",
    "texture": "5etiYXNUVGQpSDTRNYrpta",
    "rect": [
      0,
      5,
      294,
      318
    ],
    "offset": [
      0,
      -2
    ],
    "originalSize": [
      294,
      324
    ],
    "capInsets": [
      0,
      0,
      0,
      0
    ]
  }
}