{
  "__type__": "cc.SpriteFrame",
  "content": {
    "name": "slot-6",
    "texture": "7cdEf41VhNt53UU2qKc/aS",
    "rect": [
      0,
      0,
      1280,
      720
    ],
    "offset": [
      0,
      0
    ],
    "originalSize": [
      1280,
      720
    ],
    "capInsets": [
      0,
      0,
      0,
      0
    ]
  }
}