{
  "__type__": "sp.SkeletonData",
  "_name": "skeleton",
  "skeletonJsonStr": "{\"skeleton\":{\"hash\":\"+KKFi10M3jZT8qy9xDpCNMp05Ac\",\"spine\":\"3.7.94\",\"width\":253,\"height\":253,\"images\":\"./images/\",\"audio\":\"D:/Work/Effect/thunder_3\"},\"bones\":[{\"name\":\"root\"},{\"name\":\"alpha\",\"parent\":\"root\",\"x\":3},{\"name\":\"alpha2\",\"parent\":\"root\",\"x\":3}],\"slots\":[{\"name\":\"thunder_3\",\"bone\":\"root\",\"attachment\":\"1\"},{\"name\":\"alpha_blue\",\"bone\":\"alpha\",\"attachment\":\"alpha_blue\"},{\"name\":\"alpha_blue3\",\"bone\":\"alpha\",\"attachment\":\"alpha_blue\"},{\"name\":\"alpha_blue2\",\"bone\":\"alpha2\",\"attachment\":\"alpha_blue\"}],\"skins\":{\"default\":{\"alpha_blue\":{\"alpha_blue\":{\"width\":253,\"height\":253}},\"alpha_blue2\":{\"alpha_blue\":{\"width\":253,\"height\":253}},\"alpha_blue3\":{\"alpha_blue\":{\"width\":253,\"height\":253}},\"thunder_3\":{\"1\":{\"width\":196,\"height\":220},\"2\":{\"width\":200,\"height\":214},\"3\":{\"width\":248,\"height\":197},\"4\":{\"width\":254,\"height\":186},\"5\":{\"width\":233,\"height\":183},\"6\":{\"width\":237,\"height\":186},\"7\":{\"width\":236,\"height\":193},\"8\":{\"width\":212,\"height\":193},\"9\":{\"width\":203,\"height\":209}}}},\"animations\":{\"thunder_3\":{\"slots\":{\"alpha_blue\":{\"color\":[{\"time\":0.4,\"color\":\"ffffffff\"},{\"time\":0.5667,\"color\":\"ffffff00\"}]},\"alpha_blue2\":{\"color\":[{\"time\":0,\"color\":\"ffffff49\"},{\"time\":0.6,\"color\":\"ffffff83\"},{\"time\":0.8333,\"color\":\"ffffff00\"}]},\"alpha_blue3\":{\"color\":[{\"time\":0.4,\"color\":\"ffffffff\"},{\"time\":0.5667,\"color\":\"ffffff00\"}]},\"thunder_3\":{\"color\":[{\"time\":0.5,\"color\":\"ffffffff\"},{\"time\":0.6667,\"color\":\"ffffff00\"}],\"attachment\":[{\"time\":0.0667,\"name\":\"2\"},{\"time\":0.1333,\"name\":\"3\"},{\"time\":0.2,\"name\":\"4\"},{\"time\":0.2667,\"name\":\"5\"},{\"time\":0.3333,\"name\":\"6\"},{\"time\":0.4,\"name\":\"7\"},{\"time\":0.4667,\"name\":\"8\"},{\"time\":0.5333,\"name\":\"9\"},{\"time\":0.7,\"name\":\"1\"}]}},\"bones\":{\"alpha\":{\"scale\":[{\"time\":0,\"x\":0,\"y\":0},{\"time\":0.1667,\"x\":0.4,\"y\":0.4},{\"time\":0.7667,\"x\":1,\"y\":1},{\"time\":0.8333,\"x\":0.8,\"y\":0.8}]},\"alpha2\":{\"scale\":[{\"time\":0,\"x\":0,\"y\":0,\"curve\":\"stepped\"},{\"time\":0.1667,\"x\":0,\"y\":0},{\"time\":0.3333,\"x\":0.4,\"y\":0.4},{\"time\":0.7667,\"x\":1,\"y\":1},{\"time\":0.8333,\"x\":0.8,\"y\":0.8}]}}}}}",
  "_skeletonJson": {
    "skeleton": {
      "hash": "+KKFi10M3jZT8qy9xDpCNMp05Ac",
      "spine": "3.7.94",
      "width": 253,
      "height": 253,
      "images": "./images/",
      "audio": "D:/Work/Effect/thunder_3"
    },
    "bones": [
      {
        "name": "root"
      },
      {
        "name": "alpha",
        "parent": "root",
        "x": 3
      },
      {
        "name": "alpha2",
        "parent": "root",
        "x": 3
      }
    ],
    "slots": [
      {
        "name": "thunder_3",
        "bone": "root",
        "attachment": "1"
      },
      {
        "name": "alpha_blue",
        "bone": "alpha",
        "attachment": "alpha_blue"
      },
      {
        "name": "alpha_blue3",
        "bone": "alpha",
        "attachment": "alpha_blue"
      },
      {
        "name": "alpha_blue2",
        "bone": "alpha2",
        "attachment": "alpha_blue"
      }
    ],
    "skins": {
      "default": {
        "alpha_blue": {
          "alpha_blue": {
            "width": 253,
            "height": 253
          }
        },
        "alpha_blue2": {
          "alpha_blue": {
            "width": 253,
            "height": 253
          }
        },
        "alpha_blue3": {
          "alpha_blue": {
            "width": 253,
            "height": 253
          }
        },
        "thunder_3": {
          "1": {
            "width": 196,
            "height": 220
          },
          "2": {
            "width": 200,
            "height": 214
          },
          "3": {
            "width": 248,
            "height": 197
          },
          "4": {
            "width": 254,
            "height": 186
          },
          "5": {
            "width": 233,
            "height": 183
          },
          "6": {
            "width": 237,
            "height": 186
          },
          "7": {
            "width": 236,
            "height": 193
          },
          "8": {
            "width": 212,
            "height": 193
          },
          "9": {
            "width": 203,
            "height": 209
          }
        }
      }
    },
    "animations": {
      "thunder_3": {
        "slots": {
          "alpha_blue": {
            "color": [
              {
                "time": 0.4,
                "color": "ffffffff"
              },
              {
                "time": 0.5667,
                "color": "ffffff00"
              }
            ]
          },
          "alpha_blue2": {
            "color": [
              {
                "time": 0,
                "color": "ffffff49"
              },
              {
                "time": 0.6,
                "color": "ffffff83"
              },
              {
                "time": 0.8333,
                "color": "ffffff00"
              }
            ]
          },
          "alpha_blue3": {
            "color": [
              {
                "time": 0.4,
                "color": "ffffffff"
              },
              {
                "time": 0.5667,
                "color": "ffffff00"
              }
            ]
          },
          "thunder_3": {
            "color": [
              {
                "time": 0.5,
                "color": "ffffffff"
              },
              {
                "time": 0.6667,
                "color": "ffffff00"
              }
            ],
            "attachment": [
              {
                "time": 0.0667,
                "name": "2"
              },
              {
                "time": 0.1333,
                "name": "3"
              },
              {
                "time": 0.2,
                "name": "4"
              },
              {
                "time": 0.2667,
                "name": "5"
              },
              {
                "time": 0.3333,
                "name": "6"
              },
              {
                "time": 0.4,
                "name": "7"
              },
              {
                "time": 0.4667,
                "name": "8"
              },
              {
                "time": 0.5333,
                "name": "9"
              },
              {
                "time": 0.7,
                "name": "1"
              }
            ]
          }
        },
        "bones": {
          "alpha": {
            "scale": [
              {
                "time": 0,
                "x": 0,
                "y": 0
              },
              {
                "time": 0.1667,
                "x": 0.4,
                "y": 0.4
              },
              {
                "time": 0.7667,
                "x": 1,
                "y": 1
              },
              {
                "time": 0.8333,
                "x": 0.8,
                "y": 0.8
              }
            ]
          },
          "alpha2": {
            "scale": [
              {
                "time": 0,
                "x": 0,
                "y": 0,
                "curve": "stepped"
              },
              {
                "time": 0.1667,
                "x": 0,
                "y": 0
              },
              {
                "time": 0.3333,
                "x": 0.4,
                "y": 0.4
              },
              {
                "time": 0.7667,
                "x": 1,
                "y": 1
              },
              {
                "time": 0.8333,
                "x": 0.8,
                "y": 0.8
              }
            ]
          }
        }
      }
    }
  },
  "_atlasText": "\nskeleton.png\nsize: 2048,512\nformat: RGBA8888\nfilter: Linear,Linear\nrepeat: none\n1\n  rotate: true\n  xy: 1225, 258\n  size: 196, 220\n  orig: 196, 220\n  offset: 0, 0\n  index: -1\n2\n  rotate: true\n  xy: 1447, 254\n  size: 200, 214\n  orig: 200, 214\n  offset: 0, 0\n  index: -1\n3\n  rotate: false\n  xy: 2, 2\n  size: 248, 197\n  orig: 248, 197\n  offset: 0, 0\n  index: -1\n4\n  rotate: false\n  xy: 257, 268\n  size: 254, 186\n  orig: 254, 186\n  offset: 0, 0\n  index: -1\n5\n  rotate: false\n  xy: 990, 271\n  size: 233, 183\n  orig: 233, 183\n  offset: 0, 0\n  index: -1\n6\n  rotate: false\n  xy: 513, 268\n  size: 237, 186\n  orig: 237, 186\n  offset: 0, 0\n  index: -1\n7\n  rotate: false\n  xy: 752, 261\n  size: 236, 193\n  orig: 236, 193\n  offset: 0, 0\n  index: -1\n8\n  rotate: false\n  xy: 257, 73\n  size: 212, 193\n  orig: 212, 193\n  offset: 0, 0\n  index: -1\n9\n  rotate: true\n  xy: 1663, 251\n  size: 203, 209\n  orig: 203, 209\n  offset: 0, 0\n  index: -1\nalpha_blue\n  rotate: false\n  xy: 2, 201\n  size: 253, 253\n  orig: 253, 253\n  offset: 0, 0\n  index: -1\n",
  "textures": [
    {
      "__uuid__": "7fmBNZNJ5Nz6h1xu4XINqv"
    }
  ],
  "textureNames": [
    "skeleton.png"
  ]
}