{
  "__type__": "cc.SpriteFrame",
  "content": {
    "name": "bg-bonus-gem",
    "texture": "76KOC8hBZK7oNfUPRZulyQ",
    "rect": [
      0,
      0,
      159,
      160
    ],
    "offset": [
      0,
      0
    ],
    "originalSize": [
      159,
      160
    ],
    "capInsets": [
      0,
      0,
      0,
      0
    ]
  }
}