{
  "__type__": "cc.SpriteFrame",
  "content": {
    "name": "gem_minigame_bonus_item_fail_02",
    "texture": "b8C0ozERhB6aBOE7EqKV7B",
    "rect": [
      0,
      0,
      79,
      73
    ],
    "offset": [
      0,
      0
    ],
    "originalSize": [
      79,
      73
    ],
    "capInsets": [
      0,
      0,
      0,
      0
    ]
  }
}