{
  "__type__": "cc.SpriteFrame",
  "content": {
    "name": "gem_minigame_bonus_item_06",
    "texture": "062TEqOH9KMbE6PPMrARRd",
    "rect": [
      1,
      0,
      124,
      131
    ],
    "offset": [
      0,
      0
    ],
    "originalSize": [
      126,
      131
    ],
    "capInsets": [
      0,
      0,
      0,
      0
    ]
  }
}