{
  "__type__": "cc.SpriteFrame",
  "content": {
    "name": "item-egypt-1",
    "texture": "1bx3yDhlRD6YPrhxyA7wE7",
    "rect": [
      0,
      0,
      135,
      111
    ],
    "offset": [
      0,
      0
    ],
    "originalSize": [
      135,
      111
    ],
    "capInsets": [
      0,
      0,
      0,
      0
    ]
  }
}