{
  "__type__": "cc.SpriteFrame",
  "content": {
    "name": "select-bet-play-4",
    "texture": "16DHsfl6lNJ46SwcsRgoLZ",
    "rect": [
      0,
      0,
      604,
      84
    ],
    "offset": [
      0,
      0
    ],
    "originalSize": [
      604,
      84
    ],
    "capInsets": [
      0,
      0,
      0,
      0
    ]
  }
}