{
  "__type__": "cc.SpriteFrame",
  "content": {
    "name": "k",
    "texture": "5eARtjvEVE/YaSkukdzlYt",
    "rect": [
      0,
      0,
      85,
      91
    ],
    "offset": [
      0,
      0
    ],
    "originalSize": [
      85,
      91
    ],
    "capInsets": [
      0,
      0,
      0,
      0
    ]
  }
}