[
  {
    "__type__": "cc.SpriteFrame",
    "content": {
      "name": "default_btn_disabled",
      "texture": "71VhFCTINJM6/Ky3oX9nBT",
      "rect": [
        0,
        0,
        40,
        40
      ],
      "offset": [
        0,
        0
      ],
      "originalSize": [
        40,
        40
      ],
      "capInsets": [
        12,
        12,
        12,
        12
      ]
    }
  },
  {
    "__type__": "cc.SpriteFrame",
    "content": {
      "name": "font",
      "texture": "ebF6Kq7AFGtJ7aikFJITQg",
      "rect": [
        2,
        2,
        450,
        508
      ],
      "offset": [
        0,
        0
      ],
      "originalSize": [
        454,
        512
      ],
      "capInsets": [
        0,
        0,
        0,
        0
      ]
    }
  },
  {
    "__type__": "cc.ParticleAsset",
    "_name": "particle_shi2",
    "_native": ".plist"
  },
  [
    {
      "__type__": "cc.Prefab",
      "_name": "Slot7",
      "data": {
        "__id__": 1
      }
    },
    {
      "__type__": "cc.Node",
      "_name": "Slot7",
      "_children": [
        {
          "__id__": 2
        },
        {
          "__id__": 64
        },
        {
          "__id__": 26
        }
      ],
      "_level": 1,
      "_components": [
        {
          "__id__": 14
        },
        {
          "__type__": "5ef01XT1HpLlp3tCOqxW2WJ",
          "node": {
            "__id__": 1
          },
          "totalPayLines": 25,
          "shieldSke": {
            "__id__": 31
          },
          "parShield": {
            "__id__": 32
          },
          "tornado": {
            "__id__": 30
          },
          "birdAni": {
            "__id__": 63
          }
        },
        {
          "__type__": "cc.Widget",
          "node": {
            "__id__": 1
          },
          "alignMode": 0,
          "_alignFlags": 42,
          "_originalWidth": 1280,
          "_originalHeight": 720
        }
      ],
      "_prefab": {
        "__type__": "cc.PrefabInfo",
        "root": {
          "__id__": 1
        },
        "asset": {
          "__uuid__": "dc9SelZBxKt4ejqiwpSxW1"
        },
        "fileId": "cf7j17UjhMMIovxyH0gY3n"
      },
      "_contentSize": {
        "__type__": "cc.Size",
        "width": 1280,
        "height": 720
      },
      "_position": {
        "__type__": "cc.Vec3",
        "x": 640,
        "y": 360
      }
    },
    {
      "__type__": "cc.Node",
      "_name": "container",
      "_parent": {
        "__id__": 1
      },
      "_children": [
        {
          "__id__": 3
        },
        {
          "__id__": 15
        }
      ],
      "_components": [
        {
          "__type__": "cc.Widget",
          "node": {
            "__id__": 2
          },
          "alignMode": 0,
          "_alignFlags": 40
        }
      ],
      "_prefab": {
        "__type__": "cc.PrefabInfo",
        "root": {
          "__id__": 1
        },
        "asset": {
          "__uuid__": "dc9SelZBxKt4ejqiwpSxW1"
        },
        "fileId": "731h2TxcpNg5PRU2drU0P3"
      },
      "_contentSize": {
        "__type__": "cc.Size",
        "width": 1280
      }
    },
    {
      "__type__": "cc.Node",
      "_name": "main",
      "_parent": {
        "__id__": 2
      },
      "_children": [
        {
          "__id__": 4
        },
        {
          "__id__": 5
        },
        {
          "__id__": 28
        },
        {
          "__id__": 63
        }
      ],
      "_level": 1,
      "_prefab": {
        "__type__": "cc.PrefabInfo",
        "root": {
          "__id__": 1
        },
        "asset": {
          "__uuid__": "dc9SelZBxKt4ejqiwpSxW1"
        },
        "fileId": "65uVx+uK9OB5fG7nLKXfkV"
      },
      "_contentSize": {
        "__type__": "cc.Size",
        "width": 830,
        "height": 528
      },
      "_position": {
        "__type__": "cc.Vec3",
        "y": 15
      }
    },
    {
      "__type__": "cc.Node",
      "_name": "khung_bg",
      "_parent": {
        "__id__": 3
      },
      "_level": 2,
      "_components": [
        {
          "__type__": "cc.Sprite",
          "node": {
            "__id__": 4
          }
        }
      ],
      "_prefab": {
        "__type__": "cc.PrefabInfo",
        "root": {
          "__id__": 1
        },
        "asset": {
          "__uuid__": "dc9SelZBxKt4ejqiwpSxW1"
        },
        "fileId": "f149eevLFNHZHK8zgA+1OG"
      },
      "_contentSize": {
        "__type__": "cc.Size",
        "width": 831,
        "height": 458
      },
      "_position": {
        "__type__": "cc.Vec3",
        "x": 4,
        "y": -41.99999999999994
      }
    },
    {
      "__type__": "cc.Node",
      "_name": "tableView",
      "_parent": {
        "__id__": 3
      },
      "_children": [
        {
          "__id__": 6
        }
      ],
      "_level": 2,
      "_components": [
        {
          "__type__": "cc.Mask",
          "node": {
            "__id__": 5
          }
        },
        {
          "__type__": "cc.Widget",
          "node": {
            "__id__": 5
          },
          "_alignFlags": 45,
          "_left": 4.899999999999977,
          "_right": -3.5,
          "_top": 76.90000000000003,
          "_bottom": -5.600000000000023,
          "_originalWidth": 828.3,
          "_originalHeight": 526.7
        }
      ],
      "_prefab": {
        "__type__": "cc.PrefabInfo",
        "root": {
          "__id__": 1
        },
        "asset": {
          "__uuid__": "dc9SelZBxKt4ejqiwpSxW1"
        },
        "fileId": "451rwzq6tPbZaonSrDB/FN"
      },
      "_contentSize": {
        "__type__": "cc.Size",
        "width": 828.6,
        "height": 456.7
      },
      "_anchorPoint": {
        "__type__": "cc.Vec2"
      },
      "_position": {
        "__type__": "cc.Vec3",
        "x": -410.1,
        "y": -269.6
      }
    },
    {
      "__type__": "cc.Node",
      "_name": "itemSlot",
      "_parent": {
        "__id__": 5
      },
      "_children": [
        {
          "__id__": 7
        },
        {
          "__id__": 9
        },
        {
          "__id__": 10
        },
        {
          "__id__": 12
        }
      ],
      "_level": 4,
      "_components": [
        {
          "__type__": "f995aMrajBOQLo9kdlBnyOl",
          "node": {
            "__id__": 6
          },
          "slotsControllerNode": {
            "__id__": 1
          },
          "zoomAni": {
            "__uuid__": "179U4jdvVMHJU+NYYUFjtJ"
          },
          "mainItemSke": {
            "__id__": 8
          },
          "slotsController": {
            "__id__": 14
          },
          "aniBorder": {
            "__id__": 12
          }
        }
      ],
      "_prefab": {
        "__type__": "cc.PrefabInfo",
        "root": {
          "__id__": 1
        },
        "asset": {
          "__uuid__": "dc9SelZBxKt4ejqiwpSxW1"
        },
        "fileId": "f3IIxK5+JNBKNDGQZwoTFL"
      },
      "_contentSize": {
        "__type__": "cc.Size",
        "width": 159,
        "height": 130
      },
      "_position": {
        "__type__": "cc.Vec3",
        "x": -417,
        "y": 238
      }
    },
    {
      "__type__": "cc.Node",
      "_name": "item_skeleton",
      "_parent": {
        "__id__": 6
      },
      "_level": 3,
      "_components": [
        {
          "__id__": 8
        }
      ],
      "_prefab": {
        "__type__": "cc.PrefabInfo",
        "root": {
          "__id__": 1
        },
        "asset": {
          "__uuid__": "dc9SelZBxKt4ejqiwpSxW1"
        },
        "fileId": "c3mEePZp1OgZvIRhzNrFS2"
      }
    },
    {
      "__type__": "sp.Skeleton",
      "node": {
        "__id__": 7
      },
      "_preCacheMode": 0,
      "_animationName": "caikhien"
    },
    {
      "__type__": "cc.Node",
      "_name": "shield-label",
      "_parent": {
        "__id__": 6
      },
      "_active": false,
      "_level": 4,
      "_components": [
        {
          "__type__": "cc.Label",
          "node": {
            "__id__": 9
          },
          "_string": "100",
          "_N$string": "100",
          "_lineHeight": 80,
          "_N$file": {
            "__uuid__": "97kPzCYMhHGLtlQ/zjS4EU"
          },
          "_isSystemFontUsed": false,
          "_N$horizontalAlign": 1,
          "_N$verticalAlign": 1
        }
      ],
      "_prefab": {
        "__type__": "cc.PrefabInfo",
        "root": {
          "__id__": 1
        },
        "asset": {
          "__uuid__": "dc9SelZBxKt4ejqiwpSxW1"
        },
        "fileId": "8fCZqhZS9Ms6r1qLPuaoqf"
      },
      "_color": {
        "__type__": "cc.Color",
        "r": 255,
        "g": 204,
        "b": 2
      },
      "_contentSize": {
        "__type__": "cc.Size",
        "width": 72.78,
        "height": 44.44
      }
    },
    {
      "__type__": "cc.Node",
      "_name": "chem_ani",
      "_parent": {
        "__id__": 6
      },
      "_active": false,
      "_level": 3,
      "_components": [
        {
          "__id__": 11
        }
      ],
      "_prefab": {
        "__type__": "cc.PrefabInfo",
        "root": {
          "__id__": 1
        },
        "asset": {
          "__uuid__": "dc9SelZBxKt4ejqiwpSxW1"
        },
        "fileId": "3cb0eWa/JAJ74GVpgxpIG3"
      },
      "_contentSize": {
        "__type__": "cc.Size",
        "width": 168,
        "height": 142
      }
    },
    {
      "__type__": "sp.Skeleton",
      "node": {
        "__id__": 10
      },
      "_preCacheMode": 0,
      "loop": false,
      "timeScale": 1.3,
      "_animationName": "chem_ani",
      "_playTimes": 1
    },
    {
      "__type__": "cc.Node",
      "_name": "khung_ani",
      "_parent": {
        "__id__": 6
      },
      "_active": false,
      "_level": 5,
      "_components": [
        {
          "__id__": 13
        }
      ],
      "_prefab": {
        "__type__": "cc.PrefabInfo",
        "root": {
          "__id__": 1
        },
        "asset": {
          "__uuid__": "dc9SelZBxKt4ejqiwpSxW1"
        },
        "fileId": "0bEWfPdD1Ji5jfREpWdhQm"
      },
      "_contentSize": {
        "__type__": "cc.Size",
        "width": 166,
        "height": 155
      }
    },
    {
      "__type__": "sp.Skeleton",
      "node": {
        "__id__": 12
      },
      "_preCacheMode": 0,
      "_animationName": "animation"
    },
    {
      "__type__": "ffc09fygINLyIuWrcreDebd",
      "node": {
        "__id__": 1
      },
      "gameId": "sm2007",
      "tableView": {
        "__id__": 5
      },
      "itemSlot": {
        "__id__": 6
      },
      "payTabel": {
        "__id__": 15
      },
      "miniGamePrefab": {
        "__uuid__": "c80gxoIpdG4rakbQkYbpfk"
      },
      "resourceController": {
        "__id__": 25
      },
      "lbReward": [
        {
          "__id__": 39
        },
        {
          "__id__": 41
        },
        {
          "__id__": 43
        },
        {
          "__id__": 45
        }
      ],
      "review": {
        "__id__": 47
      },
      "activeReel": {
        "__id__": 48
      },
      "reelsColor": {
        "__id__": 29
      },
      "overlay": {
        "__id__": 46
      },
      "reel": {
        "__id__": 33
      },
      "Lockreels": {
        "__id__": 35
      },
      "rewardWin": {
        "__id__": 57
      }
    },
    {
      "__type__": "cc.Node",
      "_name": "PayTabel",
      "_parent": {
        "__id__": 2
      },
      "_children": [
        {
          "__id__": 16
        },
        {
          "__id__": 17
        },
        {
          "__id__": 21
        }
      ],
      "_active": false,
      "_level": 1,
      "_prefab": {
        "__type__": "cc.PrefabInfo",
        "root": {
          "__id__": 1
        },
        "asset": {
          "__uuid__": "dc9SelZBxKt4ejqiwpSxW1"
        },
        "fileId": "79PR1FKQFH6ruE8uK8qyLj"
      }
    },
    {
      "__type__": "cc.Node",
      "_name": "const-overlay",
      "_parent": {
        "__id__": 15
      },
      "_level": 3,
      "_components": [
        {
          "__type__": "cc.Sprite",
          "node": {
            "__id__": 16
          },
          "_spriteFrame": {
            "__uuid__": "f38gzWUbZCIrJsjc0TrFDp"
          }
        },
        {
          "__type__": "cc.Button",
          "node": {
            "__id__": 16
          },
          "_N$interactable": false
        }
      ],
      "_prefab": {
        "__type__": "cc.PrefabInfo",
        "root": {
          "__id__": 1
        },
        "asset": {
          "__uuid__": "dc9SelZBxKt4ejqiwpSxW1"
        },
        "fileId": "a3eBtPG51IBL57Mcj03C2U"
      },
      "_opacity": 170,
      "_contentSize": {
        "__type__": "cc.Size",
        "width": 1280,
        "height": 720
      }
    },
    {
      "__type__": "cc.Node",
      "_name": "container",
      "_parent": {
        "__id__": 15
      },
      "_children": [
        {
          "__id__": 18
        },
        {
          "__id__": 19
        },
        {
          "__id__": 20
        }
      ],
      "_level": 3,
      "_prefab": {
        "__type__": "cc.PrefabInfo",
        "root": {
          "__id__": 1
        },
        "asset": {
          "__uuid__": "dc9SelZBxKt4ejqiwpSxW1"
        },
        "fileId": "bcat0TZbRKaLiUpNt2AGKr"
      }
    },
    {
      "__type__": "cc.Node",
      "_name": "bg_payTabel",
      "_parent": {
        "__id__": 17
      },
      "_level": 4,
      "_components": [
        {
          "__type__": "cc.Sprite",
          "node": {
            "__id__": 18
          }
        }
      ],
      "_prefab": {
        "__type__": "cc.PrefabInfo",
        "root": {
          "__id__": 1
        },
        "asset": {
          "__uuid__": "dc9SelZBxKt4ejqiwpSxW1"
        },
        "fileId": "212uMKkLpLHZGxXdVXCdKP"
      },
      "_contentSize": {
        "__type__": "cc.Size",
        "width": 910,
        "height": 591
      }
    },
    {
      "__type__": "cc.Node",
      "_name": "title",
      "_parent": {
        "__id__": 17
      },
      "_level": 4,
      "_components": [
        {
          "__type__": "cc.Sprite",
          "node": {
            "__id__": 19
          }
        }
      ],
      "_prefab": {
        "__type__": "cc.PrefabInfo",
        "root": {
          "__id__": 1
        },
        "asset": {
          "__uuid__": "dc9SelZBxKt4ejqiwpSxW1"
        },
        "fileId": "e0EHyPGAZAJYHBDjfTBs+/"
      },
      "_contentSize": {
        "__type__": "cc.Size",
        "width": 288,
        "height": 27
      },
      "_position": {
        "__type__": "cc.Vec3",
        "y": 234
      }
    },
    {
      "__type__": "cc.Node",
      "_name": "scatter_shields_txt",
      "_parent": {
        "__id__": 17
      },
      "_level": 4,
      "_components": [
        {
          "__type__": "cc.Sprite",
          "node": {
            "__id__": 20
          }
        }
      ],
      "_prefab": {
        "__type__": "cc.PrefabInfo",
        "root": {
          "__id__": 1
        },
        "asset": {
          "__uuid__": "dc9SelZBxKt4ejqiwpSxW1"
        },
        "fileId": "19cIWACMxNYYbX+PBwR7YT"
      },
      "_contentSize": {
        "__type__": "cc.Size",
        "width": 752,
        "height": 331
      }
    },
    {
      "__type__": "cc.Node",
      "_name": "button",
      "_parent": {
        "__id__": 15
      },
      "_children": [
        {
          "__id__": 22
        },
        {
          "__id__": 23
        },
        {
          "__id__": 24
        }
      ],
      "_level": 2,
      "_prefab": {
        "__type__": "cc.PrefabInfo",
        "root": {
          "__id__": 1
        },
        "asset": {
          "__uuid__": "dc9SelZBxKt4ejqiwpSxW1"
        },
        "fileId": "b4EWUzRAlDAq9f4vc9UWBZ"
      },
      "_position": {
        "__type__": "cc.Vec3",
        "x": 2,
        "y": -242
      }
    },
    {
      "__type__": "cc.Node",
      "_name": "backtogame_left",
      "_parent": {
        "__id__": 21
      },
      "_level": 3,
      "_components": [
        {
          "__type__": "cc.Sprite",
          "node": {
            "__id__": 22
          }
        },
        {
          "__type__": "cc.Button",
          "node": {
            "__id__": 22
          },
          "zoomScale": 0.9,
          "clickEvents": [
            {
              "__type__": "cc.ClickEvent",
              "target": {
                "__id__": 1
              },
              "_componentId": "ffc09fygINLyIuWrcreDebd",
              "handler": "buttonPayTable",
              "customEventData": "-1"
            }
          ],
          "_N$transition": 3,
          "transition": 3
        }
      ],
      "_prefab": {
        "__type__": "cc.PrefabInfo",
        "root": {
          "__id__": 1
        },
        "asset": {
          "__uuid__": "dc9SelZBxKt4ejqiwpSxW1"
        },
        "fileId": "a2mifLUCxENLZi6UjOfIq0"
      },
      "_contentSize": {
        "__type__": "cc.Size",
        "width": 77,
        "height": 86
      },
      "_position": {
        "__type__": "cc.Vec3",
        "x": -224.5
      }
    },
    {
      "__type__": "cc.Node",
      "_name": "backtogame_center",
      "_parent": {
        "__id__": 21
      },
      "_level": 3,
      "_components": [
        {
          "__type__": "cc.Sprite",
          "node": {
            "__id__": 23
          }
        },
        {
          "__type__": "cc.Button",
          "node": {
            "__id__": 23
          },
          "zoomScale": 0.95,
          "clickEvents": [
            {
              "__type__": "cc.ClickEvent",
              "target": {
                "__id__": 1
              },
              "_componentId": "ffc09fygINLyIuWrcreDebd",
              "handler": "buttonPayTable",
              "customEventData": "0"
            }
          ],
          "_N$transition": 3,
          "transition": 3
        }
      ],
      "_prefab": {
        "__type__": "cc.PrefabInfo",
        "root": {
          "__id__": 1
        },
        "asset": {
          "__uuid__": "dc9SelZBxKt4ejqiwpSxW1"
        },
        "fileId": "9cx7C7xy1CrosaesfrxzPl"
      },
      "_contentSize": {
        "__type__": "cc.Size",
        "width": 333,
        "height": 85
      }
    },
    {
      "__type__": "cc.Node",
      "_name": "backtogame_right",
      "_parent": {
        "__id__": 21
      },
      "_level": 3,
      "_components": [
        {
          "__type__": "cc.Sprite",
          "node": {
            "__id__": 24
          }
        },
        {
          "__type__": "cc.Button",
          "node": {
            "__id__": 24
          },
          "zoomScale": 0.9,
          "clickEvents": [
            {
              "__type__": "cc.ClickEvent",
              "target": {
                "__id__": 1
              },
              "_componentId": "ffc09fygINLyIuWrcreDebd",
              "handler": "buttonPayTable",
              "customEventData": "1"
            }
          ],
          "_N$transition": 3,
          "transition": 3
        }
      ],
      "_prefab": {
        "__type__": "cc.PrefabInfo",
        "root": {
          "__id__": 1
        },
        "asset": {
          "__uuid__": "dc9SelZBxKt4ejqiwpSxW1"
        },
        "fileId": "91c2v5oTdOgoNV+ZfZK8Dh"
      },
      "_contentSize": {
        "__type__": "cc.Size",
        "width": 77,
        "height": 86
      },
      "_position": {
        "__type__": "cc.Vec3",
        "x": 228.3
      }
    },
    {
      "__type__": "3a62a3ASLRBvqlnpG/gAYhV",
      "node": {
        "__id__": 26
      },
      "listImage": [
        {
          "__type__": "ImageItem",
          "image": {
            "__id__": 4
          }
        },
        {
          "__type__": "ImageItem",
          "image": {
            "__id__": 27
          }
        },
        {
          "__type__": "ImageItem",
          "image": {
            "__id__": 33
          }
        },
        {
          "__type__": "ImageItem",
          "image": {
            "__id__": 35
          }
        },
        {
          "__type__": "ImageItem",
          "image": {
            "__id__": 46
          }
        },
        {
          "__type__": "ImageItem",
          "image": {
            "__id__": 47
          }
        },
        {
          "__type__": "ImageItem",
          "image": {
            "__id__": 48
          }
        },
        {
          "__type__": "ImageItem",
          "image": {
            "__id__": 49
          }
        },
        {
          "__type__": "ImageItem",
          "image": {
            "__id__": 50
          }
        },
        {
          "__type__": "ImageItem",
          "image": {
            "__id__": 51
          }
        },
        {
          "__type__": "ImageItem",
          "image": {
            "__id__": 58
          }
        },
        {
          "__type__": "ImageItem",
          "image": {
            "__id__": 59
          }
        },
        {
          "__type__": "ImageItem",
          "image": {
            "__id__": 22
          }
        },
        {
          "__type__": "ImageItem",
          "image": {
            "__id__": 23
          }
        },
        {
          "__type__": "ImageItem",
          "image": {
            "__id__": 24
          }
        }
      ],
      "listSkeleton": [
        {
          "__type__": "SkeletonItem",
          "skeleton": {
            "__id__": 62
          },
          "folderName": "bird_ani",
          "animationName": "ani_bay"
        },
        {
          "__type__": "SkeletonItem",
          "skeleton": {
            "__id__": 11
          },
          "folderName": "chem_ani",
          "animationName": "chem_ani"
        },
        {
          "__type__": "SkeletonItem",
          "skeleton": {
            "__id__": 13
          },
          "folderName": "khung_ani",
          "animationName": "animation"
        },
        {
          "__type__": "SkeletonItem",
          "skeleton": {
            "__id__": 31
          },
          "folderName": "locxoay",
          "animationName": "animation"
        },
        {
          "__type__": "SkeletonItem",
          "skeleton": {
            "__id__": 8
          },
          "folderName": "cut_item_ani",
          "animationName": "caikhien"
        }
      ],
      "listPrefab": [
        {
          "__type__": "PrefabItem",
          "prefab": {
            "__uuid__": "c80gxoIpdG4rakbQkYbpfk"
          },
          "customPath": "minigame"
        }
      ]
    },
    {
      "__type__": "cc.Node",
      "_name": "ResourceController",
      "_parent": {
        "__id__": 1
      },
      "_level": 2,
      "_components": [
        {
          "__id__": 25
        }
      ],
      "_prefab": {
        "__type__": "cc.PrefabInfo",
        "root": {
          "__id__": 1
        },
        "asset": {
          "__uuid__": "dc9SelZBxKt4ejqiwpSxW1"
        },
        "fileId": "c2WSnu5tJOmqObRKlYvmvN"
      }
    },
    {
      "__type__": "cc.Node",
      "_name": "khung",
      "_parent": {
        "__id__": 28
      },
      "_level": 3,
      "_components": [
        {
          "__type__": "cc.Sprite",
          "node": {
            "__id__": 27
          }
        }
      ],
      "_prefab": {
        "__type__": "cc.PrefabInfo",
        "root": {
          "__id__": 1
        },
        "asset": {
          "__uuid__": "dc9SelZBxKt4ejqiwpSxW1"
        },
        "fileId": "33WuZq1MFEoYOZ653Pv35w"
      },
      "_contentSize": {
        "__type__": "cc.Size",
        "width": 1006,
        "height": 606
      }
    },
    {
      "__type__": "cc.Node",
      "_name": "content",
      "_parent": {
        "__id__": 3
      },
      "_children": [
        {
          "__id__": 27
        },
        {
          "__id__": 29
        },
        {
          "__id__": 30
        },
        {
          "__id__": 32
        },
        {
          "__id__": 33
        },
        {
          "__id__": 35
        },
        {
          "__id__": 37
        },
        {
          "__id__": 46
        },
        {
          "__id__": 47
        },
        {
          "__id__": 48
        },
        {
          "__id__": 57
        }
      ],
      "_level": 2,
      "_prefab": {
        "__type__": "cc.PrefabInfo",
        "root": {
          "__id__": 1
        },
        "asset": {
          "__uuid__": "dc9SelZBxKt4ejqiwpSxW1"
        },
        "fileId": "34I/jRa+ZLDqibJEOGI1Q0"
      },
      "_contentSize": {
        "__type__": "cc.Size",
        "width": 1073,
        "height": 592
      },
      "_position": {
        "__type__": "cc.Vec3",
        "x": -2.5579538487363607e-13
      }
    },
    {
      "__type__": "cc.Node",
      "_name": "khung_reels_5",
      "_parent": {
        "__id__": 28
      },
      "_level": 2,
      "_components": [
        {
          "__type__": "cc.Sprite",
          "node": {
            "__id__": 29
          }
        }
      ],
      "_prefab": {
        "__type__": "cc.PrefabInfo",
        "root": {
          "__id__": 1
        },
        "asset": {
          "__uuid__": "dc9SelZBxKt4ejqiwpSxW1"
        },
        "fileId": "240k2vNsNOQq+v399Pimpf"
      },
      "_contentSize": {
        "__type__": "cc.Size",
        "width": 830,
        "height": 458
      },
      "_anchorPoint": {
        "__type__": "cc.Vec2",
        "y": 0.5
      },
      "_position": {
        "__type__": "cc.Vec3",
        "x": -411,
        "y": -41
      }
    },
    {
      "__type__": "cc.Node",
      "_name": "locxoay",
      "_parent": {
        "__id__": 28
      },
      "_level": 3,
      "_components": [
        {
          "__id__": 31
        }
      ],
      "_prefab": {
        "__type__": "cc.PrefabInfo",
        "root": {
          "__id__": 1
        },
        "asset": {
          "__uuid__": "dc9SelZBxKt4ejqiwpSxW1"
        },
        "fileId": "7dzK8gn55PLYOg3qnVxu/u"
      },
      "_contentSize": {
        "__type__": "cc.Size",
        "width": 223,
        "height": 208
      },
      "_position": {
        "__type__": "cc.Vec3",
        "x": -849.6,
        "y": -1.4
      }
    },
    {
      "__type__": "sp.Skeleton",
      "node": {
        "__id__": 30
      },
      "_preCacheMode": 0,
      "_animationName": "animation"
    },
    {
      "__type__": "cc.Node",
      "_name": "particle_shi2",
      "_parent": {
        "__id__": 28
      },
      "_active": false,
      "_level": 3,
      "_components": [
        {
          "__type__": "cc.ParticleSystem",
          "node": {
            "__id__": 32
          },
          "_dstBlendFactor": 1,
          "_custom": true,
          "_file": {
            "__uuid__": "c8PfP81YtErID57TaauonY"
          },
          "totalParticles": 350,
          "emissionRate": 262.85714285714283,
          "life": 2.1,
          "lifeVar": 0.4,
          "_startColor": {
            "__type__": "cc.Color",
            "r": 51,
            "g": 102,
            "b": 175
          },
          "_startColorVar": {
            "__type__": "cc.Color",
            "b": 51,
            "a": 25
          },
          "_endColor": {
            "__type__": "cc.Color"
          },
          "_endColorVar": {
            "__type__": "cc.Color",
            "a": 0
          },
          "angle": -180,
          "angleVar": 360,
          "startSize": 20,
          "startSizeVar": 10,
          "endSize": -1,
          "startSpin": 720,
          "posVar": {
            "__type__": "cc.Vec2",
            "x": 15,
            "y": -20
          },
          "speed": 20,
          "speedVar": 5,
          "tangentialAccel": 0
        }
      ],
      "_prefab": {
        "__type__": "cc.PrefabInfo",
        "root": {
          "__id__": 1
        },
        "asset": {
          "__uuid__": "dc9SelZBxKt4ejqiwpSxW1"
        },
        "fileId": "71ZyedMjdEqpofWv26wymB"
      },
      "_anchorPoint": {
        "__type__": "cc.Vec2"
      },
      "_position": {
        "__type__": "cc.Vec3",
        "x": 358,
        "y": -152
      }
    },
    {
      "__type__": "cc.Node",
      "_name": "active_reels",
      "_parent": {
        "__id__": 28
      },
      "_children": [
        {
          "__id__": 34
        }
      ],
      "_level": 2,
      "_components": [
        {
          "__type__": "cc.Sprite",
          "node": {
            "__id__": 33
          }
        },
        {
          "__type__": "cc.Button",
          "node": {
            "__id__": 33
          },
          "zoomScale": 0.95,
          "clickEvents": [
            {
              "__type__": "cc.ClickEvent",
              "target": {
                "__id__": 1
              },
              "_componentId": "ffc09fygINLyIuWrcreDebd",
              "handler": "showActiveReel"
            }
          ],
          "_N$transition": 3,
          "transition": 3
        }
      ],
      "_prefab": {
        "__type__": "cc.PrefabInfo",
        "root": {
          "__id__": 1
        },
        "asset": {
          "__uuid__": "dc9SelZBxKt4ejqiwpSxW1"
        },
        "fileId": "e13O+5xQNM1rxFEyNRbHsb"
      },
      "_contentSize": {
        "__type__": "cc.Size",
        "width": 192,
        "height": 90
      },
      "_position": {
        "__type__": "cc.Vec3",
        "x": -420,
        "y": -170
      }
    },
    {
      "__type__": "cc.Node",
      "_name": "active_reels_button_05",
      "_parent": {
        "__id__": 33
      },
      "_level": 3,
      "_components": [
        {
          "__type__": "cc.Sprite",
          "node": {
            "__id__": 34
          }
        }
      ],
      "_prefab": {
        "__type__": "cc.PrefabInfo",
        "root": {
          "__id__": 1
        },
        "asset": {
          "__uuid__": "dc9SelZBxKt4ejqiwpSxW1"
        },
        "fileId": "423KHcxlpIG6F3PSkwKquu"
      },
      "_contentSize": {
        "__type__": "cc.Size",
        "width": 66,
        "height": 36
      },
      "_position": {
        "__type__": "cc.Vec3",
        "x": 30,
        "y": 8
      }
    },
    {
      "__type__": "cc.Node",
      "_name": "lock_reels",
      "_parent": {
        "__id__": 28
      },
      "_children": [
        {
          "__id__": 36
        }
      ],
      "_active": false,
      "_level": 2,
      "_components": [
        {
          "__type__": "cc.Sprite",
          "node": {
            "__id__": 35
          }
        },
        {
          "__type__": "cc.Button",
          "node": {
            "__id__": 35
          },
          "zoomScale": 0.95,
          "_N$interactable": false
        }
      ],
      "_prefab": {
        "__type__": "cc.PrefabInfo",
        "root": {
          "__id__": 1
        },
        "asset": {
          "__uuid__": "dc9SelZBxKt4ejqiwpSxW1"
        },
        "fileId": "cbfi38iolL14sb3EmVMPfW"
      },
      "_contentSize": {
        "__type__": "cc.Size",
        "width": 192,
        "height": 90
      },
      "_position": {
        "__type__": "cc.Vec3",
        "x": -420,
        "y": -170
      }
    },
    {
      "__type__": "cc.Node",
      "_name": "power_reels_lock_5",
      "_parent": {
        "__id__": 35
      },
      "_level": 3,
      "_components": [
        {
          "__type__": "cc.Sprite",
          "node": {
            "__id__": 36
          }
        }
      ],
      "_prefab": {
        "__type__": "cc.PrefabInfo",
        "root": {
          "__id__": 1
        },
        "asset": {
          "__uuid__": "dc9SelZBxKt4ejqiwpSxW1"
        },
        "fileId": "e8pied0FJEE6tcyQhZfjsP"
      },
      "_contentSize": {
        "__type__": "cc.Size",
        "width": 67,
        "height": 36
      },
      "_position": {
        "__type__": "cc.Vec3",
        "x": 29.5,
        "y": 8
      }
    },
    {
      "__type__": "cc.Node",
      "_name": "bonus",
      "_parent": {
        "__id__": 28
      },
      "_children": [
        {
          "__id__": 38
        },
        {
          "__id__": 40
        },
        {
          "__id__": 42
        },
        {
          "__id__": 44
        }
      ],
      "_level": 2,
      "_prefab": {
        "__type__": "cc.PrefabInfo",
        "root": {
          "__id__": 1
        },
        "asset": {
          "__uuid__": "dc9SelZBxKt4ejqiwpSxW1"
        },
        "fileId": "92368ejclJl5p8V6i8bYoH"
      },
      "_contentSize": {
        "__type__": "cc.Size",
        "width": 1280,
        "height": 63
      },
      "_position": {
        "__type__": "cc.Vec3",
        "y": 238
      }
    },
    {
      "__type__": "cc.Node",
      "_name": "mini",
      "_parent": {
        "__id__": 37
      },
      "_level": 3,
      "_components": [
        {
          "__id__": 39
        }
      ],
      "_prefab": {
        "__type__": "cc.PrefabInfo",
        "root": {
          "__id__": 1
        },
        "asset": {
          "__uuid__": "dc9SelZBxKt4ejqiwpSxW1"
        },
        "fileId": "af/Hs6aEpHvLI8xZ3VV8Ca"
      },
      "_opacity": 170,
      "_contentSize": {
        "__type__": "cc.Size",
        "width": 94.1,
        "height": 19.1
      },
      "_position": {
        "__type__": "cc.Vec3",
        "x": -305
      }
    },
    {
      "__type__": "cc.Label",
      "node": {
        "__id__": 38
      },
      "_useOriginalSize": false,
      "_string": "100,000",
      "_N$string": "100,000",
      "_fontSize": 25,
      "_lineHeight": 55,
      "_N$file": {
        "__uuid__": "dd8/Q5j/JNIIC/cQmoxk3E"
      },
      "_isSystemFontUsed": false,
      "_N$horizontalAlign": 1,
      "_N$verticalAlign": 1
    },
    {
      "__type__": "cc.Node",
      "_name": "minor",
      "_parent": {
        "__id__": 37
      },
      "_level": 3,
      "_components": [
        {
          "__id__": 41
        }
      ],
      "_prefab": {
        "__type__": "cc.PrefabInfo",
        "root": {
          "__id__": 1
        },
        "asset": {
          "__uuid__": "dc9SelZBxKt4ejqiwpSxW1"
        },
        "fileId": "6dRXrTa8JFqaJcIPeVulGb"
      },
      "_opacity": 170,
      "_contentSize": {
        "__type__": "cc.Size",
        "width": 94.1,
        "height": 19.1
      },
      "_position": {
        "__type__": "cc.Vec3",
        "x": -100
      }
    },
    {
      "__type__": "cc.Label",
      "node": {
        "__id__": 40
      },
      "_useOriginalSize": false,
      "_string": "100,000",
      "_N$string": "100,000",
      "_fontSize": 25,
      "_lineHeight": 55,
      "_N$file": {
        "__uuid__": "dd8/Q5j/JNIIC/cQmoxk3E"
      },
      "_isSystemFontUsed": false,
      "_N$horizontalAlign": 1,
      "_N$verticalAlign": 1
    },
    {
      "__type__": "cc.Node",
      "_name": "major",
      "_parent": {
        "__id__": 37
      },
      "_level": 3,
      "_components": [
        {
          "__id__": 43
        }
      ],
      "_prefab": {
        "__type__": "cc.PrefabInfo",
        "root": {
          "__id__": 1
        },
        "asset": {
          "__uuid__": "dc9SelZBxKt4ejqiwpSxW1"
        },
        "fileId": "cbRgBtvodMs7smbmnLlUzi"
      },
      "_opacity": 170,
      "_contentSize": {
        "__type__": "cc.Size",
        "width": 115.28,
        "height": 19.1
      },
      "_position": {
        "__type__": "cc.Vec3",
        "x": 106
      }
    },
    {
      "__type__": "cc.Label",
      "node": {
        "__id__": 42
      },
      "_useOriginalSize": false,
      "_string": "1,000,000",
      "_N$string": "1,000,000",
      "_fontSize": 25,
      "_lineHeight": 55,
      "_N$file": {
        "__uuid__": "dd8/Q5j/JNIIC/cQmoxk3E"
      },
      "_isSystemFontUsed": false,
      "_N$horizontalAlign": 1,
      "_N$verticalAlign": 1
    },
    {
      "__type__": "cc.Node",
      "_name": "mega",
      "_parent": {
        "__id__": 37
      },
      "_level": 3,
      "_components": [
        {
          "__id__": 45
        }
      ],
      "_prefab": {
        "__type__": "cc.PrefabInfo",
        "root": {
          "__id__": 1
        },
        "asset": {
          "__uuid__": "dc9SelZBxKt4ejqiwpSxW1"
        },
        "fileId": "64FThpiIxIVbaPMTOtuo2y"
      },
      "_opacity": 170,
      "_contentSize": {
        "__type__": "cc.Size",
        "width": 129.86,
        "height": 19.1
      },
      "_position": {
        "__type__": "cc.Vec3",
        "x": 312
      }
    },
    {
      "__type__": "cc.Label",
      "node": {
        "__id__": 44
      },
      "_useOriginalSize": false,
      "_string": "10,000,000",
      "_N$string": "10,000,000",
      "_fontSize": 25,
      "_lineHeight": 55,
      "_N$file": {
        "__uuid__": "dd8/Q5j/JNIIC/cQmoxk3E"
      },
      "_isSystemFontUsed": false,
      "_N$horizontalAlign": 1,
      "_N$verticalAlign": 1
    },
    {
      "__type__": "cc.Node",
      "_name": "overlay",
      "_parent": {
        "__id__": 28
      },
      "_active": false,
      "_level": 2,
      "_components": [
        {
          "__type__": "cc.Sprite",
          "node": {
            "__id__": 46
          }
        },
        {
          "__type__": "cc.Button",
          "node": {
            "__id__": 46
          },
          "_N$interactable": false
        }
      ],
      "_prefab": {
        "__type__": "cc.PrefabInfo",
        "root": {
          "__id__": 1
        },
        "asset": {
          "__uuid__": "dc9SelZBxKt4ejqiwpSxW1"
        },
        "fileId": "1bUjve8q5CEI551ChOXkOl"
      },
      "_contentSize": {
        "__type__": "cc.Size",
        "width": 1280,
        "height": 720
      }
    },
    {
      "__type__": "cc.Node",
      "_name": "review",
      "_parent": {
        "__id__": 28
      },
      "_active": false,
      "_level": 2,
      "_components": [
        {
          "__type__": "cc.Sprite",
          "node": {
            "__id__": 47
          }
        }
      ],
      "_prefab": {
        "__type__": "cc.PrefabInfo",
        "root": {
          "__id__": 1
        },
        "asset": {
          "__uuid__": "dc9SelZBxKt4ejqiwpSxW1"
        },
        "fileId": "92T63mRTFCyYk2aKOxCeu1"
      },
      "_contentSize": {
        "__type__": "cc.Size",
        "width": 705,
        "height": 366
      }
    },
    {
      "__type__": "cc.Node",
      "_name": "active_reel",
      "_parent": {
        "__id__": 28
      },
      "_children": [
        {
          "__id__": 49
        },
        {
          "__id__": 50
        },
        {
          "__id__": 51
        }
      ],
      "_active": false,
      "_level": 2,
      "_components": [
        {
          "__type__": "cc.Sprite",
          "node": {
            "__id__": 48
          }
        }
      ],
      "_prefab": {
        "__type__": "cc.PrefabInfo",
        "root": {
          "__id__": 1
        },
        "asset": {
          "__uuid__": "dc9SelZBxKt4ejqiwpSxW1"
        },
        "fileId": "57zuF/0FdJcKmuzDNhy/Am"
      },
      "_contentSize": {
        "__type__": "cc.Size",
        "width": 705,
        "height": 366
      },
      "_anchorPoint": {
        "__type__": "cc.Vec2"
      },
      "_position": {
        "__type__": "cc.Vec3",
        "x": -350,
        "y": -190
      }
    },
    {
      "__type__": "cc.Node",
      "_name": "item_khung_top",
      "_parent": {
        "__id__": 48
      },
      "_level": 3,
      "_components": [
        {
          "__type__": "cc.Sprite",
          "node": {
            "__id__": 49
          }
        }
      ],
      "_prefab": {
        "__type__": "cc.PrefabInfo",
        "root": {
          "__id__": 1
        },
        "asset": {
          "__uuid__": "dc9SelZBxKt4ejqiwpSxW1"
        },
        "fileId": "9bwA9GweJGyaTZFl2bBgov"
      },
      "_contentSize": {
        "__type__": "cc.Size",
        "width": 309,
        "height": 57
      },
      "_position": {
        "__type__": "cc.Vec3",
        "x": 355,
        "y": 357
      }
    },
    {
      "__type__": "cc.Node",
      "_name": "item_khung_bottom",
      "_parent": {
        "__id__": 48
      },
      "_level": 3,
      "_components": [
        {
          "__type__": "cc.Sprite",
          "node": {
            "__id__": 50
          }
        }
      ],
      "_prefab": {
        "__type__": "cc.PrefabInfo",
        "root": {
          "__id__": 1
        },
        "asset": {
          "__uuid__": "dc9SelZBxKt4ejqiwpSxW1"
        },
        "fileId": "e9M4JlKyJGD5XxGuZZH71w"
      },
      "_contentSize": {
        "__type__": "cc.Size",
        "width": 308,
        "height": 58
      },
      "_position": {
        "__type__": "cc.Vec3",
        "x": 355,
        "y": 1
      }
    },
    {
      "__type__": "cc.Node",
      "_name": "active_reels_all",
      "_parent": {
        "__id__": 48
      },
      "_children": [
        {
          "__id__": 52
        },
        {
          "__id__": 53
        },
        {
          "__id__": 54
        },
        {
          "__id__": 55
        },
        {
          "__id__": 56
        }
      ],
      "_level": 3,
      "_components": [
        {
          "__type__": "cc.Sprite",
          "node": {
            "__id__": 51
          }
        }
      ],
      "_prefab": {
        "__type__": "cc.PrefabInfo",
        "root": {
          "__id__": 1
        },
        "asset": {
          "__uuid__": "dc9SelZBxKt4ejqiwpSxW1"
        },
        "fileId": "37LMmFcDBFEJQBeDdx73uy"
      },
      "_contentSize": {
        "__type__": "cc.Size",
        "width": 612,
        "height": 82
      },
      "_position": {
        "__type__": "cc.Vec3",
        "x": 352,
        "y": 93
      }
    },
    {
      "__type__": "cc.Node",
      "_name": "active_1",
      "_parent": {
        "__id__": 51
      },
      "_level": 4,
      "_components": [
        {
          "__type__": "cc.Button",
          "node": {
            "__id__": 52
          },
          "clickEvents": [
            {
              "__type__": "cc.ClickEvent",
              "target": {
                "__id__": 1
              },
              "_componentId": "ffc09fygINLyIuWrcreDebd",
              "handler": "activeColumn",
              "customEventData": "1"
            }
          ],
          "_N$transition": 2,
          "transition": 2,
          "_N$normalColor": {
            "__type__": "cc.Color",
            "r": 230,
            "g": 230,
            "b": 230
          },
          "_N$pressedColor": {
            "__type__": "cc.Color",
            "r": 200,
            "g": 200,
            "b": 200
          },
          "pressedColor": {
            "__type__": "cc.Color",
            "r": 200,
            "g": 200,
            "b": 200
          },
          "_N$disabledColor": {
            "__type__": "cc.Color",
            "r": 120,
            "g": 120,
            "b": 120,
            "a": 200
          },
          "_N$normalSprite": {
            "__uuid__": "f0BIwQ8D5Ml7nTNQbh1YlS"
          },
          "_N$pressedSprite": {
            "__uuid__": "e97GVMl6JHh5Ml5qEDdSGa"
          },
          "pressedSprite": {
            "__uuid__": "e97GVMl6JHh5Ml5qEDdSGa"
          },
          "_N$hoverSprite": {
            "__uuid__": "f0BIwQ8D5Ml7nTNQbh1YlS"
          },
          "hoverSprite": {
            "__uuid__": "f0BIwQ8D5Ml7nTNQbh1YlS"
          },
          "_N$disabledSprite": {
            "__uuid__": "29FYIk+N1GYaeWH/q1NxQO"
          }
        }
      ],
      "_prefab": {
        "__type__": "cc.PrefabInfo",
        "root": {
          "__id__": 1
        },
        "asset": {
          "__uuid__": "dc9SelZBxKt4ejqiwpSxW1"
        },
        "fileId": "4b9ctmedZNtLb8yINlXoxP"
      },
      "_contentSize": {
        "__type__": "cc.Size",
        "width": 110,
        "height": 80
      },
      "_position": {
        "__type__": "cc.Vec3",
        "x": -251,
        "y": -1
      }
    },
    {
      "__type__": "cc.Node",
      "_name": "active_2",
      "_parent": {
        "__id__": 51
      },
      "_level": 4,
      "_components": [
        {
          "__type__": "cc.Button",
          "node": {
            "__id__": 53
          },
          "clickEvents": [
            {
              "__type__": "cc.ClickEvent",
              "target": {
                "__id__": 1
              },
              "_componentId": "ffc09fygINLyIuWrcreDebd",
              "handler": "activeColumn",
              "customEventData": "2"
            }
          ],
          "_N$transition": 2,
          "transition": 2,
          "_N$normalColor": {
            "__type__": "cc.Color",
            "r": 230,
            "g": 230,
            "b": 230
          },
          "_N$pressedColor": {
            "__type__": "cc.Color",
            "r": 200,
            "g": 200,
            "b": 200
          },
          "pressedColor": {
            "__type__": "cc.Color",
            "r": 200,
            "g": 200,
            "b": 200
          },
          "_N$disabledColor": {
            "__type__": "cc.Color",
            "r": 120,
            "g": 120,
            "b": 120,
            "a": 200
          },
          "_N$normalSprite": {
            "__uuid__": "f0BIwQ8D5Ml7nTNQbh1YlS"
          },
          "_N$pressedSprite": {
            "__uuid__": "e97GVMl6JHh5Ml5qEDdSGa"
          },
          "pressedSprite": {
            "__uuid__": "e97GVMl6JHh5Ml5qEDdSGa"
          },
          "_N$hoverSprite": {
            "__uuid__": "f0BIwQ8D5Ml7nTNQbh1YlS"
          },
          "hoverSprite": {
            "__uuid__": "f0BIwQ8D5Ml7nTNQbh1YlS"
          },
          "_N$disabledSprite": {
            "__uuid__": "29FYIk+N1GYaeWH/q1NxQO"
          }
        }
      ],
      "_prefab": {
        "__type__": "cc.PrefabInfo",
        "root": {
          "__id__": 1
        },
        "asset": {
          "__uuid__": "dc9SelZBxKt4ejqiwpSxW1"
        },
        "fileId": "769kKVE2ZOZaHsK6idhYY8"
      },
      "_contentSize": {
        "__type__": "cc.Size",
        "width": 110,
        "height": 80
      },
      "_position": {
        "__type__": "cc.Vec3",
        "x": -125.5,
        "y": -1
      }
    },
    {
      "__type__": "cc.Node",
      "_name": "active_3",
      "_parent": {
        "__id__": 51
      },
      "_level": 4,
      "_components": [
        {
          "__type__": "cc.Button",
          "node": {
            "__id__": 54
          },
          "clickEvents": [
            {
              "__type__": "cc.ClickEvent",
              "target": {
                "__id__": 1
              },
              "_componentId": "ffc09fygINLyIuWrcreDebd",
              "handler": "activeColumn",
              "customEventData": "3"
            }
          ],
          "_N$transition": 2,
          "transition": 2,
          "_N$normalColor": {
            "__type__": "cc.Color",
            "r": 230,
            "g": 230,
            "b": 230
          },
          "_N$pressedColor": {
            "__type__": "cc.Color",
            "r": 200,
            "g": 200,
            "b": 200
          },
          "pressedColor": {
            "__type__": "cc.Color",
            "r": 200,
            "g": 200,
            "b": 200
          },
          "_N$disabledColor": {
            "__type__": "cc.Color",
            "r": 120,
            "g": 120,
            "b": 120,
            "a": 200
          },
          "_N$normalSprite": {
            "__uuid__": "f0BIwQ8D5Ml7nTNQbh1YlS"
          },
          "_N$pressedSprite": {
            "__uuid__": "e97GVMl6JHh5Ml5qEDdSGa"
          },
          "pressedSprite": {
            "__uuid__": "e97GVMl6JHh5Ml5qEDdSGa"
          },
          "_N$hoverSprite": {
            "__uuid__": "f0BIwQ8D5Ml7nTNQbh1YlS"
          },
          "hoverSprite": {
            "__uuid__": "f0BIwQ8D5Ml7nTNQbh1YlS"
          },
          "_N$disabledSprite": {
            "__uuid__": "29FYIk+N1GYaeWH/q1NxQO"
          }
        }
      ],
      "_prefab": {
        "__type__": "cc.PrefabInfo",
        "root": {
          "__id__": 1
        },
        "asset": {
          "__uuid__": "dc9SelZBxKt4ejqiwpSxW1"
        },
        "fileId": "48iM6wRsBIrKPMn1f6UJVK"
      },
      "_contentSize": {
        "__type__": "cc.Size",
        "width": 110,
        "height": 80
      },
      "_position": {
        "__type__": "cc.Vec3",
        "x": 1,
        "y": -1
      }
    },
    {
      "__type__": "cc.Node",
      "_name": "active_4",
      "_parent": {
        "__id__": 51
      },
      "_level": 4,
      "_components": [
        {
          "__type__": "cc.Button",
          "node": {
            "__id__": 55
          },
          "clickEvents": [
            {
              "__type__": "cc.ClickEvent",
              "target": {
                "__id__": 1
              },
              "_componentId": "ffc09fygINLyIuWrcreDebd",
              "handler": "activeColumn",
              "customEventData": "4"
            }
          ],
          "_N$transition": 2,
          "transition": 2,
          "_N$normalColor": {
            "__type__": "cc.Color",
            "r": 230,
            "g": 230,
            "b": 230
          },
          "_N$pressedColor": {
            "__type__": "cc.Color",
            "r": 200,
            "g": 200,
            "b": 200
          },
          "pressedColor": {
            "__type__": "cc.Color",
            "r": 200,
            "g": 200,
            "b": 200
          },
          "_N$disabledColor": {
            "__type__": "cc.Color",
            "r": 120,
            "g": 120,
            "b": 120,
            "a": 200
          },
          "_N$normalSprite": {
            "__uuid__": "f0BIwQ8D5Ml7nTNQbh1YlS"
          },
          "_N$pressedSprite": {
            "__uuid__": "e97GVMl6JHh5Ml5qEDdSGa"
          },
          "pressedSprite": {
            "__uuid__": "e97GVMl6JHh5Ml5qEDdSGa"
          },
          "_N$hoverSprite": {
            "__uuid__": "f0BIwQ8D5Ml7nTNQbh1YlS"
          },
          "hoverSprite": {
            "__uuid__": "f0BIwQ8D5Ml7nTNQbh1YlS"
          },
          "_N$disabledSprite": {
            "__uuid__": "29FYIk+N1GYaeWH/q1NxQO"
          }
        }
      ],
      "_prefab": {
        "__type__": "cc.PrefabInfo",
        "root": {
          "__id__": 1
        },
        "asset": {
          "__uuid__": "dc9SelZBxKt4ejqiwpSxW1"
        },
        "fileId": "4fuuTl4T9HEIM42TvSOTsm"
      },
      "_contentSize": {
        "__type__": "cc.Size",
        "width": 110,
        "height": 80
      },
      "_position": {
        "__type__": "cc.Vec3",
        "x": 126.2,
        "y": -1
      }
    },
    {
      "__type__": "cc.Node",
      "_name": "active_5",
      "_parent": {
        "__id__": 51
      },
      "_level": 4,
      "_components": [
        {
          "__type__": "cc.Button",
          "node": {
            "__id__": 56
          },
          "clickEvents": [
            {
              "__type__": "cc.ClickEvent",
              "target": {
                "__id__": 1
              },
              "_componentId": "ffc09fygINLyIuWrcreDebd",
              "handler": "activeColumn",
              "customEventData": "5"
            }
          ],
          "_N$transition": 2,
          "transition": 2,
          "_N$normalColor": {
            "__type__": "cc.Color",
            "r": 230,
            "g": 230,
            "b": 230
          },
          "_N$pressedColor": {
            "__type__": "cc.Color",
            "r": 200,
            "g": 200,
            "b": 200
          },
          "pressedColor": {
            "__type__": "cc.Color",
            "r": 200,
            "g": 200,
            "b": 200
          },
          "_N$disabledColor": {
            "__type__": "cc.Color",
            "r": 120,
            "g": 120,
            "b": 120,
            "a": 200
          },
          "_N$normalSprite": {
            "__uuid__": "f0BIwQ8D5Ml7nTNQbh1YlS"
          },
          "_N$pressedSprite": {
            "__uuid__": "e97GVMl6JHh5Ml5qEDdSGa"
          },
          "pressedSprite": {
            "__uuid__": "e97GVMl6JHh5Ml5qEDdSGa"
          },
          "_N$hoverSprite": {
            "__uuid__": "f0BIwQ8D5Ml7nTNQbh1YlS"
          },
          "hoverSprite": {
            "__uuid__": "f0BIwQ8D5Ml7nTNQbh1YlS"
          },
          "_N$disabledSprite": {
            "__uuid__": "29FYIk+N1GYaeWH/q1NxQO"
          }
        }
      ],
      "_prefab": {
        "__type__": "cc.PrefabInfo",
        "root": {
          "__id__": 1
        },
        "asset": {
          "__uuid__": "dc9SelZBxKt4ejqiwpSxW1"
        },
        "fileId": "6f27AJc+xKJIod8UY+xKuH"
      },
      "_contentSize": {
        "__type__": "cc.Size",
        "width": 110,
        "height": 80
      },
      "_position": {
        "__type__": "cc.Vec3",
        "x": 250.2,
        "y": -1
      }
    },
    {
      "__type__": "cc.Node",
      "_name": "reward",
      "_parent": {
        "__id__": 28
      },
      "_children": [
        {
          "__id__": 58
        },
        {
          "__id__": 59
        },
        {
          "__id__": 60
        },
        {
          "__id__": 61
        }
      ],
      "_active": false,
      "_level": 3,
      "_prefab": {
        "__type__": "cc.PrefabInfo",
        "root": {
          "__id__": 1
        },
        "asset": {
          "__uuid__": "dc9SelZBxKt4ejqiwpSxW1"
        },
        "fileId": "bayrUwrytDRYQDt70BCl1S"
      },
      "_contentSize": {
        "__type__": "cc.Size",
        "width": 498,
        "height": 213
      }
    },
    {
      "__type__": "cc.Node",
      "_name": "color_reward",
      "_parent": {
        "__id__": 57
      },
      "_level": 4,
      "_components": [
        {
          "__type__": "cc.Sprite",
          "node": {
            "__id__": 58
          }
        }
      ],
      "_prefab": {
        "__type__": "cc.PrefabInfo",
        "root": {
          "__id__": 1
        },
        "asset": {
          "__uuid__": "dc9SelZBxKt4ejqiwpSxW1"
        },
        "fileId": "b4RERD+uhH3reU+QGJsTk8"
      },
      "_contentSize": {
        "__type__": "cc.Size",
        "width": 642,
        "height": 366
      }
    },
    {
      "__type__": "cc.Node",
      "_name": "reward",
      "_parent": {
        "__id__": 57
      },
      "_level": 4,
      "_components": [
        {
          "__type__": "cc.Sprite",
          "node": {
            "__id__": 59
          }
        }
      ],
      "_prefab": {
        "__type__": "cc.PrefabInfo",
        "root": {
          "__id__": 1
        },
        "asset": {
          "__uuid__": "dc9SelZBxKt4ejqiwpSxW1"
        },
        "fileId": "d7Zo6Cd5BBtbakMuF0VKby"
      },
      "_contentSize": {
        "__type__": "cc.Size",
        "width": 498,
        "height": 213
      }
    },
    {
      "__type__": "cc.Node",
      "_name": "title",
      "_parent": {
        "__id__": 57
      },
      "_level": 3,
      "_components": [
        {
          "__type__": "cc.Sprite",
          "node": {
            "__id__": 60
          }
        }
      ],
      "_prefab": {
        "__type__": "cc.PrefabInfo",
        "root": {
          "__id__": 1
        },
        "asset": {
          "__uuid__": "dc9SelZBxKt4ejqiwpSxW1"
        },
        "fileId": "01SJ6mLMNHdp+dnKhqPoFn"
      },
      "_contentSize": {
        "__type__": "cc.Size",
        "width": 228,
        "height": 64
      },
      "_position": {
        "__type__": "cc.Vec3",
        "y": 68
      }
    },
    {
      "__type__": "cc.Node",
      "_name": "total_win",
      "_parent": {
        "__id__": 57
      },
      "_level": 3,
      "_components": [
        {
          "__type__": "cc.Label",
          "node": {
            "__id__": 61
          },
          "_useOriginalSize": false,
          "_string": "100,000,000,000",
          "_N$string": "100,000,000,000",
          "_fontSize": 60,
          "_lineHeight": 70,
          "_N$file": {
            "__uuid__": "97kPzCYMhHGLtlQ/zjS4EU"
          },
          "_isSystemFontUsed": false,
          "_N$horizontalAlign": 1,
          "_N$verticalAlign": 1
        }
      ],
      "_prefab": {
        "__type__": "cc.PrefabInfo",
        "root": {
          "__id__": 1
        },
        "asset": {
          "__uuid__": "dc9SelZBxKt4ejqiwpSxW1"
        },
        "fileId": "0dcxDp3RVK5Ytizd5seGwh"
      },
      "_contentSize": {
        "__type__": "cc.Size",
        "width": 471.67,
        "height": 58.33
      },
      "_position": {
        "__type__": "cc.Vec3",
        "y": -29
      }
    },
    {
      "__type__": "sp.Skeleton",
      "node": {
        "__id__": 63
      },
      "_preCacheMode": 0,
      "timeScale": 1.5,
      "_animationName": "ani_bay"
    },
    {
      "__type__": "cc.Node",
      "_name": "bird_ani",
      "_parent": {
        "__id__": 3
      },
      "_level": 2,
      "_components": [
        {
          "__id__": 62
        }
      ],
      "_prefab": {
        "__type__": "cc.PrefabInfo",
        "root": {
          "__id__": 1
        },
        "asset": {
          "__uuid__": "dc9SelZBxKt4ejqiwpSxW1"
        },
        "fileId": "58+GMu0mtJdLdbMCXh2Nhk"
      },
      "_contentSize": {
        "__type__": "cc.Size",
        "width": 219.7,
        "height": 202
      },
      "_position": {
        "__type__": "cc.Vec3",
        "x": 530,
        "y": -150
      }
    },
    {
      "__type__": "cc.Node",
      "_name": "LinesController",
      "_parent": {
        "__id__": 1
      },
      "_level": 2,
      "_components": [
        {
          "__type__": "ddc65mv5XtJr6Rcm5HohZzJ",
          "node": {
            "__id__": 64
          },
          "tableView": {
            "__id__": 5
          }
        }
      ],
      "_prefab": {
        "__type__": "cc.PrefabInfo",
        "root": {
          "__id__": 1
        },
        "asset": {
          "__uuid__": "dc9SelZBxKt4ejqiwpSxW1"
        },
        "fileId": "96xTxCG7JPXaQaMlGPAA97"
      },
      "_contentSize": {
        "__type__": "cc.Size",
        "width": 1280,
        "height": 720
      },
      "_anchorPoint": {
        "__type__": "cc.Vec2"
      },
      "_position": {
        "__type__": "cc.Vec3",
        "x": -640,
        "y": -360
      }
    }
  ],
  {
    "__type__": "cc.BitmapFont",
    "_name": "font",
    "spriteFrame": {
      "__uuid__": "4cJxyzJIZD8Y31QWz9kbm9"
    },
    "fontSize": 72,
    "_fntConfig": {
      "commonHeight": 84,
      "fontSize": 72,
      "atlasName": "font.png",
      "fontDefDictionary": {
        "32": {
          "rect": {
            "x": 0,
            "y": 0,
            "width": 0,
            "height": 0
          },
          "xOffset": 0,
          "yOffset": 60,
          "xAdvance": 18
        },
        "33": {
          "rect": {
            "x": 206,
            "y": 397,
            "width": 16,
            "height": 55
          },
          "xOffset": 4,
          "yOffset": 9,
          "xAdvance": 20
        },
        "34": {
          "rect": {
            "x": 119,
            "y": 487,
            "width": 24,
            "height": 23
          },
          "xOffset": 1,
          "yOffset": 6,
          "xAdvance": 23
        },
        "35": {
          "rect": {
            "x": 327,
            "y": 114,
            "width": 42,
            "height": 54
          },
          "xOffset": 1,
          "yOffset": 9,
          "xAdvance": 42
        },
        "36": {
          "rect": {
            "x": 334,
            "y": 241,
            "width": 39,
            "height": 70
          },
          "xOffset": 3,
          "yOffset": 1,
          "xAdvance": 42
        },
        "37": {
          "rect": {
            "x": 244,
            "y": 342,
            "width": 50,
            "height": 56
          },
          "xOffset": 3,
          "yOffset": 8,
          "xAdvance": 53
        },
        "38": {
          "rect": {
            "x": 345,
            "y": 2,
            "width": 49,
            "height": 56
          },
          "xOffset": 2,
          "yOffset": 8,
          "xAdvance": 49
        },
        "39": {
          "rect": {
            "x": 182,
            "y": 283,
            "width": 12,
            "height": 23
          },
          "xOffset": 2,
          "yOffset": 6,
          "xAdvance": 11
        },
        "40": {
          "rect": {
            "x": 276,
            "y": 400,
            "width": 23,
            "height": 76
          },
          "xOffset": 4,
          "yOffset": 4,
          "xAdvance": 25
        },
        "41": {
          "rect": {
            "x": 278,
            "y": 170,
            "width": 25,
            "height": 76
          },
          "xOffset": 0,
          "yOffset": 4,
          "xAdvance": 25
        },
        "42": {
          "rect": {
            "x": 224,
            "y": 400,
            "width": 37,
            "height": 35
          },
          "xOffset": 0,
          "yOffset": 9,
          "xAdvance": 33
        },
        "43": {
          "rect": {
            "x": 296,
            "y": 341,
            "width": 38,
            "height": 40
          },
          "xOffset": 2,
          "yOffset": 18,
          "xAdvance": 38
        },
        "44": {
          "rect": {
            "x": 128,
            "y": 105,
            "width": 17,
            "height": 26
          },
          "xOffset": 2,
          "yOffset": 51,
          "xAdvance": 19
        },
        "45": {
          "rect": {
            "x": 43,
            "y": 180,
            "width": 24,
            "height": 12
          },
          "xOffset": 5,
          "yOffset": 33,
          "xAdvance": 32
        },
        "46": {
          "rect": {
            "x": 117,
            "y": 251,
            "width": 16,
            "height": 15
          },
          "xOffset": 4,
          "yOffset": 48,
          "xAdvance": 22
        },
        "47": {
          "rect": {
            "x": 302,
            "y": 248,
            "width": 30,
            "height": 59
          },
          "xOffset": -1,
          "yOffset": 9,
          "xAdvance": 25
        },
        "48": {
          "rect": {
            "x": 397,
            "y": 58,
            "width": 39,
            "height": 56
          },
          "xOffset": 3,
          "yOffset": 8,
          "xAdvance": 42
        },
        "49": {
          "rect": {
            "x": 396,
            "y": 2,
            "width": 27,
            "height": 54
          },
          "xOffset": 6,
          "yOffset": 9,
          "xAdvance": 42
        },
        "50": {
          "rect": {
            "x": 348,
            "y": 390,
            "width": 40,
            "height": 55
          },
          "xOffset": 2,
          "yOffset": 8,
          "xAdvance": 42
        },
        "51": {
          "rect": {
            "x": 348,
            "y": 447,
            "width": 41,
            "height": 56
          },
          "xOffset": 2,
          "yOffset": 8,
          "xAdvance": 42
        },
        "52": {
          "rect": {
            "x": 369,
            "y": 313,
            "width": 41,
            "height": 54
          },
          "xOffset": 2,
          "yOffset": 9,
          "xAdvance": 42
        },
        "53": {
          "rect": {
            "x": 375,
            "y": 241,
            "width": 39,
            "height": 55
          },
          "xOffset": 3,
          "yOffset": 9,
          "xAdvance": 42
        },
        "54": {
          "rect": {
            "x": 390,
            "y": 369,
            "width": 40,
            "height": 56
          },
          "xOffset": 3,
          "yOffset": 8,
          "xAdvance": 42
        },
        "55": {
          "rect": {
            "x": 412,
            "y": 298,
            "width": 40,
            "height": 54
          },
          "xOffset": 2,
          "yOffset": 9,
          "xAdvance": 42
        },
        "56": {
          "rect": {
            "x": 391,
            "y": 427,
            "width": 39,
            "height": 56
          },
          "xOffset": 3,
          "yOffset": 8,
          "xAdvance": 42
        },
        "57": {
          "rect": {
            "x": 382,
            "y": 134,
            "width": 39,
            "height": 56
          },
          "xOffset": 3,
          "yOffset": 8,
          "xAdvance": 42
        },
        "58": {
          "rect": {
            "x": 130,
            "y": 380,
            "width": 16,
            "height": 43
          },
          "xOffset": 4,
          "yOffset": 20,
          "xAdvance": 22
        },
        "59": {
          "rect": {
            "x": 244,
            "y": 283,
            "width": 18,
            "height": 57
          },
          "xOffset": 2,
          "yOffset": 20,
          "xAdvance": 21
        },
        "61": {
          "rect": {
            "x": 31,
            "y": 479,
            "width": 36,
            "height": 28
          },
          "xOffset": 5,
          "yOffset": 25,
          "xAdvance": 42
        },
        "63": {
          "rect": {
            "x": 264,
            "y": 283,
            "width": 36,
            "height": 56
          },
          "xOffset": 1,
          "yOffset": 8,
          "xAdvance": 37
        },
        "64": {
          "rect": {
            "x": 317,
            "y": 170,
            "width": 63,
            "height": 69
          },
          "xOffset": 2,
          "yOffset": 10,
          "xAdvance": 64
        },
        "65": {
          "rect": {
            "x": 86,
            "y": 268,
            "width": 53,
            "height": 54
          },
          "xOffset": 0,
          "yOffset": 9,
          "xAdvance": 49
        },
        "66": {
          "rect": {
            "x": 117,
            "y": 194,
            "width": 43,
            "height": 55
          },
          "xOffset": 4,
          "yOffset": 9,
          "xAdvance": 46
        },
        "67": {
          "rect": {
            "x": 71,
            "y": 433,
            "width": 46,
            "height": 56
          },
          "xOffset": 2,
          "yOffset": 8,
          "xAdvance": 47
        },
        "68": {
          "rect": {
            "x": 84,
            "y": 374,
            "width": 44,
            "height": 55
          },
          "xOffset": 4,
          "yOffset": 9,
          "xAdvance": 47
        },
        "69": {
          "rect": {
            "x": 119,
            "y": 431,
            "width": 39,
            "height": 54
          },
          "xOffset": 4,
          "yOffset": 9,
          "xAdvance": 40
        },
        "70": {
          "rect": {
            "x": 145,
            "y": 46,
            "width": 38,
            "height": 54
          },
          "xOffset": 4,
          "yOffset": 9,
          "xAdvance": 39
        },
        "71": {
          "rect": {
            "x": 147,
            "y": 102,
            "width": 46,
            "height": 56
          },
          "xOffset": 3,
          "yOffset": 8,
          "xAdvance": 49
        },
        "72": {
          "rect": {
            "x": 185,
            "y": 2,
            "width": 46,
            "height": 54
          },
          "xOffset": 4,
          "yOffset": 9,
          "xAdvance": 51
        },
        "73": {
          "rect": {
            "x": 130,
            "y": 324,
            "width": 16,
            "height": 54
          },
          "xOffset": 5,
          "yOffset": 9,
          "xAdvance": 22
        },
        "74": {
          "rect": {
            "x": 141,
            "y": 251,
            "width": 39,
            "height": 55
          },
          "xOffset": 1,
          "yOffset": 9,
          "xAdvance": 40
        },
        "75": {
          "rect": {
            "x": 162,
            "y": 160,
            "width": 47,
            "height": 54
          },
          "xOffset": 4,
          "yOffset": 9,
          "xAdvance": 46
        },
        "76": {
          "rect": {
            "x": 195,
            "y": 58,
            "width": 37,
            "height": 54
          },
          "xOffset": 4,
          "yOffset": 9,
          "xAdvance": 39
        },
        "77": {
          "rect": {
            "x": 233,
            "y": 2,
            "width": 59,
            "height": 54
          },
          "xOffset": 4,
          "yOffset": 9,
          "xAdvance": 63
        },
        "78": {
          "rect": {
            "x": 148,
            "y": 308,
            "width": 46,
            "height": 54
          },
          "xOffset": 4,
          "yOffset": 9,
          "xAdvance": 51
        },
        "79": {
          "rect": {
            "x": 148,
            "y": 364,
            "width": 48,
            "height": 56
          },
          "xOffset": 2,
          "yOffset": 8,
          "xAdvance": 50
        },
        "80": {
          "rect": {
            "x": 160,
            "y": 422,
            "width": 44,
            "height": 54
          },
          "xOffset": 4,
          "yOffset": 9,
          "xAdvance": 47
        },
        "81": {
          "rect": {
            "x": 182,
            "y": 216,
            "width": 48,
            "height": 65
          },
          "xOffset": 3,
          "yOffset": 8,
          "xAdvance": 50
        },
        "82": {
          "rect": {
            "x": 196,
            "y": 283,
            "width": 45,
            "height": 54
          },
          "xOffset": 4,
          "yOffset": 9,
          "xAdvance": 47
        },
        "83": {
          "rect": {
            "x": 198,
            "y": 339,
            "width": 44,
            "height": 56
          },
          "xOffset": 2,
          "yOffset": 8,
          "xAdvance": 45
        },
        "84": {
          "rect": {
            "x": 211,
            "y": 114,
            "width": 46,
            "height": 54
          },
          "xOffset": 1,
          "yOffset": 9,
          "xAdvance": 45
        },
        "85": {
          "rect": {
            "x": 232,
            "y": 170,
            "width": 44,
            "height": 55
          },
          "xOffset": 4,
          "yOffset": 9,
          "xAdvance": 48
        },
        "86": {
          "rect": {
            "x": 234,
            "y": 58,
            "width": 52,
            "height": 54
          },
          "xOffset": 0,
          "yOffset": 9,
          "xAdvance": 48
        },
        "87": {
          "rect": {
            "x": 259,
            "y": 114,
            "width": 66,
            "height": 54
          },
          "xOffset": 0,
          "yOffset": 9,
          "xAdvance": 63
        },
        "88": {
          "rect": {
            "x": 288,
            "y": 58,
            "width": 49,
            "height": 54
          },
          "xOffset": 0,
          "yOffset": 9,
          "xAdvance": 46
        },
        "89": {
          "rect": {
            "x": 294,
            "y": 2,
            "width": 49,
            "height": 54
          },
          "xOffset": 0,
          "yOffset": 9,
          "xAdvance": 45
        },
        "90": {
          "rect": {
            "x": 232,
            "y": 227,
            "width": 43,
            "height": 54
          },
          "xOffset": 2,
          "yOffset": 9,
          "xAdvance": 44
        },
        "91": {
          "rect": {
            "x": 327,
            "y": 383,
            "width": 19,
            "height": 75
          },
          "xOffset": 4,
          "yOffset": 0,
          "xAdvance": 20
        },
        "93": {
          "rect": {
            "x": 348,
            "y": 313,
            "width": 19,
            "height": 75
          },
          "xOffset": 0,
          "yOffset": 0,
          "xAdvance": 20
        },
        "94": {
          "rect": {
            "x": 160,
            "y": 478,
            "width": 33,
            "height": 29
          },
          "xOffset": 1,
          "yOffset": 9,
          "xAdvance": 32
        },
        "95": {
          "rect": {
            "x": 42,
            "y": 374,
            "width": 35,
            "height": 12
          },
          "xOffset": 0,
          "yOffset": 60,
          "xAdvance": 32
        },
        "97": {
          "rect": {
            "x": 2,
            "y": 2,
            "width": 38,
            "height": 43
          },
          "xOffset": 2,
          "yOffset": 21,
          "xAdvance": 38
        },
        "98": {
          "rect": {
            "x": 2,
            "y": 47,
            "width": 39,
            "height": 58
          },
          "xOffset": 3,
          "yOffset": 6,
          "xAdvance": 41
        },
        "99": {
          "rect": {
            "x": 42,
            "y": 2,
            "width": 37,
            "height": 43
          },
          "xOffset": 2,
          "yOffset": 21,
          "xAdvance": 37
        },
        "100": {
          "rect": {
            "x": 2,
            "y": 107,
            "width": 39,
            "height": 58
          },
          "xOffset": 2,
          "yOffset": 6,
          "xAdvance": 41
        },
        "101": {
          "rect": {
            "x": 2,
            "y": 167,
            "width": 39,
            "height": 43
          },
          "xOffset": 2,
          "yOffset": 21,
          "xAdvance": 39
        },
        "102": {
          "rect": {
            "x": 2,
            "y": 212,
            "width": 29,
            "height": 58
          },
          "xOffset": 0,
          "yOffset": 5,
          "xAdvance": 26
        },
        "103": {
          "rect": {
            "x": 2,
            "y": 272,
            "width": 39,
            "height": 57
          },
          "xOffset": 2,
          "yOffset": 21,
          "xAdvance": 41
        },
        "104": {
          "rect": {
            "x": 33,
            "y": 212,
            "width": 38,
            "height": 57
          },
          "xOffset": 3,
          "yOffset": 6,
          "xAdvance": 41
        },
        "105": {
          "rect": {
            "x": 43,
            "y": 47,
            "width": 16,
            "height": 57
          },
          "xOffset": 3,
          "yOffset": 6,
          "xAdvance": 20
        },
        "106": {
          "rect": {
            "x": 43,
            "y": 106,
            "width": 24,
            "height": 72
          },
          "xOffset": -4,
          "yOffset": 6,
          "xAdvance": 19
        },
        "107": {
          "rect": {
            "x": 61,
            "y": 47,
            "width": 41,
            "height": 57
          },
          "xOffset": 3,
          "yOffset": 6,
          "xAdvance": 39
        },
        "108": {
          "rect": {
            "x": 69,
            "y": 106,
            "width": 15,
            "height": 57
          },
          "xOffset": 4,
          "yOffset": 6,
          "xAdvance": 20
        },
        "109": {
          "rect": {
            "x": 81,
            "y": 2,
            "width": 59,
            "height": 42
          },
          "xOffset": 3,
          "yOffset": 21,
          "xAdvance": 62
        },
        "110": {
          "rect": {
            "x": 69,
            "y": 165,
            "width": 38,
            "height": 42
          },
          "xOffset": 3,
          "yOffset": 21,
          "xAdvance": 41
        },
        "111": {
          "rect": {
            "x": 86,
            "y": 106,
            "width": 40,
            "height": 43
          },
          "xOffset": 2,
          "yOffset": 21,
          "xAdvance": 40
        },
        "112": {
          "rect": {
            "x": 104,
            "y": 46,
            "width": 39,
            "height": 57
          },
          "xOffset": 3,
          "yOffset": 21,
          "xAdvance": 41
        },
        "113": {
          "rect": {
            "x": 2,
            "y": 331,
            "width": 38,
            "height": 57
          },
          "xOffset": 2,
          "yOffset": 21,
          "xAdvance": 40
        },
        "114": {
          "rect": {
            "x": 142,
            "y": 2,
            "width": 26,
            "height": 42
          },
          "xOffset": 3,
          "yOffset": 21,
          "xAdvance": 27
        },
        "115": {
          "rect": {
            "x": 2,
            "y": 390,
            "width": 37,
            "height": 43
          },
          "xOffset": 1,
          "yOffset": 21,
          "xAdvance": 37
        },
        "116": {
          "rect": {
            "x": 2,
            "y": 435,
            "width": 27,
            "height": 52
          },
          "xOffset": 0,
          "yOffset": 12,
          "xAdvance": 25
        },
        "117": {
          "rect": {
            "x": 31,
            "y": 435,
            "width": 38,
            "height": 42
          },
          "xOffset": 3,
          "yOffset": 22,
          "xAdvance": 41
        },
        "118": {
          "rect": {
            "x": 41,
            "y": 390,
            "width": 41,
            "height": 41
          },
          "xOffset": 0,
          "yOffset": 22,
          "xAdvance": 37
        },
        "119": {
          "rect": {
            "x": 42,
            "y": 331,
            "width": 55,
            "height": 41
          },
          "xOffset": 0,
          "yOffset": 22,
          "xAdvance": 52
        },
        "120": {
          "rect": {
            "x": 43,
            "y": 271,
            "width": 41,
            "height": 41
          },
          "xOffset": 0,
          "yOffset": 22,
          "xAdvance": 37
        },
        "121": {
          "rect": {
            "x": 73,
            "y": 209,
            "width": 42,
            "height": 57
          },
          "xOffset": 0,
          "yOffset": 22,
          "xAdvance": 37
        },
        "122": {
          "rect": {
            "x": 109,
            "y": 151,
            "width": 36,
            "height": 41
          },
          "xOffset": 2,
          "yOffset": 22,
          "xAdvance": 37
        },
        "123": {
          "rect": {
            "x": 371,
            "y": 60,
            "width": 24,
            "height": 72
          },
          "xOffset": 1,
          "yOffset": 4,
          "xAdvance": 23
        },
        "124": {
          "rect": {
            "x": 305,
            "y": 170,
            "width": 10,
            "height": 64
          },
          "xOffset": 6,
          "yOffset": 9,
          "xAdvance": 18
        },
        "125": {
          "rect": {
            "x": 301,
            "y": 383,
            "width": 24,
            "height": 72
          },
          "xOffset": 1,
          "yOffset": 4,
          "xAdvance": 23
        },
        "8470": {
          "rect": {
            "x": 206,
            "y": 454,
            "width": 68,
            "height": 55
          },
          "xOffset": 4,
          "yOffset": 8,
          "xAdvance": 72
        }
      },
      "kerningDict": {}
    }
  },
  {
    "__type__": "cc.SpriteFrame",
    "content": {
      "name": "default_btn_pressed",
      "texture": "b4P/PCArtIdIH38t6mlw8Y",
      "rect": [
        0,
        0,
        40,
        40
      ],
      "offset": [
        0,
        0
      ],
      "originalSize": [
        40,
        40
      ],
      "capInsets": [
        12,
        12,
        12,
        12
      ]
    }
  },
  {
    "__type__": "cc.SpriteFrame",
    "content": {
      "name": "default_btn_normal",
      "texture": "e8Ueib+qJEhL6mXAHdnwbi",
      "rect": [
        0,
        0,
        40,
        40
      ],
      "offset": [
        0,
        0
      ],
      "originalSize": [
        40,
        40
      ],
      "capInsets": [
        12,
        12,
        12,
        12
      ]
    }
  },
  {
    "__type__": "cc.SpriteFrame",
    "content": {
      "name": "overlay",
      "texture": "46MDNNzGBC1ZktAuh11ppK",
      "rect": [
        0,
        0,
        1280,
        720
      ],
      "offset": [
        0,
        0
      ],
      "originalSize": [
        1280,
        720
      ],
      "capInsets": [
        0,
        0,
        0,
        0
      ]
    }
  }
]