{
  "__type__": "cc.SpriteFrame",
  "content": {
    "name": "select-bet-wild-scatter",
    "texture": "efD0VP+H1J6YfdtTBLxWQT",
    "rect": [
      0,
      0,
      196,
      176
    ],
    "offset": [
      0,
      0
    ],
    "originalSize": [
      196,
      176
    ],
    "capInsets": [
      0,
      0,
      0,
      0
    ]
  }
}