{
  "__type__": "cc.SpriteFrame",
  "content": {
    "name": "Casino-bg-congrat-bg-money-win",
    "texture": "dfg7+pAjdLY7o4Jj+SP6ZP",
    "rect": [
      0,
      0,
      959,
      178
    ],
    "offset": [
      0,
      0
    ],
    "originalSize": [
      959,
      178
    ],
    "capInsets": [
      0,
      0,
      0,
      0
    ]
  }
}