{
  "__type__": "cc.SpriteFrame",
  "content": {
    "name": "bonus-coin-2",
    "texture": "9cjTeBmi9C1YtjllSGFpal",
    "rect": [
      0,
      0,
      1280,
      720
    ],
    "offset": [
      0,
      0
    ],
    "originalSize": [
      1280,
      720
    ],
    "capInsets": [
      0,
      0,
      0,
      0
    ]
  }
}