{
  "__type__": "cc.SpriteFrame",
  "content": {
    "name": "light03_spin",
    "texture": "a1yKIORCBC+Kamx0tz7JLI",
    "rect": [
      8,
      0,
      298,
      309
    ],
    "offset": [
      4,
      0
    ],
    "originalSize": [
      306,
      309
    ],
    "capInsets": [
      0,
      0,
      0,
      0
    ]
  }
}