{
  "__type__": "dragonBones.DragonBonesAtlasAsset",
  "_name": "NewProject_2_tex",
  "_atlasJson": "{\"SubTexture\":[{\"frameWidth\":142,\"y\":285,\"frameHeight\":142,\"height\":93,\"frameX\":-22,\"width\":99,\"name\":\"item-casino-3\",\"frameY\":-17,\"x\":329},{\"frameWidth\":142,\"y\":144,\"frameHeight\":142,\"height\":120,\"frameX\":-11,\"width\":120,\"name\":\"item-casino-1\",\"frameY\":-22,\"x\":145},{\"frameWidth\":142,\"y\":401,\"frameHeight\":142,\"height\":91,\"frameX\":-16,\"width\":103,\"name\":\"item-casino-5\",\"frameY\":-22,\"x\":323},{\"frameWidth\":142,\"y\":1,\"frameHeight\":142,\"height\":141,\"frameX\":0,\"width\":142,\"name\":\"item-casino-9\",\"frameY\":0,\"x\":145},{\"frameWidth\":142,\"y\":371,\"frameHeight\":142,\"height\":111,\"frameX\":-17,\"width\":106,\"name\":\"item-casino-8\",\"frameY\":-14,\"x\":1},{\"frameWidth\":142,\"y\":380,\"frameHeight\":142,\"height\":113,\"frameX\":-34,\"width\":75,\"name\":\"item-casino-12\",\"frameY\":-11,\"x\":428},{\"frameWidth\":142,\"y\":285,\"frameHeight\":142,\"height\":114,\"frameX\":-23,\"width\":97,\"name\":\"item-casino-7\",\"frameY\":-14,\"x\":230},{\"frameWidth\":142,\"y\":1,\"frameHeight\":142,\"height\":140,\"frameX\":-1,\"width\":139,\"name\":\"item-casino-15\",\"frameY\":-1,\"x\":289},{\"frameWidth\":142,\"y\":401,\"frameHeight\":142,\"height\":107,\"frameX\":-26,\"width\":91,\"name\":\"item-casino-4\",\"frameY\":-15,\"x\":230},{\"frameWidth\":142,\"y\":145,\"frameHeight\":142,\"height\":109,\"frameX\":-7,\"width\":127,\"name\":\"item-casino-14\",\"frameY\":-13,\"x\":1},{\"frameWidth\":142,\"y\":381,\"frameHeight\":142,\"height\":103,\"frameX\":-13,\"width\":115,\"name\":\"item-casino-10\",\"frameY\":-24,\"x\":113},{\"frameWidth\":142,\"y\":266,\"frameHeight\":142,\"height\":113,\"frameX\":-17,\"width\":108,\"name\":\"item-casino-13\",\"frameY\":-10,\"x\":113},{\"frameWidth\":142,\"y\":143,\"frameHeight\":142,\"height\":140,\"frameX\":-1,\"width\":139,\"name\":\"item-casino-2\",\"frameY\":-1,\"x\":289},{\"x\":1,\"y\":1,\"width\":142,\"name\":\"item-casino-6\",\"height\":142},{\"frameWidth\":142,\"y\":256,\"frameHeight\":142,\"height\":113,\"frameX\":-20,\"width\":110,\"name\":\"item-casino-11\",\"frameY\":-12,\"x\":1}],\"width\":512,\"name\":\"NewProject_2\",\"imagePath\":\"NewProject_2_tex.png\",\"height\":512}",
  "_texture": {
    "__uuid__": "62ahVYKp1AvozTQy7cXMMf"
  },
  "texture": {
    "__uuid__": "62ahVYKp1AvozTQy7cXMMf"
  }
}