{
  "__type__": "cc.SpriteFrame",
  "content": {
    "name": "line-game-egypt",
    "texture": "2bZc8rxG1LJ41EMClQzd4o",
    "rect": [
      0,
      0,
      608,
      34
    ],
    "offset": [
      0,
      0
    ],
    "originalSize": [
      608,
      34
    ],
    "capInsets": [
      15,
      0,
      15,
      0
    ]
  }
}