{
  "__type__": "cc.SpriteFrame",
  "content": {
    "name": "casino-slot-bg-coin-colect-money",
    "texture": "4cw91KuEZH04jZvtz6JoBD",
    "rect": [
      0,
      0,
      207,
      100
    ],
    "offset": [
      0,
      0
    ],
    "originalSize": [
      207,
      100
    ],
    "capInsets": [
      0,
      0,
      0,
      0
    ]
  }
}