{
  "__type__": "cc.SpriteFrame",
  "content": {
    "name": "bonus_active_view",
    "texture": "fcQuB8EcZE+IHEqBI21SPc",
    "rect": [
      0,
      0,
      1280,
      720
    ],
    "offset": [
      0,
      0
    ],
    "originalSize": [
      1280,
      720
    ],
    "capInsets": [
      0,
      0,
      0,
      0
    ]
  }
}