{
  "__type__": "cc.SpriteFrame",
  "content": {
    "name": "casino-slot-bg-major-money",
    "texture": "9b7hs8RN1Ggqml98DebcM2",
    "rect": [
      0,
      0,
      321,
      48
    ],
    "offset": [
      0,
      0
    ],
    "originalSize": [
      321,
      48
    ],
    "capInsets": [
      0,
      0,
      0,
      0
    ]
  }
}